^D:\USERS\USER-PC\DOCUMENTS\VISUAL STUDIO 2013\PROJECTS\YEAR2(2017)\C++-SEMEST2\HW18_DANIELDAVIDOV\FILES\HW18_DANIELDAVIDOV\HW18_DANIELDAVIDOV\HELPER.CPP|D:\USERS\USER-PC\DOCUMENTS\VISUAL STUDIO 2013\PROJECTS\YEAR2(2017)\C++-SEMEST2\HW18_DANIELDAVIDOV\FILES\HW18_DANIELDAVIDOV\HW18_DANIELDAVIDOV\SOURCE.CPP
D:\USERS\USER-PC\DOCUMENTS\VISUAL STUDIO 2013\PROJECTS\YEAR2(2017)\C++-SEMEST2\HW18_DANIELDAVIDOV\FILES\HW18_DANIELDAVIDOV\HW18_DANIELDAVIDOV\DEBUG\VC120.PDB
D:\USERS\USER-PC\DOCUMENTS\VISUAL STUDIO 2013\PROJECTS\YEAR2(2017)\C++-SEMEST2\HW18_DANIELDAVIDOV\FILES\HW18_DANIELDAVIDOV\HW18_DANIELDAVIDOV\DEBUG\VC120.IDB
D:\USERS\USER-PC\DOCUMENTS\VISUAL STUDIO 2013\PROJECTS\YEAR2(2017)\C++-SEMEST2\HW18_DANIELDAVIDOV\FILES\HW18_DANIELDAVIDOV\HW18_DANIELDAVIDOV\DEBUG\HELPER.OBJ
D:\USERS\USER-PC\DOCUMENTS\VISUAL STUDIO 2013\PROJECTS\YEAR2(2017)\C++-SEMEST2\HW18_DANIELDAVIDOV\FILES\HW18_DANIELDAVIDOV\HW18_DANIELDAVIDOV\DEBUG\SOURCE.OBJ
^D:\USERS\USER-PC\DOCUMENTS\VISUAL STUDIO 2013\PROJECTS\YEAR2(2017)\C++-SEMEST2\HW18_DANIELDAVIDOV\FILES\HW18_DANIELDAVIDOV\HW18_DANIELDAVIDOV\HELPER.CPP
D:\USERS\USER-PC\DOCUMENTS\VISUAL STUDIO 2013\PROJECTS\YEAR2(2017)\C++-SEMEST2\HW18_DANIELDAVIDOV\FILES\HW18_DANIELDAVIDOV\HW18_DANIELDAVIDOV\DEBUG\VC120.PDB
^D:\USERS\USER-PC\DOCUMENTS\VISUAL STUDIO 2013\PROJECTS\YEAR2(2017)\C++-SEMEST2\HW18_DANIELDAVIDOV\FILES\HW18_DANIELDAVIDOV\HW18_DANIELDAVIDOV\SOURCE.CPP
D:\USERS\USER-PC\DOCUMENTS\VISUAL STUDIO 2013\PROJECTS\YEAR2(2017)\C++-SEMEST2\HW18_DANIELDAVIDOV\FILES\HW18_DANIELDAVIDOV\HW18_DANIELDAVIDOV\DEBUG\VC120.PDB
D:\USERS\USER-PC\DOCUMENTS\VISUAL STUDIO 2013\PROJECTS\YEAR2(2017)\C++-SEMEST2\HW18_DANIELDAVIDOV\FILES\HW18_DANIELDAVIDOV\HW18_DANIELDAVIDOV\DEBUG\VC120.IDB
D:\USERS\USER-PC\DOCUMENTS\VISUAL STUDIO 2013\PROJECTS\YEAR2(2017)\C++-SEMEST2\HW18_DANIELDAVIDOV\FILES\HW18_DANIELDAVIDOV\HW18_DANIELDAVIDOV\DEBUG\SOURCE.OBJ
