^D:\USERS\USER-PC\DOCUMENTS\VISUAL STUDIO 2013\PROJECTS\YEAR2(2017)\C++-SEMEST2\HW17_DANIELDAVIDOV\HW17\SERVER - שרת שרק עובדים מולו(אולי ירצו לדבג אותו)\OPERATOR\OPERATOR\OPERATOR\DEBUG\OPERATOR.OBJ|D:\USERS\USER-PC\DOCUMENTS\VISUAL STUDIO 2013\PROJECTS\YEAR2(2017)\C++-SEMEST2\HW17_DANIELDAVIDOV\HW17\SERVER - שרת שרק עובדים מולו(אולי ירצו לדבג אותו)\OPERATOR\OPERATOR\OPERATOR\DEBUG\STDAFX.OBJ
D:\USERS\USER-PC\DOCUMENTS\VISUAL STUDIO 2013\PROJECTS\YEAR2(2017)\C++-SEMEST2\HW17_DANIELDAVIDOV\HW17\SERVER - שרת שרק עובדים מולו(אולי ירצו לדבג אותו)\OPERATOR\OPERATOR\DEBUG\OPERATOR.ILK
D:\USERS\USER-PC\DOCUMENTS\VISUAL STUDIO 2013\PROJECTS\YEAR2(2017)\C++-SEMEST2\HW17_DANIELDAVIDOV\HW17\SERVER - שרת שרק עובדים מולו(אולי ירצו לדבג אותו)\OPERATOR\OPERATOR\DEBUG\OPERATOR.EXE
D:\USERS\USER-PC\DOCUMENTS\VISUAL STUDIO 2013\PROJECTS\YEAR2(2017)\C++-SEMEST2\HW17_DANIELDAVIDOV\HW17\SERVER - שרת שרק עובדים מולו(אולי ירצו לדבג אותו)\OPERATOR\OPERATOR\DEBUG\OPERATOR.PDB
