^D:\USERS\USER-PC\DOCUMENTS\VISUAL STUDIO 2013\PROJECTS\YEAR2(2017)\CRYPTOPP565\HW17\CRYPTOPP565\WIN32\CRYPTEST\DEBUG\ADHOC.OBJ|D:\USERS\USER-PC\DOCUMENTS\VISUAL STUDIO 2013\PROJECTS\YEAR2(2017)\CRYPTOPP565\HW17\CRYPTOPP565\WIN32\CRYPTEST\DEBUG\BENCH1.OBJ|D:\USERS\USER-PC\DOCUMENTS\VISUAL STUDIO 2013\PROJECTS\YEAR2(2017)\CRYPTOPP565\HW17\CRYPTOPP565\WIN32\CRYPTEST\DEBUG\BENCH2.OBJ|D:\USERS\USER-PC\DOCUMENTS\VISUAL STUDIO 2013\PROJECTS\YEAR2(2017)\CRYPTOPP565\HW17\CRYPTOPP565\WIN32\CRYPTEST\DEBUG\DATATEST.OBJ|D:\USERS\USER-PC\DOCUMENTS\VISUAL STUDIO 2013\PROJECTS\YEAR2(2017)\CRYPTOPP565\HW17\CRYPTOPP565\WIN32\CRYPTEST\DEBUG\DLLTEST.OBJ|D:\USERS\USER-PC\DOCUMENTS\VISUAL STUDIO 2013\PROJECTS\YEAR2(2017)\CRYPTOPP565\HW17\CRYPTOPP565\WIN32\CRYPTEST\DEBUG\FIPSALGT.OBJ|D:\USERS\USER-PC\DOCUMENTS\VISUAL STUDIO 2013\PROJECTS\YEAR2(2017)\CRYPTOPP565\HW17\CRYPTOPP565\WIN32\CRYPTEST\DEBUG\REGTEST.OBJ|D:\USERS\USER-PC\DOCUMENTS\VISUAL STUDIO 2013\PROJECTS\YEAR2(2017)\CRYPTOPP565\HW17\CRYPTOPP565\WIN32\CRYPTEST\DEBUG\TEST.OBJ|D:\USERS\USER-PC\DOCUMENTS\VISUAL STUDIO 2013\PROJECTS\YEAR2(2017)\CRYPTOPP565\HW17\CRYPTOPP565\WIN32\CRYPTEST\DEBUG\VALIDAT1.OBJ|D:\USERS\USER-PC\DOCUMENTS\VISUAL STUDIO 2013\PROJECTS\YEAR2(2017)\CRYPTOPP565\HW17\CRYPTOPP565\WIN32\CRYPTEST\DEBUG\VALIDAT2.OBJ|D:\USERS\USER-PC\DOCUMENTS\VISUAL STUDIO 2013\PROJECTS\YEAR2(2017)\CRYPTOPP565\HW17\CRYPTOPP565\WIN32\CRYPTEST\DEBUG\VALIDAT3.OBJ
C:\WINDOWS\SYSTEM32\C_1255.NLS
D:\USERS\USER-PC\DOCUMENTS\VISUAL STUDIO 2013\PROJECTS\YEAR2(2017)\CRYPTOPP565\HW17\CRYPTOPP565\WIN32\OUTPUT\DEBUG\CRYPTLIB.LIB
C:\PROGRAM FILES (X86)\WINDOWS KITS\8.1\LIB\WINV6.3\UM\X86\WS2_32.LIB
D:\USERS\USER-PC\DOCUMENTS\VISUAL STUDIO 2013\PROJECTS\YEAR2(2017)\CRYPTOPP565\HW17\CRYPTOPP565\WIN32\CRYPTEST\DEBUG\ADHOC.OBJ
D:\USERS\USER-PC\DOCUMENTS\VISUAL STUDIO 2013\PROJECTS\YEAR2(2017)\CRYPTOPP565\HW17\CRYPTOPP565\WIN32\CRYPTEST\DEBUG\BENCH1.OBJ
D:\USERS\USER-PC\DOCUMENTS\VISUAL STUDIO 2013\PROJECTS\YEAR2(2017)\CRYPTOPP565\HW17\CRYPTOPP565\WIN32\CRYPTEST\DEBUG\BENCH2.OBJ
D:\USERS\USER-PC\DOCUMENTS\VISUAL STUDIO 2013\PROJECTS\YEAR2(2017)\CRYPTOPP565\HW17\CRYPTOPP565\WIN32\CRYPTEST\DEBUG\DATATEST.OBJ
D:\USERS\USER-PC\DOCUMENTS\VISUAL STUDIO 2013\PROJECTS\YEAR2(2017)\CRYPTOPP565\HW17\CRYPTOPP565\WIN32\CRYPTEST\DEBUG\DLLTEST.OBJ
D:\USERS\USER-PC\DOCUMENTS\VISUAL STUDIO 2013\PROJECTS\YEAR2(2017)\CRYPTOPP565\HW17\CRYPTOPP565\WIN32\CRYPTEST\DEBUG\FIPSALGT.OBJ
D:\USERS\USER-PC\DOCUMENTS\VISUAL STUDIO 2013\PROJECTS\YEAR2(2017)\CRYPTOPP565\HW17\CRYPTOPP565\WIN32\CRYPTEST\DEBUG\REGTEST.OBJ
D:\USERS\USER-PC\DOCUMENTS\VISUAL STUDIO 2013\PROJECTS\YEAR2(2017)\CRYPTOPP565\HW17\CRYPTOPP565\WIN32\CRYPTEST\DEBUG\TEST.OBJ
D:\USERS\USER-PC\DOCUMENTS\VISUAL STUDIO 2013\PROJECTS\YEAR2(2017)\CRYPTOPP565\HW17\CRYPTOPP565\WIN32\CRYPTEST\DEBUG\VALIDAT1.OBJ
D:\USERS\USER-PC\DOCUMENTS\VISUAL STUDIO 2013\PROJECTS\YEAR2(2017)\CRYPTOPP565\HW17\CRYPTOPP565\WIN32\CRYPTEST\DEBUG\VALIDAT2.OBJ
D:\USERS\USER-PC\DOCUMENTS\VISUAL STUDIO 2013\PROJECTS\YEAR2(2017)\CRYPTOPP565\HW17\CRYPTOPP565\WIN32\CRYPTEST\DEBUG\VALIDAT3.OBJ
C:\WINDOWS\SYSTEM32\TZRES.DLL
C:\WINDOWS\GLOBALIZATION\SORTING\SORTDEFAULT.NLS
C:\PROGRAM FILES (X86)\MICROSOFT VISUAL STUDIO 12.0\VC\LIB\LIBCPMTD.LIB
C:\PROGRAM FILES (X86)\MICROSOFT VISUAL STUDIO 12.0\VC\LIB\LIBCMTD.LIB
C:\PROGRAM FILES (X86)\MICROSOFT VISUAL STUDIO 12.0\VC\LIB\OLDNAMES.LIB
C:\PROGRAM FILES (X86)\WINDOWS KITS\8.1\LIB\WINV6.3\UM\X86\ADVAPI32.LIB
C:\PROGRAM FILES (X86)\WINDOWS KITS\8.1\LIB\WINV6.3\UM\X86\UUID.LIB
C:\PROGRAM FILES (X86)\WINDOWS KITS\8.1\LIB\WINV6.3\UM\X86\KERNEL32.LIB
C:\PROGRAM FILES (X86)\WINDOWS KITS\8.1\BIN\X86\RC.EXE
C:\PROGRAM FILES (X86)\MICROSOFT VISUAL STUDIO 12.0\VC\BIN\CVTRES.EXE
