^D:\USERS\USER-PC\DOCUMENTS\VISUAL STUDIO 2013\PROJECTS\YEAR2(2017)\CRYPTOPP565\HW17\CRYPTOPP565\PCH.CPP
/c /Zi /nologo /W4 /WX- /Od /Oi /Oy- /D USE_PRECOMPILED_HEADERS /Gm- /EHsc /RTC1 /MTd /GS /arch:SSE2 /fp:precise /Zc:wchar_t /Zc:forScope /Yc"pch.h" /Fp"WIN32\CRYPTLIB\DEBUG\CRYPTLIB.PCH" /Fo"WIN32\CRYPTLIB\DEBUG\\" /Fd"WIN32\CRYPTLIB\DEBUG\VC120.PDB" /Gd /TP /analyze- D:\USERS\USER-PC\DOCUMENTS\VISUAL STUDIO 2013\PROJECTS\YEAR2(2017)\CRYPTOPP565\HW17\CRYPTOPP565\PCH.CPP
^D:\USERS\USER-PC\DOCUMENTS\VISUAL STUDIO 2013\PROJECTS\YEAR2(2017)\CRYPTOPP565\HW17\CRYPTOPP565\CRYPTLIB.CPP
/c /Zi /nologo /W4 /WX- /Od /Oi /Oy- /D USE_PRECOMPILED_HEADERS /Gm- /EHsc /RTC1 /MTd /GS /arch:SSE2 /fp:precise /Zc:wchar_t /Zc:forScope /Yu"pch.h" /Fp"WIN32\CRYPTLIB\DEBUG\CRYPTLIB.PCH" /Fo"WIN32\CRYPTLIB\DEBUG\\" /Fd"WIN32\CRYPTLIB\DEBUG\VC120.PDB" /Gd /TP /analyze- D:\USERS\USER-PC\DOCUMENTS\VISUAL STUDIO 2013\PROJECTS\YEAR2(2017)\CRYPTOPP565\HW17\CRYPTOPP565\CRYPTLIB.CPP
^D:\USERS\USER-PC\DOCUMENTS\VISUAL STUDIO 2013\PROJECTS\YEAR2(2017)\CRYPTOPP565\HW17\CRYPTOPP565\CPU.CPP
/c /Zi /nologo /W4 /WX- /Od /Oi /Oy- /D USE_PRECOMPILED_HEADERS /Gm- /EHsc /RTC1 /MTd /GS /arch:SSE2 /fp:precise /Zc:wchar_t /Zc:forScope /Yu"pch.h" /Fp"WIN32\CRYPTLIB\DEBUG\CRYPTLIB.PCH" /Fo"WIN32\CRYPTLIB\DEBUG\\" /Fd"WIN32\CRYPTLIB\DEBUG\VC120.PDB" /Gd /TP /analyze- D:\USERS\USER-PC\DOCUMENTS\VISUAL STUDIO 2013\PROJECTS\YEAR2(2017)\CRYPTOPP565\HW17\CRYPTOPP565\CPU.CPP
^D:\USERS\USER-PC\DOCUMENTS\VISUAL STUDIO 2013\PROJECTS\YEAR2(2017)\CRYPTOPP565\HW17\CRYPTOPP565\INTEGER.CPP
/c /Zi /nologo /W4 /WX- /Od /Oi /Oy- /D USE_PRECOMPILED_HEADERS /Gm- /EHsc /RTC1 /MTd /GS /arch:SSE2 /fp:precise /Zc:wchar_t /Zc:forScope /Yu"pch.h" /Fp"WIN32\CRYPTLIB\DEBUG\CRYPTLIB.PCH" /Fo"WIN32\CRYPTLIB\DEBUG\\" /Fd"WIN32\CRYPTLIB\DEBUG\VC120.PDB" /Gd /TP /analyze- D:\USERS\USER-PC\DOCUMENTS\VISUAL STUDIO 2013\PROJECTS\YEAR2(2017)\CRYPTOPP565\HW17\CRYPTOPP565\INTEGER.CPP
^D:\USERS\USER-PC\DOCUMENTS\VISUAL STUDIO 2013\PROJECTS\YEAR2(2017)\CRYPTOPP565\HW17\CRYPTOPP565\3WAY.CPP
/c /Zi /nologo /W4 /WX- /Od /Oi /Oy- /D USE_PRECOMPILED_HEADERS /Gm- /EHsc /RTC1 /MTd /GS /arch:SSE2 /fp:precise /Zc:wchar_t /Zc:forScope /Yu"pch.h" /Fp"WIN32\CRYPTLIB\DEBUG\CRYPTLIB.PCH" /Fo"WIN32\CRYPTLIB\DEBUG\\" /Fd"WIN32\CRYPTLIB\DEBUG\VC120.PDB" /Gd /TP /analyze- D:\USERS\USER-PC\DOCUMENTS\VISUAL STUDIO 2013\PROJECTS\YEAR2(2017)\CRYPTOPP565\HW17\CRYPTOPP565\3WAY.CPP
^D:\USERS\USER-PC\DOCUMENTS\VISUAL STUDIO 2013\PROJECTS\YEAR2(2017)\CRYPTOPP565\HW17\CRYPTOPP565\ADLER32.CPP
/c /Zi /nologo /W4 /WX- /Od /Oi /Oy- /D USE_PRECOMPILED_HEADERS /Gm- /EHsc /RTC1 /MTd /GS /arch:SSE2 /fp:precise /Zc:wchar_t /Zc:forScope /Yu"pch.h" /Fp"WIN32\CRYPTLIB\DEBUG\CRYPTLIB.PCH" /Fo"WIN32\CRYPTLIB\DEBUG\\" /Fd"WIN32\CRYPTLIB\DEBUG\VC120.PDB" /Gd /TP /analyze- D:\USERS\USER-PC\DOCUMENTS\VISUAL STUDIO 2013\PROJECTS\YEAR2(2017)\CRYPTOPP565\HW17\CRYPTOPP565\ADLER32.CPP
^D:\USERS\USER-PC\DOCUMENTS\VISUAL STUDIO 2013\PROJECTS\YEAR2(2017)\CRYPTOPP565\HW17\CRYPTOPP565\ALGEBRA.CPP
/c /Zi /nologo /W4 /WX- /Od /Oi /Oy- /D USE_PRECOMPILED_HEADERS /Gm- /EHsc /RTC1 /MTd /GS /arch:SSE2 /fp:precise /Zc:wchar_t /Zc:forScope /Yu"pch.h" /Fp"WIN32\CRYPTLIB\DEBUG\CRYPTLIB.PCH" /Fo"WIN32\CRYPTLIB\DEBUG\\" /Fd"WIN32\CRYPTLIB\DEBUG\VC120.PDB" /Gd /TP /analyze- D:\USERS\USER-PC\DOCUMENTS\VISUAL STUDIO 2013\PROJECTS\YEAR2(2017)\CRYPTOPP565\HW17\CRYPTOPP565\ALGEBRA.CPP
^D:\USERS\USER-PC\DOCUMENTS\VISUAL STUDIO 2013\PROJECTS\YEAR2(2017)\CRYPTOPP565\HW17\CRYPTOPP565\ALGPARAM.CPP
/c /Zi /nologo /W4 /WX- /Od /Oi /Oy- /D USE_PRECOMPILED_HEADERS /Gm- /EHsc /RTC1 /MTd /GS /arch:SSE2 /fp:precise /Zc:wchar_t /Zc:forScope /Yu"pch.h" /Fp"WIN32\CRYPTLIB\DEBUG\CRYPTLIB.PCH" /Fo"WIN32\CRYPTLIB\DEBUG\\" /Fd"WIN32\CRYPTLIB\DEBUG\VC120.PDB" /Gd /TP /analyze- D:\USERS\USER-PC\DOCUMENTS\VISUAL STUDIO 2013\PROJECTS\YEAR2(2017)\CRYPTOPP565\HW17\CRYPTOPP565\ALGPARAM.CPP
^D:\USERS\USER-PC\DOCUMENTS\VISUAL STUDIO 2013\PROJECTS\YEAR2(2017)\CRYPTOPP565\HW17\CRYPTOPP565\ARC4.CPP
/c /Zi /nologo /W4 /WX- /Od /Oi /Oy- /D USE_PRECOMPILED_HEADERS /Gm- /EHsc /RTC1 /MTd /GS /arch:SSE2 /fp:precise /Zc:wchar_t /Zc:forScope /Yu"pch.h" /Fp"WIN32\CRYPTLIB\DEBUG\CRYPTLIB.PCH" /Fo"WIN32\CRYPTLIB\DEBUG\\" /Fd"WIN32\CRYPTLIB\DEBUG\VC120.PDB" /Gd /TP /analyze- D:\USERS\USER-PC\DOCUMENTS\VISUAL STUDIO 2013\PROJECTS\YEAR2(2017)\CRYPTOPP565\HW17\CRYPTOPP565\ARC4.CPP
^D:\USERS\USER-PC\DOCUMENTS\VISUAL STUDIO 2013\PROJECTS\YEAR2(2017)\CRYPTOPP565\HW17\CRYPTOPP565\ASN.CPP
/c /Zi /nologo /W4 /WX- /Od /Oi /Oy- /D USE_PRECOMPILED_HEADERS /Gm- /EHsc /RTC1 /MTd /GS /arch:SSE2 /fp:precise /Zc:wchar_t /Zc:forScope /Yu"pch.h" /Fp"WIN32\CRYPTLIB\DEBUG\CRYPTLIB.PCH" /Fo"WIN32\CRYPTLIB\DEBUG\\" /Fd"WIN32\CRYPTLIB\DEBUG\VC120.PDB" /Gd /TP /analyze- D:\USERS\USER-PC\DOCUMENTS\VISUAL STUDIO 2013\PROJECTS\YEAR2(2017)\CRYPTOPP565\HW17\CRYPTOPP565\ASN.CPP
^D:\USERS\USER-PC\DOCUMENTS\VISUAL STUDIO 2013\PROJECTS\YEAR2(2017)\CRYPTOPP565\HW17\CRYPTOPP565\AUTHENC.CPP
/c /Zi /nologo /W4 /WX- /Od /Oi /Oy- /D USE_PRECOMPILED_HEADERS /Gm- /EHsc /RTC1 /MTd /GS /arch:SSE2 /fp:precise /Zc:wchar_t /Zc:forScope /Yu"pch.h" /Fp"WIN32\CRYPTLIB\DEBUG\CRYPTLIB.PCH" /Fo"WIN32\CRYPTLIB\DEBUG\\" /Fd"WIN32\CRYPTLIB\DEBUG\VC120.PDB" /Gd /TP /analyze- D:\USERS\USER-PC\DOCUMENTS\VISUAL STUDIO 2013\PROJECTS\YEAR2(2017)\CRYPTOPP565\HW17\CRYPTOPP565\AUTHENC.CPP
^D:\USERS\USER-PC\DOCUMENTS\VISUAL STUDIO 2013\PROJECTS\YEAR2(2017)\CRYPTOPP565\HW17\CRYPTOPP565\BASE32.CPP
/c /Zi /nologo /W4 /WX- /Od /Oi /Oy- /D USE_PRECOMPILED_HEADERS /Gm- /EHsc /RTC1 /MTd /GS /arch:SSE2 /fp:precise /Zc:wchar_t /Zc:forScope /Yu"pch.h" /Fp"WIN32\CRYPTLIB\DEBUG\CRYPTLIB.PCH" /Fo"WIN32\CRYPTLIB\DEBUG\\" /Fd"WIN32\CRYPTLIB\DEBUG\VC120.PDB" /Gd /TP /analyze- D:\USERS\USER-PC\DOCUMENTS\VISUAL STUDIO 2013\PROJECTS\YEAR2(2017)\CRYPTOPP565\HW17\CRYPTOPP565\BASE32.CPP
^D:\USERS\USER-PC\DOCUMENTS\VISUAL STUDIO 2013\PROJECTS\YEAR2(2017)\CRYPTOPP565\HW17\CRYPTOPP565\BASE64.CPP
/c /Zi /nologo /W4 /WX- /Od /Oi /Oy- /D USE_PRECOMPILED_HEADERS /Gm- /EHsc /RTC1 /MTd /GS /arch:SSE2 /fp:precise /Zc:wchar_t /Zc:forScope /Yu"pch.h" /Fp"WIN32\CRYPTLIB\DEBUG\CRYPTLIB.PCH" /Fo"WIN32\CRYPTLIB\DEBUG\\" /Fd"WIN32\CRYPTLIB\DEBUG\VC120.PDB" /Gd /TP /analyze- D:\USERS\USER-PC\DOCUMENTS\VISUAL STUDIO 2013\PROJECTS\YEAR2(2017)\CRYPTOPP565\HW17\CRYPTOPP565\BASE64.CPP
^D:\USERS\USER-PC\DOCUMENTS\VISUAL STUDIO 2013\PROJECTS\YEAR2(2017)\CRYPTOPP565\HW17\CRYPTOPP565\BASECODE.CPP
/c /Zi /nologo /W4 /WX- /Od /Oi /Oy- /D USE_PRECOMPILED_HEADERS /Gm- /EHsc /RTC1 /MTd /GS /arch:SSE2 /fp:precise /Zc:wchar_t /Zc:forScope /Yu"pch.h" /Fp"WIN32\CRYPTLIB\DEBUG\CRYPTLIB.PCH" /Fo"WIN32\CRYPTLIB\DEBUG\\" /Fd"WIN32\CRYPTLIB\DEBUG\VC120.PDB" /Gd /TP /analyze- D:\USERS\USER-PC\DOCUMENTS\VISUAL STUDIO 2013\PROJECTS\YEAR2(2017)\CRYPTOPP565\HW17\CRYPTOPP565\BASECODE.CPP
^D:\USERS\USER-PC\DOCUMENTS\VISUAL STUDIO 2013\PROJECTS\YEAR2(2017)\CRYPTOPP565\HW17\CRYPTOPP565\BFINIT.CPP
/c /Zi /nologo /W4 /WX- /Od /Oi /Oy- /D USE_PRECOMPILED_HEADERS /Gm- /EHsc /RTC1 /MTd /GS /arch:SSE2 /fp:precise /Zc:wchar_t /Zc:forScope /Yu"pch.h" /Fp"WIN32\CRYPTLIB\DEBUG\CRYPTLIB.PCH" /Fo"WIN32\CRYPTLIB\DEBUG\\" /Fd"WIN32\CRYPTLIB\DEBUG\VC120.PDB" /Gd /TP /analyze- D:\USERS\USER-PC\DOCUMENTS\VISUAL STUDIO 2013\PROJECTS\YEAR2(2017)\CRYPTOPP565\HW17\CRYPTOPP565\BFINIT.CPP
^D:\USERS\USER-PC\DOCUMENTS\VISUAL STUDIO 2013\PROJECTS\YEAR2(2017)\CRYPTOPP565\HW17\CRYPTOPP565\BLAKE2.CPP
/c /Zi /nologo /W4 /WX- /Od /Oi /Oy- /D USE_PRECOMPILED_HEADERS /Gm- /EHsc /RTC1 /MTd /GS /arch:SSE2 /fp:precise /Zc:wchar_t /Zc:forScope /Yu"pch.h" /Fp"WIN32\CRYPTLIB\DEBUG\CRYPTLIB.PCH" /Fo"WIN32\CRYPTLIB\DEBUG\\" /Fd"WIN32\CRYPTLIB\DEBUG\VC120.PDB" /Gd /TP /analyze- D:\USERS\USER-PC\DOCUMENTS\VISUAL STUDIO 2013\PROJECTS\YEAR2(2017)\CRYPTOPP565\HW17\CRYPTOPP565\BLAKE2.CPP
^D:\USERS\USER-PC\DOCUMENTS\VISUAL STUDIO 2013\PROJECTS\YEAR2(2017)\CRYPTOPP565\HW17\CRYPTOPP565\BLOWFISH.CPP
/c /Zi /nologo /W4 /WX- /Od /Oi /Oy- /D USE_PRECOMPILED_HEADERS /Gm- /EHsc /RTC1 /MTd /GS /arch:SSE2 /fp:precise /Zc:wchar_t /Zc:forScope /Yu"pch.h" /Fp"WIN32\CRYPTLIB\DEBUG\CRYPTLIB.PCH" /Fo"WIN32\CRYPTLIB\DEBUG\\" /Fd"WIN32\CRYPTLIB\DEBUG\VC120.PDB" /Gd /TP /analyze- D:\USERS\USER-PC\DOCUMENTS\VISUAL STUDIO 2013\PROJECTS\YEAR2(2017)\CRYPTOPP565\HW17\CRYPTOPP565\BLOWFISH.CPP
^D:\USERS\USER-PC\DOCUMENTS\VISUAL STUDIO 2013\PROJECTS\YEAR2(2017)\CRYPTOPP565\HW17\CRYPTOPP565\BLUMSHUB.CPP
/c /Zi /nologo /W4 /WX- /Od /Oi /Oy- /D USE_PRECOMPILED_HEADERS /Gm- /EHsc /RTC1 /MTd /GS /arch:SSE2 /fp:precise /Zc:wchar_t /Zc:forScope /Yu"pch.h" /Fp"WIN32\CRYPTLIB\DEBUG\CRYPTLIB.PCH" /Fo"WIN32\CRYPTLIB\DEBUG\\" /Fd"WIN32\CRYPTLIB\DEBUG\VC120.PDB" /Gd /TP /analyze- D:\USERS\USER-PC\DOCUMENTS\VISUAL STUDIO 2013\PROJECTS\YEAR2(2017)\CRYPTOPP565\HW17\CRYPTOPP565\BLUMSHUB.CPP
^D:\USERS\USER-PC\DOCUMENTS\VISUAL STUDIO 2013\PROJECTS\YEAR2(2017)\CRYPTOPP565\HW17\CRYPTOPP565\CAMELLIA.CPP
/c /Zi /nologo /W4 /WX- /Od /Oi /Oy- /D USE_PRECOMPILED_HEADERS /Gm- /EHsc /RTC1 /MTd /GS /arch:SSE2 /fp:precise /Zc:wchar_t /Zc:forScope /Yu"pch.h" /Fp"WIN32\CRYPTLIB\DEBUG\CRYPTLIB.PCH" /Fo"WIN32\CRYPTLIB\DEBUG\\" /Fd"WIN32\CRYPTLIB\DEBUG\VC120.PDB" /Gd /TP /analyze- D:\USERS\USER-PC\DOCUMENTS\VISUAL STUDIO 2013\PROJECTS\YEAR2(2017)\CRYPTOPP565\HW17\CRYPTOPP565\CAMELLIA.CPP
^D:\USERS\USER-PC\DOCUMENTS\VISUAL STUDIO 2013\PROJECTS\YEAR2(2017)\CRYPTOPP565\HW17\CRYPTOPP565\CAST.CPP
/c /Zi /nologo /W4 /WX- /Od /Oi /Oy- /D USE_PRECOMPILED_HEADERS /Gm- /EHsc /RTC1 /MTd /GS /arch:SSE2 /fp:precise /Zc:wchar_t /Zc:forScope /Yu"pch.h" /Fp"WIN32\CRYPTLIB\DEBUG\CRYPTLIB.PCH" /Fo"WIN32\CRYPTLIB\DEBUG\\" /Fd"WIN32\CRYPTLIB\DEBUG\VC120.PDB" /Gd /TP /analyze- D:\USERS\USER-PC\DOCUMENTS\VISUAL STUDIO 2013\PROJECTS\YEAR2(2017)\CRYPTOPP565\HW17\CRYPTOPP565\CAST.CPP
^D:\USERS\USER-PC\DOCUMENTS\VISUAL STUDIO 2013\PROJECTS\YEAR2(2017)\CRYPTOPP565\HW17\CRYPTOPP565\CASTS.CPP
/c /Zi /nologo /W4 /WX- /Od /Oi /Oy- /D USE_PRECOMPILED_HEADERS /Gm- /EHsc /RTC1 /MTd /GS /arch:SSE2 /fp:precise /Zc:wchar_t /Zc:forScope /Yu"pch.h" /Fp"WIN32\CRYPTLIB\DEBUG\CRYPTLIB.PCH" /Fo"WIN32\CRYPTLIB\DEBUG\\" /Fd"WIN32\CRYPTLIB\DEBUG\VC120.PDB" /Gd /TP /analyze- D:\USERS\USER-PC\DOCUMENTS\VISUAL STUDIO 2013\PROJECTS\YEAR2(2017)\CRYPTOPP565\HW17\CRYPTOPP565\CASTS.CPP
^D:\USERS\USER-PC\DOCUMENTS\VISUAL STUDIO 2013\PROJECTS\YEAR2(2017)\CRYPTOPP565\HW17\CRYPTOPP565\CBCMAC.CPP
/c /Zi /nologo /W4 /WX- /Od /Oi /Oy- /D USE_PRECOMPILED_HEADERS /Gm- /EHsc /RTC1 /MTd /GS /arch:SSE2 /fp:precise /Zc:wchar_t /Zc:forScope /Yu"pch.h" /Fp"WIN32\CRYPTLIB\DEBUG\CRYPTLIB.PCH" /Fo"WIN32\CRYPTLIB\DEBUG\\" /Fd"WIN32\CRYPTLIB\DEBUG\VC120.PDB" /Gd /TP /analyze- D:\USERS\USER-PC\DOCUMENTS\VISUAL STUDIO 2013\PROJECTS\YEAR2(2017)\CRYPTOPP565\HW17\CRYPTOPP565\CBCMAC.CPP
^D:\USERS\USER-PC\DOCUMENTS\VISUAL STUDIO 2013\PROJECTS\YEAR2(2017)\CRYPTOPP565\HW17\CRYPTOPP565\CCM.CPP
/c /Zi /nologo /W4 /WX- /Od /Oi /Oy- /D USE_PRECOMPILED_HEADERS /Gm- /EHsc /RTC1 /MTd /GS /arch:SSE2 /fp:precise /Zc:wchar_t /Zc:forScope /Yu"pch.h" /Fp"WIN32\CRYPTLIB\DEBUG\CRYPTLIB.PCH" /Fo"WIN32\CRYPTLIB\DEBUG\\" /Fd"WIN32\CRYPTLIB\DEBUG\VC120.PDB" /Gd /TP /analyze- D:\USERS\USER-PC\DOCUMENTS\VISUAL STUDIO 2013\PROJECTS\YEAR2(2017)\CRYPTOPP565\HW17\CRYPTOPP565\CCM.CPP
^D:\USERS\USER-PC\DOCUMENTS\VISUAL STUDIO 2013\PROJECTS\YEAR2(2017)\CRYPTOPP565\HW17\CRYPTOPP565\CHACHA.CPP
/c /Zi /nologo /W4 /WX- /Od /Oi /Oy- /D USE_PRECOMPILED_HEADERS /Gm- /EHsc /RTC1 /MTd /GS /arch:SSE2 /fp:precise /Zc:wchar_t /Zc:forScope /Yu"pch.h" /Fp"WIN32\CRYPTLIB\DEBUG\CRYPTLIB.PCH" /Fo"WIN32\CRYPTLIB\DEBUG\\" /Fd"WIN32\CRYPTLIB\DEBUG\VC120.PDB" /Gd /TP /analyze- D:\USERS\USER-PC\DOCUMENTS\VISUAL STUDIO 2013\PROJECTS\YEAR2(2017)\CRYPTOPP565\HW17\CRYPTOPP565\CHACHA.CPP
^D:\USERS\USER-PC\DOCUMENTS\VISUAL STUDIO 2013\PROJECTS\YEAR2(2017)\CRYPTOPP565\HW17\CRYPTOPP565\CHANNELS.CPP
/c /Zi /nologo /W4 /WX- /Od /Oi /Oy- /D USE_PRECOMPILED_HEADERS /Gm- /EHsc /RTC1 /MTd /GS /arch:SSE2 /fp:precise /Zc:wchar_t /Zc:forScope /Yu"pch.h" /Fp"WIN32\CRYPTLIB\DEBUG\CRYPTLIB.PCH" /Fo"WIN32\CRYPTLIB\DEBUG\\" /Fd"WIN32\CRYPTLIB\DEBUG\VC120.PDB" /Gd /TP /analyze- D:\USERS\USER-PC\DOCUMENTS\VISUAL STUDIO 2013\PROJECTS\YEAR2(2017)\CRYPTOPP565\HW17\CRYPTOPP565\CHANNELS.CPP
^D:\USERS\USER-PC\DOCUMENTS\VISUAL STUDIO 2013\PROJECTS\YEAR2(2017)\CRYPTOPP565\HW17\CRYPTOPP565\CMAC.CPP
/c /Zi /nologo /W4 /WX- /Od /Oi /Oy- /D USE_PRECOMPILED_HEADERS /Gm- /EHsc /RTC1 /MTd /GS /arch:SSE2 /fp:precise /Zc:wchar_t /Zc:forScope /Yu"pch.h" /Fp"WIN32\CRYPTLIB\DEBUG\CRYPTLIB.PCH" /Fo"WIN32\CRYPTLIB\DEBUG\\" /Fd"WIN32\CRYPTLIB\DEBUG\VC120.PDB" /Gd /TP /analyze- D:\USERS\USER-PC\DOCUMENTS\VISUAL STUDIO 2013\PROJECTS\YEAR2(2017)\CRYPTOPP565\HW17\CRYPTOPP565\CMAC.CPP
^D:\USERS\USER-PC\DOCUMENTS\VISUAL STUDIO 2013\PROJECTS\YEAR2(2017)\CRYPTOPP565\HW17\CRYPTOPP565\CRC.CPP
/c /Zi /nologo /W4 /WX- /Od /Oi /Oy- /D USE_PRECOMPILED_HEADERS /Gm- /EHsc /RTC1 /MTd /GS /arch:SSE2 /fp:precise /Zc:wchar_t /Zc:forScope /Yu"pch.h" /Fp"WIN32\CRYPTLIB\DEBUG\CRYPTLIB.PCH" /Fo"WIN32\CRYPTLIB\DEBUG\\" /Fd"WIN32\CRYPTLIB\DEBUG\VC120.PDB" /Gd /TP /analyze- D:\USERS\USER-PC\DOCUMENTS\VISUAL STUDIO 2013\PROJECTS\YEAR2(2017)\CRYPTOPP565\HW17\CRYPTOPP565\CRC.CPP
^D:\USERS\USER-PC\DOCUMENTS\VISUAL STUDIO 2013\PROJECTS\YEAR2(2017)\CRYPTOPP565\HW17\CRYPTOPP565\DEFAULT.CPP
/c /Zi /nologo /W4 /WX- /Od /Oi /Oy- /D USE_PRECOMPILED_HEADERS /Gm- /EHsc /RTC1 /MTd /GS /arch:SSE2 /fp:precise /Zc:wchar_t /Zc:forScope /Yu"pch.h" /Fp"WIN32\CRYPTLIB\DEBUG\CRYPTLIB.PCH" /Fo"WIN32\CRYPTLIB\DEBUG\\" /Fd"WIN32\CRYPTLIB\DEBUG\VC120.PDB" /Gd /TP /analyze- D:\USERS\USER-PC\DOCUMENTS\VISUAL STUDIO 2013\PROJECTS\YEAR2(2017)\CRYPTOPP565\HW17\CRYPTOPP565\DEFAULT.CPP
^D:\USERS\USER-PC\DOCUMENTS\VISUAL STUDIO 2013\PROJECTS\YEAR2(2017)\CRYPTOPP565\HW17\CRYPTOPP565\DES.CPP
/c /Zi /nologo /W4 /WX- /Od /Oi /Oy- /D USE_PRECOMPILED_HEADERS /Gm- /EHsc /RTC1 /MTd /GS /arch:SSE2 /fp:precise /Zc:wchar_t /Zc:forScope /Yu"pch.h" /Fp"WIN32\CRYPTLIB\DEBUG\CRYPTLIB.PCH" /Fo"WIN32\CRYPTLIB\DEBUG\\" /Fd"WIN32\CRYPTLIB\DEBUG\VC120.PDB" /Gd /TP /analyze- D:\USERS\USER-PC\DOCUMENTS\VISUAL STUDIO 2013\PROJECTS\YEAR2(2017)\CRYPTOPP565\HW17\CRYPTOPP565\DES.CPP
^D:\USERS\USER-PC\DOCUMENTS\VISUAL STUDIO 2013\PROJECTS\YEAR2(2017)\CRYPTOPP565\HW17\CRYPTOPP565\DESSP.CPP
/c /Zi /nologo /W4 /WX- /Od /Oi /Oy- /D USE_PRECOMPILED_HEADERS /Gm- /EHsc /RTC1 /MTd /GS /arch:SSE2 /fp:precise /Zc:wchar_t /Zc:forScope /Yu"pch.h" /Fp"WIN32\CRYPTLIB\DEBUG\CRYPTLIB.PCH" /Fo"WIN32\CRYPTLIB\DEBUG\\" /Fd"WIN32\CRYPTLIB\DEBUG\VC120.PDB" /Gd /TP /analyze- D:\USERS\USER-PC\DOCUMENTS\VISUAL STUDIO 2013\PROJECTS\YEAR2(2017)\CRYPTOPP565\HW17\CRYPTOPP565\DESSP.CPP
^D:\USERS\USER-PC\DOCUMENTS\VISUAL STUDIO 2013\PROJECTS\YEAR2(2017)\CRYPTOPP565\HW17\CRYPTOPP565\DH.CPP
/c /Zi /nologo /W4 /WX- /Od /Oi /Oy- /D USE_PRECOMPILED_HEADERS /Gm- /EHsc /RTC1 /MTd /GS /arch:SSE2 /fp:precise /Zc:wchar_t /Zc:forScope /Yu"pch.h" /Fp"WIN32\CRYPTLIB\DEBUG\CRYPTLIB.PCH" /Fo"WIN32\CRYPTLIB\DEBUG\\" /Fd"WIN32\CRYPTLIB\DEBUG\VC120.PDB" /Gd /TP /analyze- D:\USERS\USER-PC\DOCUMENTS\VISUAL STUDIO 2013\PROJECTS\YEAR2(2017)\CRYPTOPP565\HW17\CRYPTOPP565\DH.CPP
^D:\USERS\USER-PC\DOCUMENTS\VISUAL STUDIO 2013\PROJECTS\YEAR2(2017)\CRYPTOPP565\HW17\CRYPTOPP565\DH2.CPP
/c /Zi /nologo /W4 /WX- /Od /Oi /Oy- /D USE_PRECOMPILED_HEADERS /Gm- /EHsc /RTC1 /MTd /GS /arch:SSE2 /fp:precise /Zc:wchar_t /Zc:forScope /Yu"pch.h" /Fp"WIN32\CRYPTLIB\DEBUG\CRYPTLIB.PCH" /Fo"WIN32\CRYPTLIB\DEBUG\\" /Fd"WIN32\CRYPTLIB\DEBUG\VC120.PDB" /Gd /TP /analyze- D:\USERS\USER-PC\DOCUMENTS\VISUAL STUDIO 2013\PROJECTS\YEAR2(2017)\CRYPTOPP565\HW17\CRYPTOPP565\DH2.CPP
^D:\USERS\USER-PC\DOCUMENTS\VISUAL STUDIO 2013\PROJECTS\YEAR2(2017)\CRYPTOPP565\HW17\CRYPTOPP565\DSA.CPP
/c /Zi /nologo /W4 /WX- /Od /Oi /Oy- /D USE_PRECOMPILED_HEADERS /Gm- /EHsc /RTC1 /MTd /GS /arch:SSE2 /fp:precise /Zc:wchar_t /Zc:forScope /Yu"pch.h" /Fp"WIN32\CRYPTLIB\DEBUG\CRYPTLIB.PCH" /Fo"WIN32\CRYPTLIB\DEBUG\\" /Fd"WIN32\CRYPTLIB\DEBUG\VC120.PDB" /Gd /TP /analyze- D:\USERS\USER-PC\DOCUMENTS\VISUAL STUDIO 2013\PROJECTS\YEAR2(2017)\CRYPTOPP565\HW17\CRYPTOPP565\DSA.CPP
^D:\USERS\USER-PC\DOCUMENTS\VISUAL STUDIO 2013\PROJECTS\YEAR2(2017)\CRYPTOPP565\HW17\CRYPTOPP565\EAX.CPP
/c /Zi /nologo /W4 /WX- /Od /Oi /Oy- /D USE_PRECOMPILED_HEADERS /Gm- /EHsc /RTC1 /MTd /GS /arch:SSE2 /fp:precise /Zc:wchar_t /Zc:forScope /Yu"pch.h" /Fp"WIN32\CRYPTLIB\DEBUG\CRYPTLIB.PCH" /Fo"WIN32\CRYPTLIB\DEBUG\\" /Fd"WIN32\CRYPTLIB\DEBUG\VC120.PDB" /Gd /TP /analyze- D:\USERS\USER-PC\DOCUMENTS\VISUAL STUDIO 2013\PROJECTS\YEAR2(2017)\CRYPTOPP565\HW17\CRYPTOPP565\EAX.CPP
^D:\USERS\USER-PC\DOCUMENTS\VISUAL STUDIO 2013\PROJECTS\YEAR2(2017)\CRYPTOPP565\HW17\CRYPTOPP565\EC2N.CPP
/c /Zi /nologo /W4 /WX- /Od /Oi /Oy- /D USE_PRECOMPILED_HEADERS /Gm- /EHsc /RTC1 /MTd /GS /arch:SSE2 /fp:precise /Zc:wchar_t /Zc:forScope /Yu"pch.h" /Fp"WIN32\CRYPTLIB\DEBUG\CRYPTLIB.PCH" /Fo"WIN32\CRYPTLIB\DEBUG\\" /Fd"WIN32\CRYPTLIB\DEBUG\VC120.PDB" /Gd /TP /analyze- D:\USERS\USER-PC\DOCUMENTS\VISUAL STUDIO 2013\PROJECTS\YEAR2(2017)\CRYPTOPP565\HW17\CRYPTOPP565\EC2N.CPP
^D:\USERS\USER-PC\DOCUMENTS\VISUAL STUDIO 2013\PROJECTS\YEAR2(2017)\CRYPTOPP565\HW17\CRYPTOPP565\ECP.CPP
/c /Zi /nologo /W4 /WX- /Od /Oi /Oy- /D USE_PRECOMPILED_HEADERS /Gm- /EHsc /RTC1 /MTd /GS /arch:SSE2 /fp:precise /Zc:wchar_t /Zc:forScope /Yu"pch.h" /Fp"WIN32\CRYPTLIB\DEBUG\CRYPTLIB.PCH" /Fo"WIN32\CRYPTLIB\DEBUG\\" /Fd"WIN32\CRYPTLIB\DEBUG\VC120.PDB" /Gd /TP /analyze- D:\USERS\USER-PC\DOCUMENTS\VISUAL STUDIO 2013\PROJECTS\YEAR2(2017)\CRYPTOPP565\HW17\CRYPTOPP565\ECP.CPP
^D:\USERS\USER-PC\DOCUMENTS\VISUAL STUDIO 2013\PROJECTS\YEAR2(2017)\CRYPTOPP565\HW17\CRYPTOPP565\ELGAMAL.CPP
/c /Zi /nologo /W4 /WX- /Od /Oi /Oy- /D USE_PRECOMPILED_HEADERS /Gm- /EHsc /RTC1 /MTd /GS /arch:SSE2 /fp:precise /Zc:wchar_t /Zc:forScope /Yu"pch.h" /Fp"WIN32\CRYPTLIB\DEBUG\CRYPTLIB.PCH" /Fo"WIN32\CRYPTLIB\DEBUG\\" /Fd"WIN32\CRYPTLIB\DEBUG\VC120.PDB" /Gd /TP /analyze- D:\USERS\USER-PC\DOCUMENTS\VISUAL STUDIO 2013\PROJECTS\YEAR2(2017)\CRYPTOPP565\HW17\CRYPTOPP565\ELGAMAL.CPP
^D:\USERS\USER-PC\DOCUMENTS\VISUAL STUDIO 2013\PROJECTS\YEAR2(2017)\CRYPTOPP565\HW17\CRYPTOPP565\EMSA2.CPP
/c /Zi /nologo /W4 /WX- /Od /Oi /Oy- /D USE_PRECOMPILED_HEADERS /Gm- /EHsc /RTC1 /MTd /GS /arch:SSE2 /fp:precise /Zc:wchar_t /Zc:forScope /Yu"pch.h" /Fp"WIN32\CRYPTLIB\DEBUG\CRYPTLIB.PCH" /Fo"WIN32\CRYPTLIB\DEBUG\\" /Fd"WIN32\CRYPTLIB\DEBUG\VC120.PDB" /Gd /TP /analyze- D:\USERS\USER-PC\DOCUMENTS\VISUAL STUDIO 2013\PROJECTS\YEAR2(2017)\CRYPTOPP565\HW17\CRYPTOPP565\EMSA2.CPP
^D:\USERS\USER-PC\DOCUMENTS\VISUAL STUDIO 2013\PROJECTS\YEAR2(2017)\CRYPTOPP565\HW17\CRYPTOPP565\ESIGN.CPP
/c /Zi /nologo /W4 /WX- /Od /Oi /Oy- /D USE_PRECOMPILED_HEADERS /Gm- /EHsc /RTC1 /MTd /GS /arch:SSE2 /fp:precise /Zc:wchar_t /Zc:forScope /Yu"pch.h" /Fp"WIN32\CRYPTLIB\DEBUG\CRYPTLIB.PCH" /Fo"WIN32\CRYPTLIB\DEBUG\\" /Fd"WIN32\CRYPTLIB\DEBUG\VC120.PDB" /Gd /TP /analyze- D:\USERS\USER-PC\DOCUMENTS\VISUAL STUDIO 2013\PROJECTS\YEAR2(2017)\CRYPTOPP565\HW17\CRYPTOPP565\ESIGN.CPP
^D:\USERS\USER-PC\DOCUMENTS\VISUAL STUDIO 2013\PROJECTS\YEAR2(2017)\CRYPTOPP565\HW17\CRYPTOPP565\FILES.CPP
/c /Zi /nologo /W4 /WX- /Od /Oi /Oy- /D USE_PRECOMPILED_HEADERS /Gm- /EHsc /RTC1 /MTd /GS /arch:SSE2 /fp:precise /Zc:wchar_t /Zc:forScope /Yu"pch.h" /Fp"WIN32\CRYPTLIB\DEBUG\CRYPTLIB.PCH" /Fo"WIN32\CRYPTLIB\DEBUG\\" /Fd"WIN32\CRYPTLIB\DEBUG\VC120.PDB" /Gd /TP /analyze- D:\USERS\USER-PC\DOCUMENTS\VISUAL STUDIO 2013\PROJECTS\YEAR2(2017)\CRYPTOPP565\HW17\CRYPTOPP565\FILES.CPP
^D:\USERS\USER-PC\DOCUMENTS\VISUAL STUDIO 2013\PROJECTS\YEAR2(2017)\CRYPTOPP565\HW17\CRYPTOPP565\FILTERS.CPP
/c /Zi /nologo /W4 /WX- /Od /Oi /Oy- /D USE_PRECOMPILED_HEADERS /Gm- /EHsc /RTC1 /MTd /GS /arch:SSE2 /fp:precise /Zc:wchar_t /Zc:forScope /Yu"pch.h" /Fp"WIN32\CRYPTLIB\DEBUG\CRYPTLIB.PCH" /Fo"WIN32\CRYPTLIB\DEBUG\\" /Fd"WIN32\CRYPTLIB\DEBUG\VC120.PDB" /Gd /TP /analyze- D:\USERS\USER-PC\DOCUMENTS\VISUAL STUDIO 2013\PROJECTS\YEAR2(2017)\CRYPTOPP565\HW17\CRYPTOPP565\FILTERS.CPP
^D:\USERS\USER-PC\DOCUMENTS\VISUAL STUDIO 2013\PROJECTS\YEAR2(2017)\CRYPTOPP565\HW17\CRYPTOPP565\FIPS140.CPP
/c /Zi /nologo /W4 /WX- /Od /Oi /Oy- /D USE_PRECOMPILED_HEADERS /Gm- /EHsc /RTC1 /MTd /GS /arch:SSE2 /fp:precise /Zc:wchar_t /Zc:forScope /Yu"pch.h" /Fp"WIN32\CRYPTLIB\DEBUG\CRYPTLIB.PCH" /Fo"WIN32\CRYPTLIB\DEBUG\\" /Fd"WIN32\CRYPTLIB\DEBUG\VC120.PDB" /Gd /TP /analyze- D:\USERS\USER-PC\DOCUMENTS\VISUAL STUDIO 2013\PROJECTS\YEAR2(2017)\CRYPTOPP565\HW17\CRYPTOPP565\FIPS140.CPP
^D:\USERS\USER-PC\DOCUMENTS\VISUAL STUDIO 2013\PROJECTS\YEAR2(2017)\CRYPTOPP565\HW17\CRYPTOPP565\FIPSTEST.CPP
/c /Zi /nologo /W4 /WX- /Od /Oi /Oy- /D USE_PRECOMPILED_HEADERS /Gm- /EHsc /RTC1 /MTd /GS /arch:SSE2 /fp:precise /Zc:wchar_t /Zc:forScope /Yu"pch.h" /Fp"WIN32\CRYPTLIB\DEBUG\CRYPTLIB.PCH" /Fo"WIN32\CRYPTLIB\DEBUG\\" /Fd"WIN32\CRYPTLIB\DEBUG\VC120.PDB" /Gd /TP /analyze- D:\USERS\USER-PC\DOCUMENTS\VISUAL STUDIO 2013\PROJECTS\YEAR2(2017)\CRYPTOPP565\HW17\CRYPTOPP565\FIPSTEST.CPP
^D:\USERS\USER-PC\DOCUMENTS\VISUAL STUDIO 2013\PROJECTS\YEAR2(2017)\CRYPTOPP565\HW17\CRYPTOPP565\GCM.CPP
/c /Zi /nologo /W4 /WX- /Od /Oi /Oy- /D USE_PRECOMPILED_HEADERS /Gm- /EHsc /RTC1 /MTd /GS /arch:SSE2 /fp:precise /Zc:wchar_t /Zc:forScope /Yu"pch.h" /Fp"WIN32\CRYPTLIB\DEBUG\CRYPTLIB.PCH" /Fo"WIN32\CRYPTLIB\DEBUG\\" /Fd"WIN32\CRYPTLIB\DEBUG\VC120.PDB" /Gd /TP /analyze- D:\USERS\USER-PC\DOCUMENTS\VISUAL STUDIO 2013\PROJECTS\YEAR2(2017)\CRYPTOPP565\HW17\CRYPTOPP565\GCM.CPP
^D:\USERS\USER-PC\DOCUMENTS\VISUAL STUDIO 2013\PROJECTS\YEAR2(2017)\CRYPTOPP565\HW17\CRYPTOPP565\GF256.CPP
/c /Zi /nologo /W4 /WX- /Od /Oi /Oy- /D USE_PRECOMPILED_HEADERS /Gm- /EHsc /RTC1 /MTd /GS /arch:SSE2 /fp:precise /Zc:wchar_t /Zc:forScope /Yu"pch.h" /Fp"WIN32\CRYPTLIB\DEBUG\CRYPTLIB.PCH" /Fo"WIN32\CRYPTLIB\DEBUG\\" /Fd"WIN32\CRYPTLIB\DEBUG\VC120.PDB" /Gd /TP /analyze- D:\USERS\USER-PC\DOCUMENTS\VISUAL STUDIO 2013\PROJECTS\YEAR2(2017)\CRYPTOPP565\HW17\CRYPTOPP565\GF256.CPP
^D:\USERS\USER-PC\DOCUMENTS\VISUAL STUDIO 2013\PROJECTS\YEAR2(2017)\CRYPTOPP565\HW17\CRYPTOPP565\GF2_32.CPP
/c /Zi /nologo /W4 /WX- /Od /Oi /Oy- /D USE_PRECOMPILED_HEADERS /Gm- /EHsc /RTC1 /MTd /GS /arch:SSE2 /fp:precise /Zc:wchar_t /Zc:forScope /Yu"pch.h" /Fp"WIN32\CRYPTLIB\DEBUG\CRYPTLIB.PCH" /Fo"WIN32\CRYPTLIB\DEBUG\\" /Fd"WIN32\CRYPTLIB\DEBUG\VC120.PDB" /Gd /TP /analyze- D:\USERS\USER-PC\DOCUMENTS\VISUAL STUDIO 2013\PROJECTS\YEAR2(2017)\CRYPTOPP565\HW17\CRYPTOPP565\GF2_32.CPP
^D:\USERS\USER-PC\DOCUMENTS\VISUAL STUDIO 2013\PROJECTS\YEAR2(2017)\CRYPTOPP565\HW17\CRYPTOPP565\GF2N.CPP
/c /Zi /nologo /W4 /WX- /Od /Oi /Oy- /D USE_PRECOMPILED_HEADERS /Gm- /EHsc /RTC1 /MTd /GS /arch:SSE2 /fp:precise /Zc:wchar_t /Zc:forScope /Yu"pch.h" /Fp"WIN32\CRYPTLIB\DEBUG\CRYPTLIB.PCH" /Fo"WIN32\CRYPTLIB\DEBUG\\" /Fd"WIN32\CRYPTLIB\DEBUG\VC120.PDB" /Gd /TP /analyze- D:\USERS\USER-PC\DOCUMENTS\VISUAL STUDIO 2013\PROJECTS\YEAR2(2017)\CRYPTOPP565\HW17\CRYPTOPP565\GF2N.CPP
^D:\USERS\USER-PC\DOCUMENTS\VISUAL STUDIO 2013\PROJECTS\YEAR2(2017)\CRYPTOPP565\HW17\CRYPTOPP565\GFPCRYPT.CPP
/c /Zi /nologo /W4 /WX- /Od /Oi /Oy- /D USE_PRECOMPILED_HEADERS /Gm- /EHsc /RTC1 /MTd /GS /arch:SSE2 /fp:precise /Zc:wchar_t /Zc:forScope /Yu"pch.h" /Fp"WIN32\CRYPTLIB\DEBUG\CRYPTLIB.PCH" /Fo"WIN32\CRYPTLIB\DEBUG\\" /Fd"WIN32\CRYPTLIB\DEBUG\VC120.PDB" /Gd /TP /analyze- D:\USERS\USER-PC\DOCUMENTS\VISUAL STUDIO 2013\PROJECTS\YEAR2(2017)\CRYPTOPP565\HW17\CRYPTOPP565\GFPCRYPT.CPP
^D:\USERS\USER-PC\DOCUMENTS\VISUAL STUDIO 2013\PROJECTS\YEAR2(2017)\CRYPTOPP565\HW17\CRYPTOPP565\GOST.CPP
/c /Zi /nologo /W4 /WX- /Od /Oi /Oy- /D USE_PRECOMPILED_HEADERS /Gm- /EHsc /RTC1 /MTd /GS /arch:SSE2 /fp:precise /Zc:wchar_t /Zc:forScope /Yu"pch.h" /Fp"WIN32\CRYPTLIB\DEBUG\CRYPTLIB.PCH" /Fo"WIN32\CRYPTLIB\DEBUG\\" /Fd"WIN32\CRYPTLIB\DEBUG\VC120.PDB" /Gd /TP /analyze- D:\USERS\USER-PC\DOCUMENTS\VISUAL STUDIO 2013\PROJECTS\YEAR2(2017)\CRYPTOPP565\HW17\CRYPTOPP565\GOST.CPP
^D:\USERS\USER-PC\DOCUMENTS\VISUAL STUDIO 2013\PROJECTS\YEAR2(2017)\CRYPTOPP565\HW17\CRYPTOPP565\GZIP.CPP
/c /Zi /nologo /W4 /WX- /Od /Oi /Oy- /D USE_PRECOMPILED_HEADERS /Gm- /EHsc /RTC1 /MTd /GS /arch:SSE2 /fp:precise /Zc:wchar_t /Zc:forScope /Yu"pch.h" /Fp"WIN32\CRYPTLIB\DEBUG\CRYPTLIB.PCH" /Fo"WIN32\CRYPTLIB\DEBUG\\" /Fd"WIN32\CRYPTLIB\DEBUG\VC120.PDB" /Gd /TP /analyze- D:\USERS\USER-PC\DOCUMENTS\VISUAL STUDIO 2013\PROJECTS\YEAR2(2017)\CRYPTOPP565\HW17\CRYPTOPP565\GZIP.CPP
^D:\USERS\USER-PC\DOCUMENTS\VISUAL STUDIO 2013\PROJECTS\YEAR2(2017)\CRYPTOPP565\HW17\CRYPTOPP565\HEX.CPP
/c /Zi /nologo /W4 /WX- /Od /Oi /Oy- /D USE_PRECOMPILED_HEADERS /Gm- /EHsc /RTC1 /MTd /GS /arch:SSE2 /fp:precise /Zc:wchar_t /Zc:forScope /Yu"pch.h" /Fp"WIN32\CRYPTLIB\DEBUG\CRYPTLIB.PCH" /Fo"WIN32\CRYPTLIB\DEBUG\\" /Fd"WIN32\CRYPTLIB\DEBUG\VC120.PDB" /Gd /TP /analyze- D:\USERS\USER-PC\DOCUMENTS\VISUAL STUDIO 2013\PROJECTS\YEAR2(2017)\CRYPTOPP565\HW17\CRYPTOPP565\HEX.CPP
^D:\USERS\USER-PC\DOCUMENTS\VISUAL STUDIO 2013\PROJECTS\YEAR2(2017)\CRYPTOPP565\HW17\CRYPTOPP565\HMAC.CPP
/c /Zi /nologo /W4 /WX- /Od /Oi /Oy- /D USE_PRECOMPILED_HEADERS /Gm- /EHsc /RTC1 /MTd /GS /arch:SSE2 /fp:precise /Zc:wchar_t /Zc:forScope /Yu"pch.h" /Fp"WIN32\CRYPTLIB\DEBUG\CRYPTLIB.PCH" /Fo"WIN32\CRYPTLIB\DEBUG\\" /Fd"WIN32\CRYPTLIB\DEBUG\VC120.PDB" /Gd /TP /analyze- D:\USERS\USER-PC\DOCUMENTS\VISUAL STUDIO 2013\PROJECTS\YEAR2(2017)\CRYPTOPP565\HW17\CRYPTOPP565\HMAC.CPP
^D:\USERS\USER-PC\DOCUMENTS\VISUAL STUDIO 2013\PROJECTS\YEAR2(2017)\CRYPTOPP565\HW17\CRYPTOPP565\HRTIMER.CPP
/c /Zi /nologo /W4 /WX- /Od /Oi /Oy- /D USE_PRECOMPILED_HEADERS /Gm- /EHsc /RTC1 /MTd /GS /arch:SSE2 /fp:precise /Zc:wchar_t /Zc:forScope /Yu"pch.h" /Fp"WIN32\CRYPTLIB\DEBUG\CRYPTLIB.PCH" /Fo"WIN32\CRYPTLIB\DEBUG\\" /Fd"WIN32\CRYPTLIB\DEBUG\VC120.PDB" /Gd /TP /analyze- D:\USERS\USER-PC\DOCUMENTS\VISUAL STUDIO 2013\PROJECTS\YEAR2(2017)\CRYPTOPP565\HW17\CRYPTOPP565\HRTIMER.CPP
^D:\USERS\USER-PC\DOCUMENTS\VISUAL STUDIO 2013\PROJECTS\YEAR2(2017)\CRYPTOPP565\HW17\CRYPTOPP565\IDA.CPP
/c /Zi /nologo /W4 /WX- /Od /Oi /Oy- /D USE_PRECOMPILED_HEADERS /Gm- /EHsc /RTC1 /MTd /GS /arch:SSE2 /fp:precise /Zc:wchar_t /Zc:forScope /Yu"pch.h" /Fp"WIN32\CRYPTLIB\DEBUG\CRYPTLIB.PCH" /Fo"WIN32\CRYPTLIB\DEBUG\\" /Fd"WIN32\CRYPTLIB\DEBUG\VC120.PDB" /Gd /TP /analyze- D:\USERS\USER-PC\DOCUMENTS\VISUAL STUDIO 2013\PROJECTS\YEAR2(2017)\CRYPTOPP565\HW17\CRYPTOPP565\IDA.CPP
^D:\USERS\USER-PC\DOCUMENTS\VISUAL STUDIO 2013\PROJECTS\YEAR2(2017)\CRYPTOPP565\HW17\CRYPTOPP565\IDEA.CPP
/c /Zi /nologo /W4 /WX- /Od /Oi /Oy- /D USE_PRECOMPILED_HEADERS /Gm- /EHsc /RTC1 /MTd /GS /arch:SSE2 /fp:precise /Zc:wchar_t /Zc:forScope /Yu"pch.h" /Fp"WIN32\CRYPTLIB\DEBUG\CRYPTLIB.PCH" /Fo"WIN32\CRYPTLIB\DEBUG\\" /Fd"WIN32\CRYPTLIB\DEBUG\VC120.PDB" /Gd /TP /analyze- D:\USERS\USER-PC\DOCUMENTS\VISUAL STUDIO 2013\PROJECTS\YEAR2(2017)\CRYPTOPP565\HW17\CRYPTOPP565\IDEA.CPP
^D:\USERS\USER-PC\DOCUMENTS\VISUAL STUDIO 2013\PROJECTS\YEAR2(2017)\CRYPTOPP565\HW17\CRYPTOPP565\KECCAK.CPP
/c /Zi /nologo /W4 /WX- /Od /Oi /Oy- /D USE_PRECOMPILED_HEADERS /Gm- /EHsc /RTC1 /MTd /GS /arch:SSE2 /fp:precise /Zc:wchar_t /Zc:forScope /Yu"pch.h" /Fp"WIN32\CRYPTLIB\DEBUG\CRYPTLIB.PCH" /Fo"WIN32\CRYPTLIB\DEBUG\\" /Fd"WIN32\CRYPTLIB\DEBUG\VC120.PDB" /Gd /TP /analyze- D:\USERS\USER-PC\DOCUMENTS\VISUAL STUDIO 2013\PROJECTS\YEAR2(2017)\CRYPTOPP565\HW17\CRYPTOPP565\KECCAK.CPP
^D:\USERS\USER-PC\DOCUMENTS\VISUAL STUDIO 2013\PROJECTS\YEAR2(2017)\CRYPTOPP565\HW17\CRYPTOPP565\LUC.CPP
/c /Zi /nologo /W4 /WX- /Od /Oi /Oy- /D USE_PRECOMPILED_HEADERS /Gm- /EHsc /RTC1 /MTd /GS /arch:SSE2 /fp:precise /Zc:wchar_t /Zc:forScope /Yu"pch.h" /Fp"WIN32\CRYPTLIB\DEBUG\CRYPTLIB.PCH" /Fo"WIN32\CRYPTLIB\DEBUG\\" /Fd"WIN32\CRYPTLIB\DEBUG\VC120.PDB" /Gd /TP /analyze- D:\USERS\USER-PC\DOCUMENTS\VISUAL STUDIO 2013\PROJECTS\YEAR2(2017)\CRYPTOPP565\HW17\CRYPTOPP565\LUC.CPP
^D:\USERS\USER-PC\DOCUMENTS\VISUAL STUDIO 2013\PROJECTS\YEAR2(2017)\CRYPTOPP565\HW17\CRYPTOPP565\MARS.CPP
/c /Zi /nologo /W4 /WX- /Od /Oi /Oy- /D USE_PRECOMPILED_HEADERS /Gm- /EHsc /RTC1 /MTd /GS /arch:SSE2 /fp:precise /Zc:wchar_t /Zc:forScope /Yu"pch.h" /Fp"WIN32\CRYPTLIB\DEBUG\CRYPTLIB.PCH" /Fo"WIN32\CRYPTLIB\DEBUG\\" /Fd"WIN32\CRYPTLIB\DEBUG\VC120.PDB" /Gd /TP /analyze- D:\USERS\USER-PC\DOCUMENTS\VISUAL STUDIO 2013\PROJECTS\YEAR2(2017)\CRYPTOPP565\HW17\CRYPTOPP565\MARS.CPP
^D:\USERS\USER-PC\DOCUMENTS\VISUAL STUDIO 2013\PROJECTS\YEAR2(2017)\CRYPTOPP565\HW17\CRYPTOPP565\MARSS.CPP
/c /Zi /nologo /W4 /WX- /Od /Oi /Oy- /D USE_PRECOMPILED_HEADERS /Gm- /EHsc /RTC1 /MTd /GS /arch:SSE2 /fp:precise /Zc:wchar_t /Zc:forScope /Yu"pch.h" /Fp"WIN32\CRYPTLIB\DEBUG\CRYPTLIB.PCH" /Fo"WIN32\CRYPTLIB\DEBUG\\" /Fd"WIN32\CRYPTLIB\DEBUG\VC120.PDB" /Gd /TP /analyze- D:\USERS\USER-PC\DOCUMENTS\VISUAL STUDIO 2013\PROJECTS\YEAR2(2017)\CRYPTOPP565\HW17\CRYPTOPP565\MARSS.CPP
^D:\USERS\USER-PC\DOCUMENTS\VISUAL STUDIO 2013\PROJECTS\YEAR2(2017)\CRYPTOPP565\HW17\CRYPTOPP565\MD2.CPP
/c /Zi /nologo /W4 /WX- /Od /Oi /Oy- /D USE_PRECOMPILED_HEADERS /Gm- /EHsc /RTC1 /MTd /GS /arch:SSE2 /fp:precise /Zc:wchar_t /Zc:forScope /Yu"pch.h" /Fp"WIN32\CRYPTLIB\DEBUG\CRYPTLIB.PCH" /Fo"WIN32\CRYPTLIB\DEBUG\\" /Fd"WIN32\CRYPTLIB\DEBUG\VC120.PDB" /Gd /TP /analyze- D:\USERS\USER-PC\DOCUMENTS\VISUAL STUDIO 2013\PROJECTS\YEAR2(2017)\CRYPTOPP565\HW17\CRYPTOPP565\MD2.CPP
^D:\USERS\USER-PC\DOCUMENTS\VISUAL STUDIO 2013\PROJECTS\YEAR2(2017)\CRYPTOPP565\HW17\CRYPTOPP565\MD4.CPP
/c /Zi /nologo /W4 /WX- /Od /Oi /Oy- /D USE_PRECOMPILED_HEADERS /Gm- /EHsc /RTC1 /MTd /GS /arch:SSE2 /fp:precise /Zc:wchar_t /Zc:forScope /Yu"pch.h" /Fp"WIN32\CRYPTLIB\DEBUG\CRYPTLIB.PCH" /Fo"WIN32\CRYPTLIB\DEBUG\\" /Fd"WIN32\CRYPTLIB\DEBUG\VC120.PDB" /Gd /TP /analyze- D:\USERS\USER-PC\DOCUMENTS\VISUAL STUDIO 2013\PROJECTS\YEAR2(2017)\CRYPTOPP565\HW17\CRYPTOPP565\MD4.CPP
^D:\USERS\USER-PC\DOCUMENTS\VISUAL STUDIO 2013\PROJECTS\YEAR2(2017)\CRYPTOPP565\HW17\CRYPTOPP565\MD5.CPP
/c /Zi /nologo /W4 /WX- /Od /Oi /Oy- /D USE_PRECOMPILED_HEADERS /Gm- /EHsc /RTC1 /MTd /GS /arch:SSE2 /fp:precise /Zc:wchar_t /Zc:forScope /Yu"pch.h" /Fp"WIN32\CRYPTLIB\DEBUG\CRYPTLIB.PCH" /Fo"WIN32\CRYPTLIB\DEBUG\\" /Fd"WIN32\CRYPTLIB\DEBUG\VC120.PDB" /Gd /TP /analyze- D:\USERS\USER-PC\DOCUMENTS\VISUAL STUDIO 2013\PROJECTS\YEAR2(2017)\CRYPTOPP565\HW17\CRYPTOPP565\MD5.CPP
^D:\USERS\USER-PC\DOCUMENTS\VISUAL STUDIO 2013\PROJECTS\YEAR2(2017)\CRYPTOPP565\HW17\CRYPTOPP565\MISC.CPP
/c /Zi /nologo /W4 /WX- /Od /Oi /Oy- /D USE_PRECOMPILED_HEADERS /Gm- /EHsc /RTC1 /MTd /GS /arch:SSE2 /fp:precise /Zc:wchar_t /Zc:forScope /Yu"pch.h" /Fp"WIN32\CRYPTLIB\DEBUG\CRYPTLIB.PCH" /Fo"WIN32\CRYPTLIB\DEBUG\\" /Fd"WIN32\CRYPTLIB\DEBUG\VC120.PDB" /Gd /TP /analyze- D:\USERS\USER-PC\DOCUMENTS\VISUAL STUDIO 2013\PROJECTS\YEAR2(2017)\CRYPTOPP565\HW17\CRYPTOPP565\MISC.CPP
^D:\USERS\USER-PC\DOCUMENTS\VISUAL STUDIO 2013\PROJECTS\YEAR2(2017)\CRYPTOPP565\HW17\CRYPTOPP565\MODES.CPP
/c /Zi /nologo /W4 /WX- /Od /Oi /Oy- /D USE_PRECOMPILED_HEADERS /Gm- /EHsc /RTC1 /MTd /GS /arch:SSE2 /fp:precise /Zc:wchar_t /Zc:forScope /Yu"pch.h" /Fp"WIN32\CRYPTLIB\DEBUG\CRYPTLIB.PCH" /Fo"WIN32\CRYPTLIB\DEBUG\\" /Fd"WIN32\CRYPTLIB\DEBUG\VC120.PDB" /Gd /TP /analyze- D:\USERS\USER-PC\DOCUMENTS\VISUAL STUDIO 2013\PROJECTS\YEAR2(2017)\CRYPTOPP565\HW17\CRYPTOPP565\MODES.CPP
^D:\USERS\USER-PC\DOCUMENTS\VISUAL STUDIO 2013\PROJECTS\YEAR2(2017)\CRYPTOPP565\HW17\CRYPTOPP565\MQUEUE.CPP
/c /Zi /nologo /W4 /WX- /Od /Oi /Oy- /D USE_PRECOMPILED_HEADERS /Gm- /EHsc /RTC1 /MTd /GS /arch:SSE2 /fp:precise /Zc:wchar_t /Zc:forScope /Yu"pch.h" /Fp"WIN32\CRYPTLIB\DEBUG\CRYPTLIB.PCH" /Fo"WIN32\CRYPTLIB\DEBUG\\" /Fd"WIN32\CRYPTLIB\DEBUG\VC120.PDB" /Gd /TP /analyze- D:\USERS\USER-PC\DOCUMENTS\VISUAL STUDIO 2013\PROJECTS\YEAR2(2017)\CRYPTOPP565\HW17\CRYPTOPP565\MQUEUE.CPP
^D:\USERS\USER-PC\DOCUMENTS\VISUAL STUDIO 2013\PROJECTS\YEAR2(2017)\CRYPTOPP565\HW17\CRYPTOPP565\MQV.CPP
/c /Zi /nologo /W4 /WX- /Od /Oi /Oy- /D USE_PRECOMPILED_HEADERS /Gm- /EHsc /RTC1 /MTd /GS /arch:SSE2 /fp:precise /Zc:wchar_t /Zc:forScope /Yu"pch.h" /Fp"WIN32\CRYPTLIB\DEBUG\CRYPTLIB.PCH" /Fo"WIN32\CRYPTLIB\DEBUG\\" /Fd"WIN32\CRYPTLIB\DEBUG\VC120.PDB" /Gd /TP /analyze- D:\USERS\USER-PC\DOCUMENTS\VISUAL STUDIO 2013\PROJECTS\YEAR2(2017)\CRYPTOPP565\HW17\CRYPTOPP565\MQV.CPP
^D:\USERS\USER-PC\DOCUMENTS\VISUAL STUDIO 2013\PROJECTS\YEAR2(2017)\CRYPTOPP565\HW17\CRYPTOPP565\NBTHEORY.CPP
/c /Zi /nologo /W4 /WX- /Od /Oi /Oy- /D USE_PRECOMPILED_HEADERS /Gm- /EHsc /RTC1 /MTd /GS /arch:SSE2 /fp:precise /Zc:wchar_t /Zc:forScope /Yu"pch.h" /Fp"WIN32\CRYPTLIB\DEBUG\CRYPTLIB.PCH" /Fo"WIN32\CRYPTLIB\DEBUG\\" /Fd"WIN32\CRYPTLIB\DEBUG\VC120.PDB" /Gd /TP /analyze- D:\USERS\USER-PC\DOCUMENTS\VISUAL STUDIO 2013\PROJECTS\YEAR2(2017)\CRYPTOPP565\HW17\CRYPTOPP565\NBTHEORY.CPP
^D:\USERS\USER-PC\DOCUMENTS\VISUAL STUDIO 2013\PROJECTS\YEAR2(2017)\CRYPTOPP565\HW17\CRYPTOPP565\NETWORK.CPP
/c /Zi /nologo /W4 /WX- /Od /Oi /Oy- /D USE_PRECOMPILED_HEADERS /Gm- /EHsc /RTC1 /MTd /GS /arch:SSE2 /fp:precise /Zc:wchar_t /Zc:forScope /Yu"pch.h" /Fp"WIN32\CRYPTLIB\DEBUG\CRYPTLIB.PCH" /Fo"WIN32\CRYPTLIB\DEBUG\\" /Fd"WIN32\CRYPTLIB\DEBUG\VC120.PDB" /Gd /TP /analyze- D:\USERS\USER-PC\DOCUMENTS\VISUAL STUDIO 2013\PROJECTS\YEAR2(2017)\CRYPTOPP565\HW17\CRYPTOPP565\NETWORK.CPP
^D:\USERS\USER-PC\DOCUMENTS\VISUAL STUDIO 2013\PROJECTS\YEAR2(2017)\CRYPTOPP565\HW17\CRYPTOPP565\OAEP.CPP
/c /Zi /nologo /W4 /WX- /Od /Oi /Oy- /D USE_PRECOMPILED_HEADERS /Gm- /EHsc /RTC1 /MTd /GS /arch:SSE2 /fp:precise /Zc:wchar_t /Zc:forScope /Yu"pch.h" /Fp"WIN32\CRYPTLIB\DEBUG\CRYPTLIB.PCH" /Fo"WIN32\CRYPTLIB\DEBUG\\" /Fd"WIN32\CRYPTLIB\DEBUG\VC120.PDB" /Gd /TP /analyze- D:\USERS\USER-PC\DOCUMENTS\VISUAL STUDIO 2013\PROJECTS\YEAR2(2017)\CRYPTOPP565\HW17\CRYPTOPP565\OAEP.CPP
^D:\USERS\USER-PC\DOCUMENTS\VISUAL STUDIO 2013\PROJECTS\YEAR2(2017)\CRYPTOPP565\HW17\CRYPTOPP565\OSRNG.CPP
/c /Zi /nologo /W4 /WX- /Od /Oi /Oy- /D USE_PRECOMPILED_HEADERS /Gm- /EHsc /RTC1 /MTd /GS /arch:SSE2 /fp:precise /Zc:wchar_t /Zc:forScope /Yu"pch.h" /Fp"WIN32\CRYPTLIB\DEBUG\CRYPTLIB.PCH" /Fo"WIN32\CRYPTLIB\DEBUG\\" /Fd"WIN32\CRYPTLIB\DEBUG\VC120.PDB" /Gd /TP /analyze- D:\USERS\USER-PC\DOCUMENTS\VISUAL STUDIO 2013\PROJECTS\YEAR2(2017)\CRYPTOPP565\HW17\CRYPTOPP565\OSRNG.CPP
^D:\USERS\USER-PC\DOCUMENTS\VISUAL STUDIO 2013\PROJECTS\YEAR2(2017)\CRYPTOPP565\HW17\CRYPTOPP565\PANAMA.CPP
/c /Zi /nologo /W4 /WX- /Od /Oi /Oy- /D USE_PRECOMPILED_HEADERS /Gm- /EHsc /RTC1 /MTd /GS /arch:SSE2 /fp:precise /Zc:wchar_t /Zc:forScope /Yu"pch.h" /Fp"WIN32\CRYPTLIB\DEBUG\CRYPTLIB.PCH" /Fo"WIN32\CRYPTLIB\DEBUG\\" /Fd"WIN32\CRYPTLIB\DEBUG\VC120.PDB" /Gd /TP /analyze- D:\USERS\USER-PC\DOCUMENTS\VISUAL STUDIO 2013\PROJECTS\YEAR2(2017)\CRYPTOPP565\HW17\CRYPTOPP565\PANAMA.CPP
^D:\USERS\USER-PC\DOCUMENTS\VISUAL STUDIO 2013\PROJECTS\YEAR2(2017)\CRYPTOPP565\HW17\CRYPTOPP565\PKCSPAD.CPP
/c /Zi /nologo /W4 /WX- /Od /Oi /Oy- /D USE_PRECOMPILED_HEADERS /Gm- /EHsc /RTC1 /MTd /GS /arch:SSE2 /fp:precise /Zc:wchar_t /Zc:forScope /Yu"pch.h" /Fp"WIN32\CRYPTLIB\DEBUG\CRYPTLIB.PCH" /Fo"WIN32\CRYPTLIB\DEBUG\\" /Fd"WIN32\CRYPTLIB\DEBUG\VC120.PDB" /Gd /TP /analyze- D:\USERS\USER-PC\DOCUMENTS\VISUAL STUDIO 2013\PROJECTS\YEAR2(2017)\CRYPTOPP565\HW17\CRYPTOPP565\PKCSPAD.CPP
^D:\USERS\USER-PC\DOCUMENTS\VISUAL STUDIO 2013\PROJECTS\YEAR2(2017)\CRYPTOPP565\HW17\CRYPTOPP565\POLYNOMI.CPP
/c /Zi /nologo /W4 /WX- /Od /Oi /Oy- /D USE_PRECOMPILED_HEADERS /Gm- /EHsc /RTC1 /MTd /GS /arch:SSE2 /fp:precise /Zc:wchar_t /Zc:forScope /Yu"pch.h" /Fp"WIN32\CRYPTLIB\DEBUG\CRYPTLIB.PCH" /Fo"WIN32\CRYPTLIB\DEBUG\\" /Fd"WIN32\CRYPTLIB\DEBUG\VC120.PDB" /Gd /TP /analyze- D:\USERS\USER-PC\DOCUMENTS\VISUAL STUDIO 2013\PROJECTS\YEAR2(2017)\CRYPTOPP565\HW17\CRYPTOPP565\POLYNOMI.CPP
^D:\USERS\USER-PC\DOCUMENTS\VISUAL STUDIO 2013\PROJECTS\YEAR2(2017)\CRYPTOPP565\HW17\CRYPTOPP565\PSSR.CPP
/c /Zi /nologo /W4 /WX- /Od /Oi /Oy- /D USE_PRECOMPILED_HEADERS /Gm- /EHsc /RTC1 /MTd /GS /arch:SSE2 /fp:precise /Zc:wchar_t /Zc:forScope /Yu"pch.h" /Fp"WIN32\CRYPTLIB\DEBUG\CRYPTLIB.PCH" /Fo"WIN32\CRYPTLIB\DEBUG\\" /Fd"WIN32\CRYPTLIB\DEBUG\VC120.PDB" /Gd /TP /analyze- D:\USERS\USER-PC\DOCUMENTS\VISUAL STUDIO 2013\PROJECTS\YEAR2(2017)\CRYPTOPP565\HW17\CRYPTOPP565\PSSR.CPP
^D:\USERS\USER-PC\DOCUMENTS\VISUAL STUDIO 2013\PROJECTS\YEAR2(2017)\CRYPTOPP565\HW17\CRYPTOPP565\PUBKEY.CPP
/c /Zi /nologo /W4 /WX- /Od /Oi /Oy- /D USE_PRECOMPILED_HEADERS /Gm- /EHsc /RTC1 /MTd /GS /arch:SSE2 /fp:precise /Zc:wchar_t /Zc:forScope /Yu"pch.h" /Fp"WIN32\CRYPTLIB\DEBUG\CRYPTLIB.PCH" /Fo"WIN32\CRYPTLIB\DEBUG\\" /Fd"WIN32\CRYPTLIB\DEBUG\VC120.PDB" /Gd /TP /analyze- D:\USERS\USER-PC\DOCUMENTS\VISUAL STUDIO 2013\PROJECTS\YEAR2(2017)\CRYPTOPP565\HW17\CRYPTOPP565\PUBKEY.CPP
^D:\USERS\USER-PC\DOCUMENTS\VISUAL STUDIO 2013\PROJECTS\YEAR2(2017)\CRYPTOPP565\HW17\CRYPTOPP565\QUEUE.CPP
/c /Zi /nologo /W4 /WX- /Od /Oi /Oy- /D USE_PRECOMPILED_HEADERS /Gm- /EHsc /RTC1 /MTd /GS /arch:SSE2 /fp:precise /Zc:wchar_t /Zc:forScope /Yu"pch.h" /Fp"WIN32\CRYPTLIB\DEBUG\CRYPTLIB.PCH" /Fo"WIN32\CRYPTLIB\DEBUG\\" /Fd"WIN32\CRYPTLIB\DEBUG\VC120.PDB" /Gd /TP /analyze- D:\USERS\USER-PC\DOCUMENTS\VISUAL STUDIO 2013\PROJECTS\YEAR2(2017)\CRYPTOPP565\HW17\CRYPTOPP565\QUEUE.CPP
^D:\USERS\USER-PC\DOCUMENTS\VISUAL STUDIO 2013\PROJECTS\YEAR2(2017)\CRYPTOPP565\HW17\CRYPTOPP565\RABIN.CPP
/c /Zi /nologo /W4 /WX- /Od /Oi /Oy- /D USE_PRECOMPILED_HEADERS /Gm- /EHsc /RTC1 /MTd /GS /arch:SSE2 /fp:precise /Zc:wchar_t /Zc:forScope /Yu"pch.h" /Fp"WIN32\CRYPTLIB\DEBUG\CRYPTLIB.PCH" /Fo"WIN32\CRYPTLIB\DEBUG\\" /Fd"WIN32\CRYPTLIB\DEBUG\VC120.PDB" /Gd /TP /analyze- D:\USERS\USER-PC\DOCUMENTS\VISUAL STUDIO 2013\PROJECTS\YEAR2(2017)\CRYPTOPP565\HW17\CRYPTOPP565\RABIN.CPP
^D:\USERS\USER-PC\DOCUMENTS\VISUAL STUDIO 2013\PROJECTS\YEAR2(2017)\CRYPTOPP565\HW17\CRYPTOPP565\RANDPOOL.CPP
/c /Zi /nologo /W4 /WX- /Od /Oi /Oy- /D USE_PRECOMPILED_HEADERS /Gm- /EHsc /RTC1 /MTd /GS /arch:SSE2 /fp:precise /Zc:wchar_t /Zc:forScope /Yu"pch.h" /Fp"WIN32\CRYPTLIB\DEBUG\CRYPTLIB.PCH" /Fo"WIN32\CRYPTLIB\DEBUG\\" /Fd"WIN32\CRYPTLIB\DEBUG\VC120.PDB" /Gd /TP /analyze- D:\USERS\USER-PC\DOCUMENTS\VISUAL STUDIO 2013\PROJECTS\YEAR2(2017)\CRYPTOPP565\HW17\CRYPTOPP565\RANDPOOL.CPP
^D:\USERS\USER-PC\DOCUMENTS\VISUAL STUDIO 2013\PROJECTS\YEAR2(2017)\CRYPTOPP565\HW17\CRYPTOPP565\RC2.CPP
/c /Zi /nologo /W4 /WX- /Od /Oi /Oy- /D USE_PRECOMPILED_HEADERS /Gm- /EHsc /RTC1 /MTd /GS /arch:SSE2 /fp:precise /Zc:wchar_t /Zc:forScope /Yu"pch.h" /Fp"WIN32\CRYPTLIB\DEBUG\CRYPTLIB.PCH" /Fo"WIN32\CRYPTLIB\DEBUG\\" /Fd"WIN32\CRYPTLIB\DEBUG\VC120.PDB" /Gd /TP /analyze- D:\USERS\USER-PC\DOCUMENTS\VISUAL STUDIO 2013\PROJECTS\YEAR2(2017)\CRYPTOPP565\HW17\CRYPTOPP565\RC2.CPP
^D:\USERS\USER-PC\DOCUMENTS\VISUAL STUDIO 2013\PROJECTS\YEAR2(2017)\CRYPTOPP565\HW17\CRYPTOPP565\RC5.CPP
/c /Zi /nologo /W4 /WX- /Od /Oi /Oy- /D USE_PRECOMPILED_HEADERS /Gm- /EHsc /RTC1 /MTd /GS /arch:SSE2 /fp:precise /Zc:wchar_t /Zc:forScope /Yu"pch.h" /Fp"WIN32\CRYPTLIB\DEBUG\CRYPTLIB.PCH" /Fo"WIN32\CRYPTLIB\DEBUG\\" /Fd"WIN32\CRYPTLIB\DEBUG\VC120.PDB" /Gd /TP /analyze- D:\USERS\USER-PC\DOCUMENTS\VISUAL STUDIO 2013\PROJECTS\YEAR2(2017)\CRYPTOPP565\HW17\CRYPTOPP565\RC5.CPP
^D:\USERS\USER-PC\DOCUMENTS\VISUAL STUDIO 2013\PROJECTS\YEAR2(2017)\CRYPTOPP565\HW17\CRYPTOPP565\RC6.CPP
/c /Zi /nologo /W4 /WX- /Od /Oi /Oy- /D USE_PRECOMPILED_HEADERS /Gm- /EHsc /RTC1 /MTd /GS /arch:SSE2 /fp:precise /Zc:wchar_t /Zc:forScope /Yu"pch.h" /Fp"WIN32\CRYPTLIB\DEBUG\CRYPTLIB.PCH" /Fo"WIN32\CRYPTLIB\DEBUG\\" /Fd"WIN32\CRYPTLIB\DEBUG\VC120.PDB" /Gd /TP /analyze- D:\USERS\USER-PC\DOCUMENTS\VISUAL STUDIO 2013\PROJECTS\YEAR2(2017)\CRYPTOPP565\HW17\CRYPTOPP565\RC6.CPP
^D:\USERS\USER-PC\DOCUMENTS\VISUAL STUDIO 2013\PROJECTS\YEAR2(2017)\CRYPTOPP565\HW17\CRYPTOPP565\RDRAND.CPP
/c /Zi /nologo /W4 /WX- /Od /Oi /Oy- /D USE_PRECOMPILED_HEADERS /Gm- /EHsc /RTC1 /MTd /GS /arch:SSE2 /fp:precise /Zc:wchar_t /Zc:forScope /Yu"pch.h" /Fp"WIN32\CRYPTLIB\DEBUG\CRYPTLIB.PCH" /Fo"WIN32\CRYPTLIB\DEBUG\\" /Fd"WIN32\CRYPTLIB\DEBUG\VC120.PDB" /Gd /TP /analyze- D:\USERS\USER-PC\DOCUMENTS\VISUAL STUDIO 2013\PROJECTS\YEAR2(2017)\CRYPTOPP565\HW17\CRYPTOPP565\RDRAND.CPP
^D:\USERS\USER-PC\DOCUMENTS\VISUAL STUDIO 2013\PROJECTS\YEAR2(2017)\CRYPTOPP565\HW17\CRYPTOPP565\RDTABLES.CPP
/c /Zi /nologo /W4 /WX- /Od /Oi /Oy- /D USE_PRECOMPILED_HEADERS /Gm- /EHsc /RTC1 /MTd /GS /arch:SSE2 /fp:precise /Zc:wchar_t /Zc:forScope /Yu"pch.h" /Fp"WIN32\CRYPTLIB\DEBUG\CRYPTLIB.PCH" /Fo"WIN32\CRYPTLIB\DEBUG\\" /Fd"WIN32\CRYPTLIB\DEBUG\VC120.PDB" /Gd /TP /analyze- D:\USERS\USER-PC\DOCUMENTS\VISUAL STUDIO 2013\PROJECTS\YEAR2(2017)\CRYPTOPP565\HW17\CRYPTOPP565\RDTABLES.CPP
^D:\USERS\USER-PC\DOCUMENTS\VISUAL STUDIO 2013\PROJECTS\YEAR2(2017)\CRYPTOPP565\HW17\CRYPTOPP565\RIJNDAEL.CPP
/c /Zi /nologo /W4 /WX- /Od /Oi /Oy- /D USE_PRECOMPILED_HEADERS /Gm- /EHsc /RTC1 /MTd /GS /arch:SSE2 /fp:precise /Zc:wchar_t /Zc:forScope /Yu"pch.h" /Fp"WIN32\CRYPTLIB\DEBUG\CRYPTLIB.PCH" /Fo"WIN32\CRYPTLIB\DEBUG\\" /Fd"WIN32\CRYPTLIB\DEBUG\VC120.PDB" /Gd /TP /analyze- D:\USERS\USER-PC\DOCUMENTS\VISUAL STUDIO 2013\PROJECTS\YEAR2(2017)\CRYPTOPP565\HW17\CRYPTOPP565\RIJNDAEL.CPP
^D:\USERS\USER-PC\DOCUMENTS\VISUAL STUDIO 2013\PROJECTS\YEAR2(2017)\CRYPTOPP565\HW17\CRYPTOPP565\RIPEMD.CPP
/c /Zi /nologo /W4 /WX- /Od /Oi /Oy- /D USE_PRECOMPILED_HEADERS /Gm- /EHsc /RTC1 /MTd /GS /arch:SSE2 /fp:precise /Zc:wchar_t /Zc:forScope /Yu"pch.h" /Fp"WIN32\CRYPTLIB\DEBUG\CRYPTLIB.PCH" /Fo"WIN32\CRYPTLIB\DEBUG\\" /Fd"WIN32\CRYPTLIB\DEBUG\VC120.PDB" /Gd /TP /analyze- D:\USERS\USER-PC\DOCUMENTS\VISUAL STUDIO 2013\PROJECTS\YEAR2(2017)\CRYPTOPP565\HW17\CRYPTOPP565\RIPEMD.CPP
^D:\USERS\USER-PC\DOCUMENTS\VISUAL STUDIO 2013\PROJECTS\YEAR2(2017)\CRYPTOPP565\HW17\CRYPTOPP565\RNG.CPP
/c /Zi /nologo /W4 /WX- /Od /Oi /Oy- /D USE_PRECOMPILED_HEADERS /Gm- /EHsc /RTC1 /MTd /GS /arch:SSE2 /fp:precise /Zc:wchar_t /Zc:forScope /Yu"pch.h" /Fp"WIN32\CRYPTLIB\DEBUG\CRYPTLIB.PCH" /Fo"WIN32\CRYPTLIB\DEBUG\\" /Fd"WIN32\CRYPTLIB\DEBUG\VC120.PDB" /Gd /TP /analyze- D:\USERS\USER-PC\DOCUMENTS\VISUAL STUDIO 2013\PROJECTS\YEAR2(2017)\CRYPTOPP565\HW17\CRYPTOPP565\RNG.CPP
^D:\USERS\USER-PC\DOCUMENTS\VISUAL STUDIO 2013\PROJECTS\YEAR2(2017)\CRYPTOPP565\HW17\CRYPTOPP565\RSA.CPP
/c /Zi /nologo /W4 /WX- /Od /Oi /Oy- /D USE_PRECOMPILED_HEADERS /Gm- /EHsc /RTC1 /MTd /GS /arch:SSE2 /fp:precise /Zc:wchar_t /Zc:forScope /Yu"pch.h" /Fp"WIN32\CRYPTLIB\DEBUG\CRYPTLIB.PCH" /Fo"WIN32\CRYPTLIB\DEBUG\\" /Fd"WIN32\CRYPTLIB\DEBUG\VC120.PDB" /Gd /TP /analyze- D:\USERS\USER-PC\DOCUMENTS\VISUAL STUDIO 2013\PROJECTS\YEAR2(2017)\CRYPTOPP565\HW17\CRYPTOPP565\RSA.CPP
^D:\USERS\USER-PC\DOCUMENTS\VISUAL STUDIO 2013\PROJECTS\YEAR2(2017)\CRYPTOPP565\HW17\CRYPTOPP565\RW.CPP
/c /Zi /nologo /W4 /WX- /Od /Oi /Oy- /D USE_PRECOMPILED_HEADERS /Gm- /EHsc /RTC1 /MTd /GS /arch:SSE2 /fp:precise /Zc:wchar_t /Zc:forScope /Yu"pch.h" /Fp"WIN32\CRYPTLIB\DEBUG\CRYPTLIB.PCH" /Fo"WIN32\CRYPTLIB\DEBUG\\" /Fd"WIN32\CRYPTLIB\DEBUG\VC120.PDB" /Gd /TP /analyze- D:\USERS\USER-PC\DOCUMENTS\VISUAL STUDIO 2013\PROJECTS\YEAR2(2017)\CRYPTOPP565\HW17\CRYPTOPP565\RW.CPP
^D:\USERS\USER-PC\DOCUMENTS\VISUAL STUDIO 2013\PROJECTS\YEAR2(2017)\CRYPTOPP565\HW17\CRYPTOPP565\SAFER.CPP
/c /Zi /nologo /W4 /WX- /Od /Oi /Oy- /D USE_PRECOMPILED_HEADERS /Gm- /EHsc /RTC1 /MTd /GS /arch:SSE2 /fp:precise /Zc:wchar_t /Zc:forScope /Yu"pch.h" /Fp"WIN32\CRYPTLIB\DEBUG\CRYPTLIB.PCH" /Fo"WIN32\CRYPTLIB\DEBUG\\" /Fd"WIN32\CRYPTLIB\DEBUG\VC120.PDB" /Gd /TP /analyze- D:\USERS\USER-PC\DOCUMENTS\VISUAL STUDIO 2013\PROJECTS\YEAR2(2017)\CRYPTOPP565\HW17\CRYPTOPP565\SAFER.CPP
^D:\USERS\USER-PC\DOCUMENTS\VISUAL STUDIO 2013\PROJECTS\YEAR2(2017)\CRYPTOPP565\HW17\CRYPTOPP565\SALSA.CPP
/c /Zi /nologo /W4 /WX- /Od /Oi /Oy- /D USE_PRECOMPILED_HEADERS /Gm- /EHsc /RTC1 /MTd /GS /arch:SSE2 /fp:precise /Zc:wchar_t /Zc:forScope /Yu"pch.h" /Fp"WIN32\CRYPTLIB\DEBUG\CRYPTLIB.PCH" /Fo"WIN32\CRYPTLIB\DEBUG\\" /Fd"WIN32\CRYPTLIB\DEBUG\VC120.PDB" /Gd /TP /analyze- D:\USERS\USER-PC\DOCUMENTS\VISUAL STUDIO 2013\PROJECTS\YEAR2(2017)\CRYPTOPP565\HW17\CRYPTOPP565\SALSA.CPP
^D:\USERS\USER-PC\DOCUMENTS\VISUAL STUDIO 2013\PROJECTS\YEAR2(2017)\CRYPTOPP565\HW17\CRYPTOPP565\SEAL.CPP
/c /Zi /nologo /W4 /WX- /Od /Oi /Oy- /D USE_PRECOMPILED_HEADERS /Gm- /EHsc /RTC1 /MTd /GS /arch:SSE2 /fp:precise /Zc:wchar_t /Zc:forScope /Yu"pch.h" /Fp"WIN32\CRYPTLIB\DEBUG\CRYPTLIB.PCH" /Fo"WIN32\CRYPTLIB\DEBUG\\" /Fd"WIN32\CRYPTLIB\DEBUG\VC120.PDB" /Gd /TP /analyze- D:\USERS\USER-PC\DOCUMENTS\VISUAL STUDIO 2013\PROJECTS\YEAR2(2017)\CRYPTOPP565\HW17\CRYPTOPP565\SEAL.CPP
^D:\USERS\USER-PC\DOCUMENTS\VISUAL STUDIO 2013\PROJECTS\YEAR2(2017)\CRYPTOPP565\HW17\CRYPTOPP565\SEED.CPP
/c /Zi /nologo /W4 /WX- /Od /Oi /Oy- /D USE_PRECOMPILED_HEADERS /Gm- /EHsc /RTC1 /MTd /GS /arch:SSE2 /fp:precise /Zc:wchar_t /Zc:forScope /Yu"pch.h" /Fp"WIN32\CRYPTLIB\DEBUG\CRYPTLIB.PCH" /Fo"WIN32\CRYPTLIB\DEBUG\\" /Fd"WIN32\CRYPTLIB\DEBUG\VC120.PDB" /Gd /TP /analyze- D:\USERS\USER-PC\DOCUMENTS\VISUAL STUDIO 2013\PROJECTS\YEAR2(2017)\CRYPTOPP565\HW17\CRYPTOPP565\SEED.CPP
^D:\USERS\USER-PC\DOCUMENTS\VISUAL STUDIO 2013\PROJECTS\YEAR2(2017)\CRYPTOPP565\HW17\CRYPTOPP565\SERPENT.CPP
/c /Zi /nologo /W4 /WX- /Od /Oi /Oy- /D USE_PRECOMPILED_HEADERS /Gm- /EHsc /RTC1 /MTd /GS /arch:SSE2 /fp:precise /Zc:wchar_t /Zc:forScope /Yu"pch.h" /Fp"WIN32\CRYPTLIB\DEBUG\CRYPTLIB.PCH" /Fo"WIN32\CRYPTLIB\DEBUG\\" /Fd"WIN32\CRYPTLIB\DEBUG\VC120.PDB" /Gd /TP /analyze- D:\USERS\USER-PC\DOCUMENTS\VISUAL STUDIO 2013\PROJECTS\YEAR2(2017)\CRYPTOPP565\HW17\CRYPTOPP565\SERPENT.CPP
^D:\USERS\USER-PC\DOCUMENTS\VISUAL STUDIO 2013\PROJECTS\YEAR2(2017)\CRYPTOPP565\HW17\CRYPTOPP565\SHA.CPP
/c /Zi /nologo /W4 /WX- /Od /Oi /Oy- /D USE_PRECOMPILED_HEADERS /Gm- /EHsc /RTC1 /MTd /GS /arch:SSE2 /fp:precise /Zc:wchar_t /Zc:forScope /Yu"pch.h" /Fp"WIN32\CRYPTLIB\DEBUG\CRYPTLIB.PCH" /Fo"WIN32\CRYPTLIB\DEBUG\\" /Fd"WIN32\CRYPTLIB\DEBUG\VC120.PDB" /Gd /TP /analyze- D:\USERS\USER-PC\DOCUMENTS\VISUAL STUDIO 2013\PROJECTS\YEAR2(2017)\CRYPTOPP565\HW17\CRYPTOPP565\SHA.CPP
^D:\USERS\USER-PC\DOCUMENTS\VISUAL STUDIO 2013\PROJECTS\YEAR2(2017)\CRYPTOPP565\HW17\CRYPTOPP565\SHA3.CPP
/c /Zi /nologo /W4 /WX- /Od /Oi /Oy- /D USE_PRECOMPILED_HEADERS /Gm- /EHsc /RTC1 /MTd /GS /arch:SSE2 /fp:precise /Zc:wchar_t /Zc:forScope /Yu"pch.h" /Fp"WIN32\CRYPTLIB\DEBUG\CRYPTLIB.PCH" /Fo"WIN32\CRYPTLIB\DEBUG\\" /Fd"WIN32\CRYPTLIB\DEBUG\VC120.PDB" /Gd /TP /analyze- D:\USERS\USER-PC\DOCUMENTS\VISUAL STUDIO 2013\PROJECTS\YEAR2(2017)\CRYPTOPP565\HW17\CRYPTOPP565\SHA3.CPP
^D:\USERS\USER-PC\DOCUMENTS\VISUAL STUDIO 2013\PROJECTS\YEAR2(2017)\CRYPTOPP565\HW17\CRYPTOPP565\SHACAL2.CPP
/c /Zi /nologo /W4 /WX- /Od /Oi /Oy- /D USE_PRECOMPILED_HEADERS /Gm- /EHsc /RTC1 /MTd /GS /arch:SSE2 /fp:precise /Zc:wchar_t /Zc:forScope /Yu"pch.h" /Fp"WIN32\CRYPTLIB\DEBUG\CRYPTLIB.PCH" /Fo"WIN32\CRYPTLIB\DEBUG\\" /Fd"WIN32\CRYPTLIB\DEBUG\VC120.PDB" /Gd /TP /analyze- D:\USERS\USER-PC\DOCUMENTS\VISUAL STUDIO 2013\PROJECTS\YEAR2(2017)\CRYPTOPP565\HW17\CRYPTOPP565\SHACAL2.CPP
^D:\USERS\USER-PC\DOCUMENTS\VISUAL STUDIO 2013\PROJECTS\YEAR2(2017)\CRYPTOPP565\HW17\CRYPTOPP565\SHARK.CPP
/c /Zi /nologo /W4 /WX- /Od /Oi /Oy- /D USE_PRECOMPILED_HEADERS /Gm- /EHsc /RTC1 /MTd /GS /arch:SSE2 /fp:precise /Zc:wchar_t /Zc:forScope /Yu"pch.h" /Fp"WIN32\CRYPTLIB\DEBUG\CRYPTLIB.PCH" /Fo"WIN32\CRYPTLIB\DEBUG\\" /Fd"WIN32\CRYPTLIB\DEBUG\VC120.PDB" /Gd /TP /analyze- D:\USERS\USER-PC\DOCUMENTS\VISUAL STUDIO 2013\PROJECTS\YEAR2(2017)\CRYPTOPP565\HW17\CRYPTOPP565\SHARK.CPP
^D:\USERS\USER-PC\DOCUMENTS\VISUAL STUDIO 2013\PROJECTS\YEAR2(2017)\CRYPTOPP565\HW17\CRYPTOPP565\SHARKBOX.CPP
/c /Zi /nologo /W4 /WX- /Od /Oi /Oy- /D USE_PRECOMPILED_HEADERS /Gm- /EHsc /RTC1 /MTd /GS /arch:SSE2 /fp:precise /Zc:wchar_t /Zc:forScope /Yu"pch.h" /Fp"WIN32\CRYPTLIB\DEBUG\CRYPTLIB.PCH" /Fo"WIN32\CRYPTLIB\DEBUG\\" /Fd"WIN32\CRYPTLIB\DEBUG\VC120.PDB" /Gd /TP /analyze- D:\USERS\USER-PC\DOCUMENTS\VISUAL STUDIO 2013\PROJECTS\YEAR2(2017)\CRYPTOPP565\HW17\CRYPTOPP565\SHARKBOX.CPP
^D:\USERS\USER-PC\DOCUMENTS\VISUAL STUDIO 2013\PROJECTS\YEAR2(2017)\CRYPTOPP565\HW17\CRYPTOPP565\SIMPLE.CPP
/c /Zi /nologo /W4 /WX- /Od /Oi /Oy- /D USE_PRECOMPILED_HEADERS /Gm- /EHsc /RTC1 /MTd /GS /arch:SSE2 /fp:precise /Zc:wchar_t /Zc:forScope /Yu"pch.h" /Fp"WIN32\CRYPTLIB\DEBUG\CRYPTLIB.PCH" /Fo"WIN32\CRYPTLIB\DEBUG\\" /Fd"WIN32\CRYPTLIB\DEBUG\VC120.PDB" /Gd /TP /analyze- D:\USERS\USER-PC\DOCUMENTS\VISUAL STUDIO 2013\PROJECTS\YEAR2(2017)\CRYPTOPP565\HW17\CRYPTOPP565\SIMPLE.CPP
^D:\USERS\USER-PC\DOCUMENTS\VISUAL STUDIO 2013\PROJECTS\YEAR2(2017)\CRYPTOPP565\HW17\CRYPTOPP565\SKIPJACK.CPP
/c /Zi /nologo /W4 /WX- /Od /Oi /Oy- /D USE_PRECOMPILED_HEADERS /Gm- /EHsc /RTC1 /MTd /GS /arch:SSE2 /fp:precise /Zc:wchar_t /Zc:forScope /Yu"pch.h" /Fp"WIN32\CRYPTLIB\DEBUG\CRYPTLIB.PCH" /Fo"WIN32\CRYPTLIB\DEBUG\\" /Fd"WIN32\CRYPTLIB\DEBUG\VC120.PDB" /Gd /TP /analyze- D:\USERS\USER-PC\DOCUMENTS\VISUAL STUDIO 2013\PROJECTS\YEAR2(2017)\CRYPTOPP565\HW17\CRYPTOPP565\SKIPJACK.CPP
^D:\USERS\USER-PC\DOCUMENTS\VISUAL STUDIO 2013\PROJECTS\YEAR2(2017)\CRYPTOPP565\HW17\CRYPTOPP565\SOCKETFT.CPP
/c /Zi /nologo /W4 /WX- /Od /Oi /Oy- /D USE_PRECOMPILED_HEADERS /Gm- /EHsc /RTC1 /MTd /GS /arch:SSE2 /fp:precise /Zc:wchar_t /Zc:forScope /Yu"pch.h" /Fp"WIN32\CRYPTLIB\DEBUG\CRYPTLIB.PCH" /Fo"WIN32\CRYPTLIB\DEBUG\\" /Fd"WIN32\CRYPTLIB\DEBUG\VC120.PDB" /Gd /TP /analyze- D:\USERS\USER-PC\DOCUMENTS\VISUAL STUDIO 2013\PROJECTS\YEAR2(2017)\CRYPTOPP565\HW17\CRYPTOPP565\SOCKETFT.CPP
^D:\USERS\USER-PC\DOCUMENTS\VISUAL STUDIO 2013\PROJECTS\YEAR2(2017)\CRYPTOPP565\HW17\CRYPTOPP565\SOSEMANUK.CPP
/c /Zi /nologo /W4 /WX- /Od /Oi /Oy- /D USE_PRECOMPILED_HEADERS /Gm- /EHsc /RTC1 /MTd /GS /arch:SSE2 /fp:precise /Zc:wchar_t /Zc:forScope /Yu"pch.h" /Fp"WIN32\CRYPTLIB\DEBUG\CRYPTLIB.PCH" /Fo"WIN32\CRYPTLIB\DEBUG\\" /Fd"WIN32\CRYPTLIB\DEBUG\VC120.PDB" /Gd /TP /analyze- D:\USERS\USER-PC\DOCUMENTS\VISUAL STUDIO 2013\PROJECTS\YEAR2(2017)\CRYPTOPP565\HW17\CRYPTOPP565\SOSEMANUK.CPP
^D:\USERS\USER-PC\DOCUMENTS\VISUAL STUDIO 2013\PROJECTS\YEAR2(2017)\CRYPTOPP565\HW17\CRYPTOPP565\SQUARE.CPP
/c /Zi /nologo /W4 /WX- /Od /Oi /Oy- /D USE_PRECOMPILED_HEADERS /Gm- /EHsc /RTC1 /MTd /GS /arch:SSE2 /fp:precise /Zc:wchar_t /Zc:forScope /Yu"pch.h" /Fp"WIN32\CRYPTLIB\DEBUG\CRYPTLIB.PCH" /Fo"WIN32\CRYPTLIB\DEBUG\\" /Fd"WIN32\CRYPTLIB\DEBUG\VC120.PDB" /Gd /TP /analyze- D:\USERS\USER-PC\DOCUMENTS\VISUAL STUDIO 2013\PROJECTS\YEAR2(2017)\CRYPTOPP565\HW17\CRYPTOPP565\SQUARE.CPP
^D:\USERS\USER-PC\DOCUMENTS\VISUAL STUDIO 2013\PROJECTS\YEAR2(2017)\CRYPTOPP565\HW17\CRYPTOPP565\SQUARETB.CPP
/c /Zi /nologo /W4 /WX- /Od /Oi /Oy- /D USE_PRECOMPILED_HEADERS /Gm- /EHsc /RTC1 /MTd /GS /arch:SSE2 /fp:precise /Zc:wchar_t /Zc:forScope /Yu"pch.h" /Fp"WIN32\CRYPTLIB\DEBUG\CRYPTLIB.PCH" /Fo"WIN32\CRYPTLIB\DEBUG\\" /Fd"WIN32\CRYPTLIB\DEBUG\VC120.PDB" /Gd /TP /analyze- D:\USERS\USER-PC\DOCUMENTS\VISUAL STUDIO 2013\PROJECTS\YEAR2(2017)\CRYPTOPP565\HW17\CRYPTOPP565\SQUARETB.CPP
^D:\USERS\USER-PC\DOCUMENTS\VISUAL STUDIO 2013\PROJECTS\YEAR2(2017)\CRYPTOPP565\HW17\CRYPTOPP565\STRCIPHR.CPP
/c /Zi /nologo /W4 /WX- /Od /Oi /Oy- /D USE_PRECOMPILED_HEADERS /Gm- /EHsc /RTC1 /MTd /GS /arch:SSE2 /fp:precise /Zc:wchar_t /Zc:forScope /Yu"pch.h" /Fp"WIN32\CRYPTLIB\DEBUG\CRYPTLIB.PCH" /Fo"WIN32\CRYPTLIB\DEBUG\\" /Fd"WIN32\CRYPTLIB\DEBUG\VC120.PDB" /Gd /TP /analyze- D:\USERS\USER-PC\DOCUMENTS\VISUAL STUDIO 2013\PROJECTS\YEAR2(2017)\CRYPTOPP565\HW17\CRYPTOPP565\STRCIPHR.CPP
^D:\USERS\USER-PC\DOCUMENTS\VISUAL STUDIO 2013\PROJECTS\YEAR2(2017)\CRYPTOPP565\HW17\CRYPTOPP565\TEA.CPP
/c /Zi /nologo /W4 /WX- /Od /Oi /Oy- /D USE_PRECOMPILED_HEADERS /Gm- /EHsc /RTC1 /MTd /GS /arch:SSE2 /fp:precise /Zc:wchar_t /Zc:forScope /Yu"pch.h" /Fp"WIN32\CRYPTLIB\DEBUG\CRYPTLIB.PCH" /Fo"WIN32\CRYPTLIB\DEBUG\\" /Fd"WIN32\CRYPTLIB\DEBUG\VC120.PDB" /Gd /TP /analyze- D:\USERS\USER-PC\DOCUMENTS\VISUAL STUDIO 2013\PROJECTS\YEAR2(2017)\CRYPTOPP565\HW17\CRYPTOPP565\TEA.CPP
^D:\USERS\USER-PC\DOCUMENTS\VISUAL STUDIO 2013\PROJECTS\YEAR2(2017)\CRYPTOPP565\HW17\CRYPTOPP565\TFTABLES.CPP
/c /Zi /nologo /W4 /WX- /Od /Oi /Oy- /D USE_PRECOMPILED_HEADERS /Gm- /EHsc /RTC1 /MTd /GS /arch:SSE2 /fp:precise /Zc:wchar_t /Zc:forScope /Yu"pch.h" /Fp"WIN32\CRYPTLIB\DEBUG\CRYPTLIB.PCH" /Fo"WIN32\CRYPTLIB\DEBUG\\" /Fd"WIN32\CRYPTLIB\DEBUG\VC120.PDB" /Gd /TP /analyze- D:\USERS\USER-PC\DOCUMENTS\VISUAL STUDIO 2013\PROJECTS\YEAR2(2017)\CRYPTOPP565\HW17\CRYPTOPP565\TFTABLES.CPP
^D:\USERS\USER-PC\DOCUMENTS\VISUAL STUDIO 2013\PROJECTS\YEAR2(2017)\CRYPTOPP565\HW17\CRYPTOPP565\TIGER.CPP
/c /Zi /nologo /W4 /WX- /Od /Oi /Oy- /D USE_PRECOMPILED_HEADERS /Gm- /EHsc /RTC1 /MTd /GS /arch:SSE2 /fp:precise /Zc:wchar_t /Zc:forScope /Yu"pch.h" /Fp"WIN32\CRYPTLIB\DEBUG\CRYPTLIB.PCH" /Fo"WIN32\CRYPTLIB\DEBUG\\" /Fd"WIN32\CRYPTLIB\DEBUG\VC120.PDB" /Gd /TP /analyze- D:\USERS\USER-PC\DOCUMENTS\VISUAL STUDIO 2013\PROJECTS\YEAR2(2017)\CRYPTOPP565\HW17\CRYPTOPP565\TIGER.CPP
^D:\USERS\USER-PC\DOCUMENTS\VISUAL STUDIO 2013\PROJECTS\YEAR2(2017)\CRYPTOPP565\HW17\CRYPTOPP565\TIGERTAB.CPP
/c /Zi /nologo /W4 /WX- /Od /Oi /Oy- /D USE_PRECOMPILED_HEADERS /Gm- /EHsc /RTC1 /MTd /GS /arch:SSE2 /fp:precise /Zc:wchar_t /Zc:forScope /Yu"pch.h" /Fp"WIN32\CRYPTLIB\DEBUG\CRYPTLIB.PCH" /Fo"WIN32\CRYPTLIB\DEBUG\\" /Fd"WIN32\CRYPTLIB\DEBUG\VC120.PDB" /Gd /TP /analyze- D:\USERS\USER-PC\DOCUMENTS\VISUAL STUDIO 2013\PROJECTS\YEAR2(2017)\CRYPTOPP565\HW17\CRYPTOPP565\TIGERTAB.CPP
^D:\USERS\USER-PC\DOCUMENTS\VISUAL STUDIO 2013\PROJECTS\YEAR2(2017)\CRYPTOPP565\HW17\CRYPTOPP565\TRDLOCAL.CPP
/c /Zi /nologo /W4 /WX- /Od /Oi /Oy- /D USE_PRECOMPILED_HEADERS /Gm- /EHsc /RTC1 /MTd /GS /arch:SSE2 /fp:precise /Zc:wchar_t /Zc:forScope /Yu"pch.h" /Fp"WIN32\CRYPTLIB\DEBUG\CRYPTLIB.PCH" /Fo"WIN32\CRYPTLIB\DEBUG\\" /Fd"WIN32\CRYPTLIB\DEBUG\VC120.PDB" /Gd /TP /analyze- D:\USERS\USER-PC\DOCUMENTS\VISUAL STUDIO 2013\PROJECTS\YEAR2(2017)\CRYPTOPP565\HW17\CRYPTOPP565\TRDLOCAL.CPP
^D:\USERS\USER-PC\DOCUMENTS\VISUAL STUDIO 2013\PROJECTS\YEAR2(2017)\CRYPTOPP565\HW17\CRYPTOPP565\TTMAC.CPP
/c /Zi /nologo /W4 /WX- /Od /Oi /Oy- /D USE_PRECOMPILED_HEADERS /Gm- /EHsc /RTC1 /MTd /GS /arch:SSE2 /fp:precise /Zc:wchar_t /Zc:forScope /Yu"pch.h" /Fp"WIN32\CRYPTLIB\DEBUG\CRYPTLIB.PCH" /Fo"WIN32\CRYPTLIB\DEBUG\\" /Fd"WIN32\CRYPTLIB\DEBUG\VC120.PDB" /Gd /TP /analyze- D:\USERS\USER-PC\DOCUMENTS\VISUAL STUDIO 2013\PROJECTS\YEAR2(2017)\CRYPTOPP565\HW17\CRYPTOPP565\TTMAC.CPP
^D:\USERS\USER-PC\DOCUMENTS\VISUAL STUDIO 2013\PROJECTS\YEAR2(2017)\CRYPTOPP565\HW17\CRYPTOPP565\TWOFISH.CPP
/c /Zi /nologo /W4 /WX- /Od /Oi /Oy- /D USE_PRECOMPILED_HEADERS /Gm- /EHsc /RTC1 /MTd /GS /arch:SSE2 /fp:precise /Zc:wchar_t /Zc:forScope /Yu"pch.h" /Fp"WIN32\CRYPTLIB\DEBUG\CRYPTLIB.PCH" /Fo"WIN32\CRYPTLIB\DEBUG\\" /Fd"WIN32\CRYPTLIB\DEBUG\VC120.PDB" /Gd /TP /analyze- D:\USERS\USER-PC\DOCUMENTS\VISUAL STUDIO 2013\PROJECTS\YEAR2(2017)\CRYPTOPP565\HW17\CRYPTOPP565\TWOFISH.CPP
^D:\USERS\USER-PC\DOCUMENTS\VISUAL STUDIO 2013\PROJECTS\YEAR2(2017)\CRYPTOPP565\HW17\CRYPTOPP565\VMAC.CPP
/c /Zi /nologo /W4 /WX- /Od /Oi /Oy- /D USE_PRECOMPILED_HEADERS /Gm- /EHsc /RTC1 /MTd /GS /arch:SSE2 /fp:precise /Zc:wchar_t /Zc:forScope /Yu"pch.h" /Fp"WIN32\CRYPTLIB\DEBUG\CRYPTLIB.PCH" /Fo"WIN32\CRYPTLIB\DEBUG\\" /Fd"WIN32\CRYPTLIB\DEBUG\VC120.PDB" /Gd /TP /analyze- D:\USERS\USER-PC\DOCUMENTS\VISUAL STUDIO 2013\PROJECTS\YEAR2(2017)\CRYPTOPP565\HW17\CRYPTOPP565\VMAC.CPP
^D:\USERS\USER-PC\DOCUMENTS\VISUAL STUDIO 2013\PROJECTS\YEAR2(2017)\CRYPTOPP565\HW17\CRYPTOPP565\WAIT.CPP
/c /Zi /nologo /W4 /WX- /Od /Oi /Oy- /D USE_PRECOMPILED_HEADERS /Gm- /EHsc /RTC1 /MTd /GS /arch:SSE2 /fp:precise /Zc:wchar_t /Zc:forScope /Yu"pch.h" /Fp"WIN32\CRYPTLIB\DEBUG\CRYPTLIB.PCH" /Fo"WIN32\CRYPTLIB\DEBUG\\" /Fd"WIN32\CRYPTLIB\DEBUG\VC120.PDB" /Gd /TP /analyze- D:\USERS\USER-PC\DOCUMENTS\VISUAL STUDIO 2013\PROJECTS\YEAR2(2017)\CRYPTOPP565\HW17\CRYPTOPP565\WAIT.CPP
^D:\USERS\USER-PC\DOCUMENTS\VISUAL STUDIO 2013\PROJECTS\YEAR2(2017)\CRYPTOPP565\HW17\CRYPTOPP565\WAKE.CPP
/c /Zi /nologo /W4 /WX- /Od /Oi /Oy- /D USE_PRECOMPILED_HEADERS /Gm- /EHsc /RTC1 /MTd /GS /arch:SSE2 /fp:precise /Zc:wchar_t /Zc:forScope /Yu"pch.h" /Fp"WIN32\CRYPTLIB\DEBUG\CRYPTLIB.PCH" /Fo"WIN32\CRYPTLIB\DEBUG\\" /Fd"WIN32\CRYPTLIB\DEBUG\VC120.PDB" /Gd /TP /analyze- D:\USERS\USER-PC\DOCUMENTS\VISUAL STUDIO 2013\PROJECTS\YEAR2(2017)\CRYPTOPP565\HW17\CRYPTOPP565\WAKE.CPP
^D:\USERS\USER-PC\DOCUMENTS\VISUAL STUDIO 2013\PROJECTS\YEAR2(2017)\CRYPTOPP565\HW17\CRYPTOPP565\WHRLPOOL.CPP
/c /Zi /nologo /W4 /WX- /Od /Oi /Oy- /D USE_PRECOMPILED_HEADERS /Gm- /EHsc /RTC1 /MTd /GS /arch:SSE2 /fp:precise /Zc:wchar_t /Zc:forScope /Yu"pch.h" /Fp"WIN32\CRYPTLIB\DEBUG\CRYPTLIB.PCH" /Fo"WIN32\CRYPTLIB\DEBUG\\" /Fd"WIN32\CRYPTLIB\DEBUG\VC120.PDB" /Gd /TP /analyze- D:\USERS\USER-PC\DOCUMENTS\VISUAL STUDIO 2013\PROJECTS\YEAR2(2017)\CRYPTOPP565\HW17\CRYPTOPP565\WHRLPOOL.CPP
^D:\USERS\USER-PC\DOCUMENTS\VISUAL STUDIO 2013\PROJECTS\YEAR2(2017)\CRYPTOPP565\HW17\CRYPTOPP565\WINPIPES.CPP
/c /Zi /nologo /W4 /WX- /Od /Oi /Oy- /D USE_PRECOMPILED_HEADERS /Gm- /EHsc /RTC1 /MTd /GS /arch:SSE2 /fp:precise /Zc:wchar_t /Zc:forScope /Yu"pch.h" /Fp"WIN32\CRYPTLIB\DEBUG\CRYPTLIB.PCH" /Fo"WIN32\CRYPTLIB\DEBUG\\" /Fd"WIN32\CRYPTLIB\DEBUG\VC120.PDB" /Gd /TP /analyze- D:\USERS\USER-PC\DOCUMENTS\VISUAL STUDIO 2013\PROJECTS\YEAR2(2017)\CRYPTOPP565\HW17\CRYPTOPP565\WINPIPES.CPP
^D:\USERS\USER-PC\DOCUMENTS\VISUAL STUDIO 2013\PROJECTS\YEAR2(2017)\CRYPTOPP565\HW17\CRYPTOPP565\XTR.CPP
/c /Zi /nologo /W4 /WX- /Od /Oi /Oy- /D USE_PRECOMPILED_HEADERS /Gm- /EHsc /RTC1 /MTd /GS /arch:SSE2 /fp:precise /Zc:wchar_t /Zc:forScope /Yu"pch.h" /Fp"WIN32\CRYPTLIB\DEBUG\CRYPTLIB.PCH" /Fo"WIN32\CRYPTLIB\DEBUG\\" /Fd"WIN32\CRYPTLIB\DEBUG\VC120.PDB" /Gd /TP /analyze- D:\USERS\USER-PC\DOCUMENTS\VISUAL STUDIO 2013\PROJECTS\YEAR2(2017)\CRYPTOPP565\HW17\CRYPTOPP565\XTR.CPP
^D:\USERS\USER-PC\DOCUMENTS\VISUAL STUDIO 2013\PROJECTS\YEAR2(2017)\CRYPTOPP565\HW17\CRYPTOPP565\XTRCRYPT.CPP
/c /Zi /nologo /W4 /WX- /Od /Oi /Oy- /D USE_PRECOMPILED_HEADERS /Gm- /EHsc /RTC1 /MTd /GS /arch:SSE2 /fp:precise /Zc:wchar_t /Zc:forScope /Yu"pch.h" /Fp"WIN32\CRYPTLIB\DEBUG\CRYPTLIB.PCH" /Fo"WIN32\CRYPTLIB\DEBUG\\" /Fd"WIN32\CRYPTLIB\DEBUG\VC120.PDB" /Gd /TP /analyze- D:\USERS\USER-PC\DOCUMENTS\VISUAL STUDIO 2013\PROJECTS\YEAR2(2017)\CRYPTOPP565\HW17\CRYPTOPP565\XTRCRYPT.CPP
^D:\USERS\USER-PC\DOCUMENTS\VISUAL STUDIO 2013\PROJECTS\YEAR2(2017)\CRYPTOPP565\HW17\CRYPTOPP565\ZDEFLATE.CPP
/c /Zi /nologo /W4 /WX- /Od /Oi /Oy- /D USE_PRECOMPILED_HEADERS /Gm- /EHsc /RTC1 /MTd /GS /arch:SSE2 /fp:precise /Zc:wchar_t /Zc:forScope /Yu"pch.h" /Fp"WIN32\CRYPTLIB\DEBUG\CRYPTLIB.PCH" /Fo"WIN32\CRYPTLIB\DEBUG\\" /Fd"WIN32\CRYPTLIB\DEBUG\VC120.PDB" /Gd /TP /analyze- D:\USERS\USER-PC\DOCUMENTS\VISUAL STUDIO 2013\PROJECTS\YEAR2(2017)\CRYPTOPP565\HW17\CRYPTOPP565\ZDEFLATE.CPP
^D:\USERS\USER-PC\DOCUMENTS\VISUAL STUDIO 2013\PROJECTS\YEAR2(2017)\CRYPTOPP565\HW17\CRYPTOPP565\ZINFLATE.CPP
/c /Zi /nologo /W4 /WX- /Od /Oi /Oy- /D USE_PRECOMPILED_HEADERS /Gm- /EHsc /RTC1 /MTd /GS /arch:SSE2 /fp:precise /Zc:wchar_t /Zc:forScope /Yu"pch.h" /Fp"WIN32\CRYPTLIB\DEBUG\CRYPTLIB.PCH" /Fo"WIN32\CRYPTLIB\DEBUG\\" /Fd"WIN32\CRYPTLIB\DEBUG\VC120.PDB" /Gd /TP /analyze- D:\USERS\USER-PC\DOCUMENTS\VISUAL STUDIO 2013\PROJECTS\YEAR2(2017)\CRYPTOPP565\HW17\CRYPTOPP565\ZINFLATE.CPP
^D:\USERS\USER-PC\DOCUMENTS\VISUAL STUDIO 2013\PROJECTS\YEAR2(2017)\CRYPTOPP565\HW17\CRYPTOPP565\ZLIB.CPP
/c /Zi /nologo /W4 /WX- /Od /Oi /Oy- /D USE_PRECOMPILED_HEADERS /Gm- /EHsc /RTC1 /MTd /GS /arch:SSE2 /fp:precise /Zc:wchar_t /Zc:forScope /Yu"pch.h" /Fp"WIN32\CRYPTLIB\DEBUG\CRYPTLIB.PCH" /Fo"WIN32\CRYPTLIB\DEBUG\\" /Fd"WIN32\CRYPTLIB\DEBUG\VC120.PDB" /Gd /TP /analyze- D:\USERS\USER-PC\DOCUMENTS\VISUAL STUDIO 2013\PROJECTS\YEAR2(2017)\CRYPTOPP565\HW17\CRYPTOPP565\ZLIB.CPP
^D:\USERS\USER-PC\DOCUMENTS\VISUAL STUDIO 2013\PROJECTS\YEAR2(2017)\CRYPTOPP565\HW17\CRYPTOPP565\DLL.CPP
/c /Zi /nologo /W4 /WX- /Od /Oi /Oy- /D USE_PRECOMPILED_HEADERS /Gm- /EHsc /RTC1 /MTd /GS /arch:SSE2 /fp:precise /Zc:wchar_t /Zc:forScope /Fo"WIN32\CRYPTLIB\DEBUG\\" /Fd"WIN32\CRYPTLIB\DEBUG\VC120.PDB" /Gd /TP /analyze- D:\USERS\USER-PC\DOCUMENTS\VISUAL STUDIO 2013\PROJECTS\YEAR2(2017)\CRYPTOPP565\HW17\CRYPTOPP565\DLL.CPP
^D:\USERS\USER-PC\DOCUMENTS\VISUAL STUDIO 2013\PROJECTS\YEAR2(2017)\CRYPTOPP565\HW17\CRYPTOPP565\ITERHASH.CPP
/c /Zi /nologo /W4 /WX- /Od /Oi /Oy- /D USE_PRECOMPILED_HEADERS /Gm- /EHsc /RTC1 /MTd /GS /arch:SSE2 /fp:precise /Zc:wchar_t /Zc:forScope /Fo"WIN32\CRYPTLIB\DEBUG\\" /Fd"WIN32\CRYPTLIB\DEBUG\VC120.PDB" /Gd /TP /analyze- D:\USERS\USER-PC\DOCUMENTS\VISUAL STUDIO 2013\PROJECTS\YEAR2(2017)\CRYPTOPP565\HW17\CRYPTOPP565\ITERHASH.CPP
