^D:\USERS\USER-PC\DOCUMENTS\VISUAL STUDIO 2013\PROJECTS\YEAR2(2017)\CRYPTOPP565\HW17\CRYPTOPP565\PCH.CPP
D:\USERS\USER-PC\DOCUMENTS\VISUAL STUDIO 2013\PROJECTS\YEAR2(2017)\CRYPTOPP565\HW17\CRYPTOPP565\WIN32\CRYPTLIB\DEBUG\CRYPTLIB.PCH
D:\USERS\USER-PC\DOCUMENTS\VISUAL STUDIO 2013\PROJECTS\YEAR2(2017)\CRYPTOPP565\HW17\CRYPTOPP565\WIN32\CRYPTLIB\DEBUG\VC120.PDB
D:\USERS\USER-PC\DOCUMENTS\VISUAL STUDIO 2013\PROJECTS\YEAR2(2017)\CRYPTOPP565\HW17\CRYPTOPP565\WIN32\CRYPTLIB\DEBUG\PCH.OBJ
^D:\USERS\USER-PC\DOCUMENTS\VISUAL STUDIO 2013\PROJECTS\YEAR2(2017)\CRYPTOPP565\HW17\CRYPTOPP565\3WAY.CPP|D:\USERS\USER-PC\DOCUMENTS\VISUAL STUDIO 2013\PROJECTS\YEAR2(2017)\CRYPTOPP565\HW17\CRYPTOPP565\ADLER32.CPP|D:\USERS\USER-PC\DOCUMENTS\VISUAL STUDIO 2013\PROJECTS\YEAR2(2017)\CRYPTOPP565\HW17\CRYPTOPP565\ALGEBRA.CPP|D:\USERS\USER-PC\DOCUMENTS\VISUAL STUDIO 2013\PROJECTS\YEAR2(2017)\CRYPTOPP565\HW17\CRYPTOPP565\ALGPARAM.CPP|D:\USERS\USER-PC\DOCUMENTS\VISUAL STUDIO 2013\PROJECTS\YEAR2(2017)\CRYPTOPP565\HW17\CRYPTOPP565\ARC4.CPP|D:\USERS\USER-PC\DOCUMENTS\VISUAL STUDIO 2013\PROJECTS\YEAR2(2017)\CRYPTOPP565\HW17\CRYPTOPP565\ASN.CPP|D:\USERS\USER-PC\DOCUMENTS\VISUAL STUDIO 2013\PROJECTS\YEAR2(2017)\CRYPTOPP565\HW17\CRYPTOPP565\AUTHENC.CPP|D:\USERS\USER-PC\DOCUMENTS\VISUAL STUDIO 2013\PROJECTS\YEAR2(2017)\CRYPTOPP565\HW17\CRYPTOPP565\BASE32.CPP|D:\USERS\USER-PC\DOCUMENTS\VISUAL STUDIO 2013\PROJECTS\YEAR2(2017)\CRYPTOPP565\HW17\CRYPTOPP565\BASE64.CPP|D:\USERS\USER-PC\DOCUMENTS\VISUAL STUDIO 2013\PROJECTS\YEAR2(2017)\CRYPTOPP565\HW17\CRYPTOPP565\BASECODE.CPP|D:\USERS\USER-PC\DOCUMENTS\VISUAL STUDIO 2013\PROJECTS\YEAR2(2017)\CRYPTOPP565\HW17\CRYPTOPP565\BFINIT.CPP|D:\USERS\USER-PC\DOCUMENTS\VISUAL STUDIO 2013\PROJECTS\YEAR2(2017)\CRYPTOPP565\HW17\CRYPTOPP565\BLAKE2.CPP|D:\USERS\USER-PC\DOCUMENTS\VISUAL STUDIO 2013\PROJECTS\YEAR2(2017)\CRYPTOPP565\HW17\CRYPTOPP565\BLOWFISH.CPP|D:\USERS\USER-PC\DOCUMENTS\VISUAL STUDIO 2013\PROJECTS\YEAR2(2017)\CRYPTOPP565\HW17\CRYPTOPP565\BLUMSHUB.CPP|D:\USERS\USER-PC\DOCUMENTS\VISUAL STUDIO 2013\PROJECTS\YEAR2(2017)\CRYPTOPP565\HW17\CRYPTOPP565\CAMELLIA.CPP|D:\USERS\USER-PC\DOCUMENTS\VISUAL STUDIO 2013\PROJECTS\YEAR2(2017)\CRYPTOPP565\HW17\CRYPTOPP565\CAST.CPP|D:\USERS\USER-PC\DOCUMENTS\VISUAL STUDIO 2013\PROJECTS\YEAR2(2017)\CRYPTOPP565\HW17\CRYPTOPP565\CASTS.CPP|D:\USERS\USER-PC\DOCUMENTS\VISUAL STUDIO 2013\PROJECTS\YEAR2(2017)\CRYPTOPP565\HW17\CRYPTOPP565\CBCMAC.CPP|D:\USERS\USER-PC\DOCUMENTS\VISUAL STUDIO 2013\PROJECTS\YEAR2(2017)\CRYPTOPP565\HW17\CRYPTOPP565\CCM.CPP|D:\USERS\USER-PC\DOCUMENTS\VISUAL STUDIO 2013\PROJECTS\YEAR2(2017)\CRYPTOPP565\HW17\CRYPTOPP565\CHACHA.CPP|D:\USERS\USER-PC\DOCUMENTS\VISUAL STUDIO 2013\PROJECTS\YEAR2(2017)\CRYPTOPP565\HW17\CRYPTOPP565\CHANNELS.CPP|D:\USERS\USER-PC\DOCUMENTS\VISUAL STUDIO 2013\PROJECTS\YEAR2(2017)\CRYPTOPP565\HW17\CRYPTOPP565\CMAC.CPP|D:\USERS\USER-PC\DOCUMENTS\VISUAL STUDIO 2013\PROJECTS\YEAR2(2017)\CRYPTOPP565\HW17\CRYPTOPP565\CPU.CPP|D:\USERS\USER-PC\DOCUMENTS\VISUAL STUDIO 2013\PROJECTS\YEAR2(2017)\CRYPTOPP565\HW17\CRYPTOPP565\CRC.CPP|D:\USERS\USER-PC\DOCUMENTS\VISUAL STUDIO 2013\PROJECTS\YEAR2(2017)\CRYPTOPP565\HW17\CRYPTOPP565\CRYPTLIB.CPP|D:\USERS\USER-PC\DOCUMENTS\VISUAL STUDIO 2013\PROJECTS\YEAR2(2017)\CRYPTOPP565\HW17\CRYPTOPP565\DEFAULT.CPP|D:\USERS\USER-PC\DOCUMENTS\VISUAL STUDIO 2013\PROJECTS\YEAR2(2017)\CRYPTOPP565\HW17\CRYPTOPP565\DES.CPP|D:\USERS\USER-PC\DOCUMENTS\VISUAL STUDIO 2013\PROJECTS\YEAR2(2017)\CRYPTOPP565\HW17\CRYPTOPP565\DESSP.CPP|D:\USERS\USER-PC\DOCUMENTS\VISUAL STUDIO 2013\PROJECTS\YEAR2(2017)\CRYPTOPP565\HW17\CRYPTOPP565\DH.CPP|D:\USERS\USER-PC\DOCUMENTS\VISUAL STUDIO 2013\PROJECTS\YEAR2(2017)\CRYPTOPP565\HW17\CRYPTOPP565\DH2.CPP|D:\USERS\USER-PC\DOCUMENTS\VISUAL STUDIO 2013\PROJECTS\YEAR2(2017)\CRYPTOPP565\HW17\CRYPTOPP565\DSA.CPP|D:\USERS\USER-PC\DOCUMENTS\VISUAL STUDIO 2013\PROJECTS\YEAR2(2017)\CRYPTOPP565\HW17\CRYPTOPP565\EAX.CPP|D:\USERS\USER-PC\DOCUMENTS\VISUAL STUDIO 2013\PROJECTS\YEAR2(2017)\CRYPTOPP565\HW17\CRYPTOPP565\EC2N.CPP|D:\USERS\USER-PC\DOCUMENTS\VISUAL STUDIO 2013\PROJECTS\YEAR2(2017)\CRYPTOPP565\HW17\CRYPTOPP565\ECP.CPP|D:\USERS\USER-PC\DOCUMENTS\VISUAL STUDIO 2013\PROJECTS\YEAR2(2017)\CRYPTOPP565\HW17\CRYPTOPP565\ELGAMAL.CPP|D:\USERS\USER-PC\DOCUMENTS\VISUAL STUDIO 2013\PROJECTS\YEAR2(2017)\CRYPTOPP565\HW17\CRYPTOPP565\EMSA2.CPP|D:\USERS\USER-PC\DOCUMENTS\VISUAL STUDIO 2013\PROJECTS\YEAR2(2017)\CRYPTOPP565\HW17\CRYPTOPP565\ESIGN.CPP|D:\USERS\USER-PC\DOCUMENTS\VISUAL STUDIO 2013\PROJECTS\YEAR2(2017)\CRYPTOPP565\HW17\CRYPTOPP565\FILES.CPP|D:\USERS\USER-PC\DOCUMENTS\VISUAL STUDIO 2013\PROJECTS\YEAR2(2017)\CRYPTOPP565\HW17\CRYPTOPP565\FILTERS.CPP|D:\USERS\USER-PC\DOCUMENTS\VISUAL STUDIO 2013\PROJECTS\YEAR2(2017)\CRYPTOPP565\HW17\CRYPTOPP565\FIPS140.CPP|D:\USERS\USER-PC\DOCUMENTS\VISUAL STUDIO 2013\PROJECTS\YEAR2(2017)\CRYPTOPP565\HW17\CRYPTOPP565\FIPSTEST.CPP|D:\USERS\USER-PC\DOCUMENTS\VISUAL STUDIO 2013\PROJECTS\YEAR2(2017)\CRYPTOPP565\HW17\CRYPTOPP565\GCM.CPP|D:\USERS\USER-PC\DOCUMENTS\VISUAL STUDIO 2013\PROJECTS\YEAR2(2017)\CRYPTOPP565\HW17\CRYPTOPP565\GF256.CPP|D:\USERS\USER-PC\DOCUMENTS\VISUAL STUDIO 2013\PROJECTS\YEAR2(2017)\CRYPTOPP565\HW17\CRYPTOPP565\GF2N.CPP|D:\USERS\USER-PC\DOCUMENTS\VISUAL STUDIO 2013\PROJECTS\YEAR2(2017)\CRYPTOPP565\HW17\CRYPTOPP565\GF2_32.CPP|D:\USERS\USER-PC\DOCUMENTS\VISUAL STUDIO 2013\PROJECTS\YEAR2(2017)\CRYPTOPP565\HW17\CRYPTOPP565\GFPCRYPT.CPP|D:\USERS\USER-PC\DOCUMENTS\VISUAL STUDIO 2013\PROJECTS\YEAR2(2017)\CRYPTOPP565\HW17\CRYPTOPP565\GOST.CPP|D:\USERS\USER-PC\DOCUMENTS\VISUAL STUDIO 2013\PROJECTS\YEAR2(2017)\CRYPTOPP565\HW17\CRYPTOPP565\GZIP.CPP|D:\USERS\USER-PC\DOCUMENTS\VISUAL STUDIO 2013\PROJECTS\YEAR2(2017)\CRYPTOPP565\HW17\CRYPTOPP565\HEX.CPP|D:\USERS\USER-PC\DOCUMENTS\VISUAL STUDIO 2013\PROJECTS\YEAR2(2017)\CRYPTOPP565\HW17\CRYPTOPP565\HMAC.CPP|D:\USERS\USER-PC\DOCUMENTS\VISUAL STUDIO 2013\PROJECTS\YEAR2(2017)\CRYPTOPP565\HW17\CRYPTOPP565\HRTIMER.CPP|D:\USERS\USER-PC\DOCUMENTS\VISUAL STUDIO 2013\PROJECTS\YEAR2(2017)\CRYPTOPP565\HW17\CRYPTOPP565\IDA.CPP|D:\USERS\USER-PC\DOCUMENTS\VISUAL STUDIO 2013\PROJECTS\YEAR2(2017)\CRYPTOPP565\HW17\CRYPTOPP565\IDEA.CPP|D:\USERS\USER-PC\DOCUMENTS\VISUAL STUDIO 2013\PROJECTS\YEAR2(2017)\CRYPTOPP565\HW17\CRYPTOPP565\INTEGER.CPP|D:\USERS\USER-PC\DOCUMENTS\VISUAL STUDIO 2013\PROJECTS\YEAR2(2017)\CRYPTOPP565\HW17\CRYPTOPP565\KECCAK.CPP|D:\USERS\USER-PC\DOCUMENTS\VISUAL STUDIO 2013\PROJECTS\YEAR2(2017)\CRYPTOPP565\HW17\CRYPTOPP565\LUC.CPP|D:\USERS\USER-PC\DOCUMENTS\VISUAL STUDIO 2013\PROJECTS\YEAR2(2017)\CRYPTOPP565\HW17\CRYPTOPP565\MARS.CPP|D:\USERS\USER-PC\DOCUMENTS\VISUAL STUDIO 2013\PROJECTS\YEAR2(2017)\CRYPTOPP565\HW17\CRYPTOPP565\MARSS.CPP|D:\USERS\USER-PC\DOCUMENTS\VISUAL STUDIO 2013\PROJECTS\YEAR2(2017)\CRYPTOPP565\HW17\CRYPTOPP565\MD2.CPP|D:\USERS\USER-PC\DOCUMENTS\VISUAL STUDIO 2013\PROJECTS\YEAR2(2017)\CRYPTOPP565\HW17\CRYPTOPP565\MD4.CPP|D:\USERS\USER-PC\DOCUMENTS\VISUAL STUDIO 2013\PROJECTS\YEAR2(2017)\CRYPTOPP565\HW17\CRYPTOPP565\MD5.CPP|D:\USERS\USER-PC\DOCUMENTS\VISUAL STUDIO 2013\PROJECTS\YEAR2(2017)\CRYPTOPP565\HW17\CRYPTOPP565\MISC.CPP|D:\USERS\USER-PC\DOCUMENTS\VISUAL STUDIO 2013\PROJECTS\YEAR2(2017)\CRYPTOPP565\HW17\CRYPTOPP565\MODES.CPP|D:\USERS\USER-PC\DOCUMENTS\VISUAL STUDIO 2013\PROJECTS\YEAR2(2017)\CRYPTOPP565\HW17\CRYPTOPP565\MQUEUE.CPP|D:\USERS\USER-PC\DOCUMENTS\VISUAL STUDIO 2013\PROJECTS\YEAR2(2017)\CRYPTOPP565\HW17\CRYPTOPP565\MQV.CPP|D:\USERS\USER-PC\DOCUMENTS\VISUAL STUDIO 2013\PROJECTS\YEAR2(2017)\CRYPTOPP565\HW17\CRYPTOPP565\NBTHEORY.CPP|D:\USERS\USER-PC\DOCUMENTS\VISUAL STUDIO 2013\PROJECTS\YEAR2(2017)\CRYPTOPP565\HW17\CRYPTOPP565\NETWORK.CPP|D:\USERS\USER-PC\DOCUMENTS\VISUAL STUDIO 2013\PROJECTS\YEAR2(2017)\CRYPTOPP565\HW17\CRYPTOPP565\OAEP.CPP|D:\USERS\USER-PC\DOCUMENTS\VISUAL STUDIO 2013\PROJECTS\YEAR2(2017)\CRYPTOPP565\HW17\CRYPTOPP565\OSRNG.CPP|D:\USERS\USER-PC\DOCUMENTS\VISUAL STUDIO 2013\PROJECTS\YEAR2(2017)\CRYPTOPP565\HW17\CRYPTOPP565\PANAMA.CPP|D:\USERS\USER-PC\DOCUMENTS\VISUAL STUDIO 2013\PROJECTS\YEAR2(2017)\CRYPTOPP565\HW17\CRYPTOPP565\PKCSPAD.CPP|D:\USERS\USER-PC\DOCUMENTS\VISUAL STUDIO 2013\PROJECTS\YEAR2(2017)\CRYPTOPP565\HW17\CRYPTOPP565\POLYNOMI.CPP|D:\USERS\USER-PC\DOCUMENTS\VISUAL STUDIO 2013\PROJECTS\YEAR2(2017)\CRYPTOPP565\HW17\CRYPTOPP565\PSSR.CPP|D:\USERS\USER-PC\DOCUMENTS\VISUAL STUDIO 2013\PROJECTS\YEAR2(2017)\CRYPTOPP565\HW17\CRYPTOPP565\PUBKEY.CPP|D:\USERS\USER-PC\DOCUMENTS\VISUAL STUDIO 2013\PROJECTS\YEAR2(2017)\CRYPTOPP565\HW17\CRYPTOPP565\QUEUE.CPP|D:\USERS\USER-PC\DOCUMENTS\VISUAL STUDIO 2013\PROJECTS\YEAR2(2017)\CRYPTOPP565\HW17\CRYPTOPP565\RABIN.CPP|D:\USERS\USER-PC\DOCUMENTS\VISUAL STUDIO 2013\PROJECTS\YEAR2(2017)\CRYPTOPP565\HW17\CRYPTOPP565\RANDPOOL.CPP|D:\USERS\USER-PC\DOCUMENTS\VISUAL STUDIO 2013\PROJECTS\YEAR2(2017)\CRYPTOPP565\HW17\CRYPTOPP565\RC2.CPP|D:\USERS\USER-PC\DOCUMENTS\VISUAL STUDIO 2013\PROJECTS\YEAR2(2017)\CRYPTOPP565\HW17\CRYPTOPP565\RC5.CPP|D:\USERS\USER-PC\DOCUMENTS\VISUAL STUDIO 2013\PROJECTS\YEAR2(2017)\CRYPTOPP565\HW17\CRYPTOPP565\RC6.CPP|D:\USERS\USER-PC\DOCUMENTS\VISUAL STUDIO 2013\PROJECTS\YEAR2(2017)\CRYPTOPP565\HW17\CRYPTOPP565\RDRAND.CPP|D:\USERS\USER-PC\DOCUMENTS\VISUAL STUDIO 2013\PROJECTS\YEAR2(2017)\CRYPTOPP565\HW17\CRYPTOPP565\RDTABLES.CPP|D:\USERS\USER-PC\DOCUMENTS\VISUAL STUDIO 2013\PROJECTS\YEAR2(2017)\CRYPTOPP565\HW17\CRYPTOPP565\RIJNDAEL.CPP|D:\USERS\USER-PC\DOCUMENTS\VISUAL STUDIO 2013\PROJECTS\YEAR2(2017)\CRYPTOPP565\HW17\CRYPTOPP565\RIPEMD.CPP|D:\USERS\USER-PC\DOCUMENTS\VISUAL STUDIO 2013\PROJECTS\YEAR2(2017)\CRYPTOPP565\HW17\CRYPTOPP565\RNG.CPP|D:\USERS\USER-PC\DOCUMENTS\VISUAL STUDIO 2013\PROJECTS\YEAR2(2017)\CRYPTOPP565\HW17\CRYPTOPP565\RSA.CPP|D:\USERS\USER-PC\DOCUMENTS\VISUAL STUDIO 2013\PROJECTS\YEAR2(2017)\CRYPTOPP565\HW17\CRYPTOPP565\RW.CPP|D:\USERS\USER-PC\DOCUMENTS\VISUAL STUDIO 2013\PROJECTS\YEAR2(2017)\CRYPTOPP565\HW17\CRYPTOPP565\SAFER.CPP|D:\USERS\USER-PC\DOCUMENTS\VISUAL STUDIO 2013\PROJECTS\YEAR2(2017)\CRYPTOPP565\HW17\CRYPTOPP565\SALSA.CPP|D:\USERS\USER-PC\DOCUMENTS\VISUAL STUDIO 2013\PROJECTS\YEAR2(2017)\CRYPTOPP565\HW17\CRYPTOPP565\SEAL.CPP|D:\USERS\USER-PC\DOCUMENTS\VISUAL STUDIO 2013\PROJECTS\YEAR2(2017)\CRYPTOPP565\HW17\CRYPTOPP565\SEED.CPP|D:\USERS\USER-PC\DOCUMENTS\VISUAL STUDIO 2013\PROJECTS\YEAR2(2017)\CRYPTOPP565\HW17\CRYPTOPP565\SERPENT.CPP|D:\USERS\USER-PC\DOCUMENTS\VISUAL STUDIO 2013\PROJECTS\YEAR2(2017)\CRYPTOPP565\HW17\CRYPTOPP565\SHA.CPP|D:\USERS\USER-PC\DOCUMENTS\VISUAL STUDIO 2013\PROJECTS\YEAR2(2017)\CRYPTOPP565\HW17\CRYPTOPP565\SHA3.CPP|D:\USERS\USER-PC\DOCUMENTS\VISUAL STUDIO 2013\PROJECTS\YEAR2(2017)\CRYPTOPP565\HW17\CRYPTOPP565\SHACAL2.CPP|D:\USERS\USER-PC\DOCUMENTS\VISUAL STUDIO 2013\PROJECTS\YEAR2(2017)\CRYPTOPP565\HW17\CRYPTOPP565\SHARK.CPP|D:\USERS\USER-PC\DOCUMENTS\VISUAL STUDIO 2013\PROJECTS\YEAR2(2017)\CRYPTOPP565\HW17\CRYPTOPP565\SHARKBOX.CPP|D:\USERS\USER-PC\DOCUMENTS\VISUAL STUDIO 2013\PROJECTS\YEAR2(2017)\CRYPTOPP565\HW17\CRYPTOPP565\SIMPLE.CPP|D:\USERS\USER-PC\DOCUMENTS\VISUAL STUDIO 2013\PROJECTS\YEAR2(2017)\CRYPTOPP565\HW17\CRYPTOPP565\SKIPJACK.CPP|D:\USERS\USER-PC\DOCUMENTS\VISUAL STUDIO 2013\PROJECTS\YEAR2(2017)\CRYPTOPP565\HW17\CRYPTOPP565\SOCKETFT.CPP|D:\USERS\USER-PC\DOCUMENTS\VISUAL STUDIO 2013\PROJECTS\YEAR2(2017)\CRYPTOPP565\HW17\CRYPTOPP565\SOSEMANUK.CPP|D:\USERS\USER-PC\DOCUMENTS\VISUAL STUDIO 2013\PROJECTS\YEAR2(2017)\CRYPTOPP565\HW17\CRYPTOPP565\SQUARE.CPP|D:\USERS\USER-PC\DOCUMENTS\VISUAL STUDIO 2013\PROJECTS\YEAR2(2017)\CRYPTOPP565\HW17\CRYPTOPP565\SQUARETB.CPP|D:\USERS\USER-PC\DOCUMENTS\VISUAL STUDIO 2013\PROJECTS\YEAR2(2017)\CRYPTOPP565\HW17\CRYPTOPP565\STRCIPHR.CPP|D:\USERS\USER-PC\DOCUMENTS\VISUAL STUDIO 2013\PROJECTS\YEAR2(2017)\CRYPTOPP565\HW17\CRYPTOPP565\TEA.CPP|D:\USERS\USER-PC\DOCUMENTS\VISUAL STUDIO 2013\PROJECTS\YEAR2(2017)\CRYPTOPP565\HW17\CRYPTOPP565\TFTABLES.CPP|D:\USERS\USER-PC\DOCUMENTS\VISUAL STUDIO 2013\PROJECTS\YEAR2(2017)\CRYPTOPP565\HW17\CRYPTOPP565\TIGER.CPP|D:\USERS\USER-PC\DOCUMENTS\VISUAL STUDIO 2013\PROJECTS\YEAR2(2017)\CRYPTOPP565\HW17\CRYPTOPP565\TIGERTAB.CPP|D:\USERS\USER-PC\DOCUMENTS\VISUAL STUDIO 2013\PROJECTS\YEAR2(2017)\CRYPTOPP565\HW17\CRYPTOPP565\TRDLOCAL.CPP|D:\USERS\USER-PC\DOCUMENTS\VISUAL STUDIO 2013\PROJECTS\YEAR2(2017)\CRYPTOPP565\HW17\CRYPTOPP565\TTMAC.CPP|D:\USERS\USER-PC\DOCUMENTS\VISUAL STUDIO 2013\PROJECTS\YEAR2(2017)\CRYPTOPP565\HW17\CRYPTOPP565\TWOFISH.CPP|D:\USERS\USER-PC\DOCUMENTS\VISUAL STUDIO 2013\PROJECTS\YEAR2(2017)\CRYPTOPP565\HW17\CRYPTOPP565\VMAC.CPP|D:\USERS\USER-PC\DOCUMENTS\VISUAL STUDIO 2013\PROJECTS\YEAR2(2017)\CRYPTOPP565\HW17\CRYPTOPP565\WAIT.CPP|D:\USERS\USER-PC\DOCUMENTS\VISUAL STUDIO 2013\PROJECTS\YEAR2(2017)\CRYPTOPP565\HW17\CRYPTOPP565\WAKE.CPP|D:\USERS\USER-PC\DOCUMENTS\VISUAL STUDIO 2013\PROJECTS\YEAR2(2017)\CRYPTOPP565\HW17\CRYPTOPP565\WHRLPOOL.CPP|D:\USERS\USER-PC\DOCUMENTS\VISUAL STUDIO 2013\PROJECTS\YEAR2(2017)\CRYPTOPP565\HW17\CRYPTOPP565\WINPIPES.CPP|D:\USERS\USER-PC\DOCUMENTS\VISUAL STUDIO 2013\PROJECTS\YEAR2(2017)\CRYPTOPP565\HW17\CRYPTOPP565\XTR.CPP|D:\USERS\USER-PC\DOCUMENTS\VISUAL STUDIO 2013\PROJECTS\YEAR2(2017)\CRYPTOPP565\HW17\CRYPTOPP565\XTRCRYPT.CPP|D:\USERS\USER-PC\DOCUMENTS\VISUAL STUDIO 2013\PROJECTS\YEAR2(2017)\CRYPTOPP565\HW17\CRYPTOPP565\ZDEFLATE.CPP|D:\USERS\USER-PC\DOCUMENTS\VISUAL STUDIO 2013\PROJECTS\YEAR2(2017)\CRYPTOPP565\HW17\CRYPTOPP565\ZINFLATE.CPP|D:\USERS\USER-PC\DOCUMENTS\VISUAL STUDIO 2013\PROJECTS\YEAR2(2017)\CRYPTOPP565\HW17\CRYPTOPP565\ZLIB.CPP
D:\USERS\USER-PC\DOCUMENTS\VISUAL STUDIO 2013\PROJECTS\YEAR2(2017)\CRYPTOPP565\HW17\CRYPTOPP565\WIN32\CRYPTLIB\DEBUG\VC120.PDB
D:\USERS\USER-PC\DOCUMENTS\VISUAL STUDIO 2013\PROJECTS\YEAR2(2017)\CRYPTOPP565\HW17\CRYPTOPP565\WIN32\CRYPTLIB\DEBUG\CASTS.OBJ
D:\USERS\USER-PC\DOCUMENTS\VISUAL STUDIO 2013\PROJECTS\YEAR2(2017)\CRYPTOPP565\HW17\CRYPTOPP565\WIN32\CRYPTLIB\DEBUG\CAST.OBJ
D:\USERS\USER-PC\DOCUMENTS\VISUAL STUDIO 2013\PROJECTS\YEAR2(2017)\CRYPTOPP565\HW17\CRYPTOPP565\WIN32\CRYPTLIB\DEBUG\CAMELLIA.OBJ
D:\USERS\USER-PC\DOCUMENTS\VISUAL STUDIO 2013\PROJECTS\YEAR2(2017)\CRYPTOPP565\HW17\CRYPTOPP565\WIN32\CRYPTLIB\DEBUG\BLUMSHUB.OBJ
D:\USERS\USER-PC\DOCUMENTS\VISUAL STUDIO 2013\PROJECTS\YEAR2(2017)\CRYPTOPP565\HW17\CRYPTOPP565\WIN32\CRYPTLIB\DEBUG\BLOWFISH.OBJ
D:\USERS\USER-PC\DOCUMENTS\VISUAL STUDIO 2013\PROJECTS\YEAR2(2017)\CRYPTOPP565\HW17\CRYPTOPP565\WIN32\CRYPTLIB\DEBUG\BLAKE2.OBJ
D:\USERS\USER-PC\DOCUMENTS\VISUAL STUDIO 2013\PROJECTS\YEAR2(2017)\CRYPTOPP565\HW17\CRYPTOPP565\WIN32\CRYPTLIB\DEBUG\BFINIT.OBJ
D:\USERS\USER-PC\DOCUMENTS\VISUAL STUDIO 2013\PROJECTS\YEAR2(2017)\CRYPTOPP565\HW17\CRYPTOPP565\WIN32\CRYPTLIB\DEBUG\BASECODE.OBJ
D:\USERS\USER-PC\DOCUMENTS\VISUAL STUDIO 2013\PROJECTS\YEAR2(2017)\CRYPTOPP565\HW17\CRYPTOPP565\WIN32\CRYPTLIB\DEBUG\BASE64.OBJ
D:\USERS\USER-PC\DOCUMENTS\VISUAL STUDIO 2013\PROJECTS\YEAR2(2017)\CRYPTOPP565\HW17\CRYPTOPP565\WIN32\CRYPTLIB\DEBUG\BASE32.OBJ
D:\USERS\USER-PC\DOCUMENTS\VISUAL STUDIO 2013\PROJECTS\YEAR2(2017)\CRYPTOPP565\HW17\CRYPTOPP565\WIN32\CRYPTLIB\DEBUG\AUTHENC.OBJ
D:\USERS\USER-PC\DOCUMENTS\VISUAL STUDIO 2013\PROJECTS\YEAR2(2017)\CRYPTOPP565\HW17\CRYPTOPP565\WIN32\CRYPTLIB\DEBUG\ASN.OBJ
D:\USERS\USER-PC\DOCUMENTS\VISUAL STUDIO 2013\PROJECTS\YEAR2(2017)\CRYPTOPP565\HW17\CRYPTOPP565\WIN32\CRYPTLIB\DEBUG\ARC4.OBJ
D:\USERS\USER-PC\DOCUMENTS\VISUAL STUDIO 2013\PROJECTS\YEAR2(2017)\CRYPTOPP565\HW17\CRYPTOPP565\WIN32\CRYPTLIB\DEBUG\ALGPARAM.OBJ
D:\USERS\USER-PC\DOCUMENTS\VISUAL STUDIO 2013\PROJECTS\YEAR2(2017)\CRYPTOPP565\HW17\CRYPTOPP565\WIN32\CRYPTLIB\DEBUG\ALGEBRA.OBJ
D:\USERS\USER-PC\DOCUMENTS\VISUAL STUDIO 2013\PROJECTS\YEAR2(2017)\CRYPTOPP565\HW17\CRYPTOPP565\WIN32\CRYPTLIB\DEBUG\ADLER32.OBJ
D:\USERS\USER-PC\DOCUMENTS\VISUAL STUDIO 2013\PROJECTS\YEAR2(2017)\CRYPTOPP565\HW17\CRYPTOPP565\WIN32\CRYPTLIB\DEBUG\3WAY.OBJ
D:\USERS\USER-PC\DOCUMENTS\VISUAL STUDIO 2013\PROJECTS\YEAR2(2017)\CRYPTOPP565\HW17\CRYPTOPP565\WIN32\CRYPTLIB\DEBUG\INTEGER.OBJ
D:\USERS\USER-PC\DOCUMENTS\VISUAL STUDIO 2013\PROJECTS\YEAR2(2017)\CRYPTOPP565\HW17\CRYPTOPP565\WIN32\CRYPTLIB\DEBUG\CPU.OBJ
D:\USERS\USER-PC\DOCUMENTS\VISUAL STUDIO 2013\PROJECTS\YEAR2(2017)\CRYPTOPP565\HW17\CRYPTOPP565\WIN32\CRYPTLIB\DEBUG\CRYPTLIB.OBJ
D:\USERS\USER-PC\DOCUMENTS\VISUAL STUDIO 2013\PROJECTS\YEAR2(2017)\CRYPTOPP565\HW17\CRYPTOPP565\WIN32\CRYPTLIB\DEBUG\FILTERS.OBJ
D:\USERS\USER-PC\DOCUMENTS\VISUAL STUDIO 2013\PROJECTS\YEAR2(2017)\CRYPTOPP565\HW17\CRYPTOPP565\WIN32\CRYPTLIB\DEBUG\FILES.OBJ
D:\USERS\USER-PC\DOCUMENTS\VISUAL STUDIO 2013\PROJECTS\YEAR2(2017)\CRYPTOPP565\HW17\CRYPTOPP565\WIN32\CRYPTLIB\DEBUG\ESIGN.OBJ
D:\USERS\USER-PC\DOCUMENTS\VISUAL STUDIO 2013\PROJECTS\YEAR2(2017)\CRYPTOPP565\HW17\CRYPTOPP565\WIN32\CRYPTLIB\DEBUG\EMSA2.OBJ
D:\USERS\USER-PC\DOCUMENTS\VISUAL STUDIO 2013\PROJECTS\YEAR2(2017)\CRYPTOPP565\HW17\CRYPTOPP565\WIN32\CRYPTLIB\DEBUG\ELGAMAL.OBJ
D:\USERS\USER-PC\DOCUMENTS\VISUAL STUDIO 2013\PROJECTS\YEAR2(2017)\CRYPTOPP565\HW17\CRYPTOPP565\WIN32\CRYPTLIB\DEBUG\ECP.OBJ
D:\USERS\USER-PC\DOCUMENTS\VISUAL STUDIO 2013\PROJECTS\YEAR2(2017)\CRYPTOPP565\HW17\CRYPTOPP565\WIN32\CRYPTLIB\DEBUG\EC2N.OBJ
D:\USERS\USER-PC\DOCUMENTS\VISUAL STUDIO 2013\PROJECTS\YEAR2(2017)\CRYPTOPP565\HW17\CRYPTOPP565\WIN32\CRYPTLIB\DEBUG\EAX.OBJ
D:\USERS\USER-PC\DOCUMENTS\VISUAL STUDIO 2013\PROJECTS\YEAR2(2017)\CRYPTOPP565\HW17\CRYPTOPP565\WIN32\CRYPTLIB\DEBUG\DSA.OBJ
D:\USERS\USER-PC\DOCUMENTS\VISUAL STUDIO 2013\PROJECTS\YEAR2(2017)\CRYPTOPP565\HW17\CRYPTOPP565\WIN32\CRYPTLIB\DEBUG\DH2.OBJ
D:\USERS\USER-PC\DOCUMENTS\VISUAL STUDIO 2013\PROJECTS\YEAR2(2017)\CRYPTOPP565\HW17\CRYPTOPP565\WIN32\CRYPTLIB\DEBUG\DH.OBJ
D:\USERS\USER-PC\DOCUMENTS\VISUAL STUDIO 2013\PROJECTS\YEAR2(2017)\CRYPTOPP565\HW17\CRYPTOPP565\WIN32\CRYPTLIB\DEBUG\DESSP.OBJ
D:\USERS\USER-PC\DOCUMENTS\VISUAL STUDIO 2013\PROJECTS\YEAR2(2017)\CRYPTOPP565\HW17\CRYPTOPP565\WIN32\CRYPTLIB\DEBUG\DES.OBJ
D:\USERS\USER-PC\DOCUMENTS\VISUAL STUDIO 2013\PROJECTS\YEAR2(2017)\CRYPTOPP565\HW17\CRYPTOPP565\WIN32\CRYPTLIB\DEBUG\DEFAULT.OBJ
D:\USERS\USER-PC\DOCUMENTS\VISUAL STUDIO 2013\PROJECTS\YEAR2(2017)\CRYPTOPP565\HW17\CRYPTOPP565\WIN32\CRYPTLIB\DEBUG\CRC.OBJ
D:\USERS\USER-PC\DOCUMENTS\VISUAL STUDIO 2013\PROJECTS\YEAR2(2017)\CRYPTOPP565\HW17\CRYPTOPP565\WIN32\CRYPTLIB\DEBUG\CMAC.OBJ
D:\USERS\USER-PC\DOCUMENTS\VISUAL STUDIO 2013\PROJECTS\YEAR2(2017)\CRYPTOPP565\HW17\CRYPTOPP565\WIN32\CRYPTLIB\DEBUG\CHANNELS.OBJ
D:\USERS\USER-PC\DOCUMENTS\VISUAL STUDIO 2013\PROJECTS\YEAR2(2017)\CRYPTOPP565\HW17\CRYPTOPP565\WIN32\CRYPTLIB\DEBUG\CHACHA.OBJ
D:\USERS\USER-PC\DOCUMENTS\VISUAL STUDIO 2013\PROJECTS\YEAR2(2017)\CRYPTOPP565\HW17\CRYPTOPP565\WIN32\CRYPTLIB\DEBUG\CCM.OBJ
D:\USERS\USER-PC\DOCUMENTS\VISUAL STUDIO 2013\PROJECTS\YEAR2(2017)\CRYPTOPP565\HW17\CRYPTOPP565\WIN32\CRYPTLIB\DEBUG\CBCMAC.OBJ
D:\USERS\USER-PC\DOCUMENTS\VISUAL STUDIO 2013\PROJECTS\YEAR2(2017)\CRYPTOPP565\HW17\CRYPTOPP565\WIN32\CRYPTLIB\DEBUG\MD4.OBJ
D:\USERS\USER-PC\DOCUMENTS\VISUAL STUDIO 2013\PROJECTS\YEAR2(2017)\CRYPTOPP565\HW17\CRYPTOPP565\WIN32\CRYPTLIB\DEBUG\MD2.OBJ
D:\USERS\USER-PC\DOCUMENTS\VISUAL STUDIO 2013\PROJECTS\YEAR2(2017)\CRYPTOPP565\HW17\CRYPTOPP565\WIN32\CRYPTLIB\DEBUG\MARSS.OBJ
D:\USERS\USER-PC\DOCUMENTS\VISUAL STUDIO 2013\PROJECTS\YEAR2(2017)\CRYPTOPP565\HW17\CRYPTOPP565\WIN32\CRYPTLIB\DEBUG\MARS.OBJ
D:\USERS\USER-PC\DOCUMENTS\VISUAL STUDIO 2013\PROJECTS\YEAR2(2017)\CRYPTOPP565\HW17\CRYPTOPP565\WIN32\CRYPTLIB\DEBUG\LUC.OBJ
D:\USERS\USER-PC\DOCUMENTS\VISUAL STUDIO 2013\PROJECTS\YEAR2(2017)\CRYPTOPP565\HW17\CRYPTOPP565\WIN32\CRYPTLIB\DEBUG\KECCAK.OBJ
D:\USERS\USER-PC\DOCUMENTS\VISUAL STUDIO 2013\PROJECTS\YEAR2(2017)\CRYPTOPP565\HW17\CRYPTOPP565\WIN32\CRYPTLIB\DEBUG\IDEA.OBJ
D:\USERS\USER-PC\DOCUMENTS\VISUAL STUDIO 2013\PROJECTS\YEAR2(2017)\CRYPTOPP565\HW17\CRYPTOPP565\WIN32\CRYPTLIB\DEBUG\IDA.OBJ
D:\USERS\USER-PC\DOCUMENTS\VISUAL STUDIO 2013\PROJECTS\YEAR2(2017)\CRYPTOPP565\HW17\CRYPTOPP565\WIN32\CRYPTLIB\DEBUG\HRTIMER.OBJ
D:\USERS\USER-PC\DOCUMENTS\VISUAL STUDIO 2013\PROJECTS\YEAR2(2017)\CRYPTOPP565\HW17\CRYPTOPP565\WIN32\CRYPTLIB\DEBUG\HMAC.OBJ
D:\USERS\USER-PC\DOCUMENTS\VISUAL STUDIO 2013\PROJECTS\YEAR2(2017)\CRYPTOPP565\HW17\CRYPTOPP565\WIN32\CRYPTLIB\DEBUG\HEX.OBJ
D:\USERS\USER-PC\DOCUMENTS\VISUAL STUDIO 2013\PROJECTS\YEAR2(2017)\CRYPTOPP565\HW17\CRYPTOPP565\WIN32\CRYPTLIB\DEBUG\GZIP.OBJ
D:\USERS\USER-PC\DOCUMENTS\VISUAL STUDIO 2013\PROJECTS\YEAR2(2017)\CRYPTOPP565\HW17\CRYPTOPP565\WIN32\CRYPTLIB\DEBUG\GOST.OBJ
D:\USERS\USER-PC\DOCUMENTS\VISUAL STUDIO 2013\PROJECTS\YEAR2(2017)\CRYPTOPP565\HW17\CRYPTOPP565\WIN32\CRYPTLIB\DEBUG\GFPCRYPT.OBJ
D:\USERS\USER-PC\DOCUMENTS\VISUAL STUDIO 2013\PROJECTS\YEAR2(2017)\CRYPTOPP565\HW17\CRYPTOPP565\WIN32\CRYPTLIB\DEBUG\GF2N.OBJ
D:\USERS\USER-PC\DOCUMENTS\VISUAL STUDIO 2013\PROJECTS\YEAR2(2017)\CRYPTOPP565\HW17\CRYPTOPP565\WIN32\CRYPTLIB\DEBUG\GF2_32.OBJ
D:\USERS\USER-PC\DOCUMENTS\VISUAL STUDIO 2013\PROJECTS\YEAR2(2017)\CRYPTOPP565\HW17\CRYPTOPP565\WIN32\CRYPTLIB\DEBUG\GF256.OBJ
D:\USERS\USER-PC\DOCUMENTS\VISUAL STUDIO 2013\PROJECTS\YEAR2(2017)\CRYPTOPP565\HW17\CRYPTOPP565\WIN32\CRYPTLIB\DEBUG\GCM.OBJ
D:\USERS\USER-PC\DOCUMENTS\VISUAL STUDIO 2013\PROJECTS\YEAR2(2017)\CRYPTOPP565\HW17\CRYPTOPP565\WIN32\CRYPTLIB\DEBUG\FIPSTEST.OBJ
D:\USERS\USER-PC\DOCUMENTS\VISUAL STUDIO 2013\PROJECTS\YEAR2(2017)\CRYPTOPP565\HW17\CRYPTOPP565\WIN32\CRYPTLIB\DEBUG\FIPS140.OBJ
D:\USERS\USER-PC\DOCUMENTS\VISUAL STUDIO 2013\PROJECTS\YEAR2(2017)\CRYPTOPP565\HW17\CRYPTOPP565\WIN32\CRYPTLIB\DEBUG\RC6.OBJ
D:\USERS\USER-PC\DOCUMENTS\VISUAL STUDIO 2013\PROJECTS\YEAR2(2017)\CRYPTOPP565\HW17\CRYPTOPP565\WIN32\CRYPTLIB\DEBUG\RC5.OBJ
D:\USERS\USER-PC\DOCUMENTS\VISUAL STUDIO 2013\PROJECTS\YEAR2(2017)\CRYPTOPP565\HW17\CRYPTOPP565\WIN32\CRYPTLIB\DEBUG\RC2.OBJ
D:\USERS\USER-PC\DOCUMENTS\VISUAL STUDIO 2013\PROJECTS\YEAR2(2017)\CRYPTOPP565\HW17\CRYPTOPP565\WIN32\CRYPTLIB\DEBUG\RANDPOOL.OBJ
D:\USERS\USER-PC\DOCUMENTS\VISUAL STUDIO 2013\PROJECTS\YEAR2(2017)\CRYPTOPP565\HW17\CRYPTOPP565\WIN32\CRYPTLIB\DEBUG\RABIN.OBJ
D:\USERS\USER-PC\DOCUMENTS\VISUAL STUDIO 2013\PROJECTS\YEAR2(2017)\CRYPTOPP565\HW17\CRYPTOPP565\WIN32\CRYPTLIB\DEBUG\QUEUE.OBJ
D:\USERS\USER-PC\DOCUMENTS\VISUAL STUDIO 2013\PROJECTS\YEAR2(2017)\CRYPTOPP565\HW17\CRYPTOPP565\WIN32\CRYPTLIB\DEBUG\PUBKEY.OBJ
D:\USERS\USER-PC\DOCUMENTS\VISUAL STUDIO 2013\PROJECTS\YEAR2(2017)\CRYPTOPP565\HW17\CRYPTOPP565\WIN32\CRYPTLIB\DEBUG\PSSR.OBJ
D:\USERS\USER-PC\DOCUMENTS\VISUAL STUDIO 2013\PROJECTS\YEAR2(2017)\CRYPTOPP565\HW17\CRYPTOPP565\WIN32\CRYPTLIB\DEBUG\POLYNOMI.OBJ
D:\USERS\USER-PC\DOCUMENTS\VISUAL STUDIO 2013\PROJECTS\YEAR2(2017)\CRYPTOPP565\HW17\CRYPTOPP565\WIN32\CRYPTLIB\DEBUG\PKCSPAD.OBJ
D:\USERS\USER-PC\DOCUMENTS\VISUAL STUDIO 2013\PROJECTS\YEAR2(2017)\CRYPTOPP565\HW17\CRYPTOPP565\WIN32\CRYPTLIB\DEBUG\PANAMA.OBJ
D:\USERS\USER-PC\DOCUMENTS\VISUAL STUDIO 2013\PROJECTS\YEAR2(2017)\CRYPTOPP565\HW17\CRYPTOPP565\WIN32\CRYPTLIB\DEBUG\OSRNG.OBJ
D:\USERS\USER-PC\DOCUMENTS\VISUAL STUDIO 2013\PROJECTS\YEAR2(2017)\CRYPTOPP565\HW17\CRYPTOPP565\WIN32\CRYPTLIB\DEBUG\OAEP.OBJ
D:\USERS\USER-PC\DOCUMENTS\VISUAL STUDIO 2013\PROJECTS\YEAR2(2017)\CRYPTOPP565\HW17\CRYPTOPP565\WIN32\CRYPTLIB\DEBUG\NETWORK.OBJ
D:\USERS\USER-PC\DOCUMENTS\VISUAL STUDIO 2013\PROJECTS\YEAR2(2017)\CRYPTOPP565\HW17\CRYPTOPP565\WIN32\CRYPTLIB\DEBUG\NBTHEORY.OBJ
D:\USERS\USER-PC\DOCUMENTS\VISUAL STUDIO 2013\PROJECTS\YEAR2(2017)\CRYPTOPP565\HW17\CRYPTOPP565\WIN32\CRYPTLIB\DEBUG\MQV.OBJ
D:\USERS\USER-PC\DOCUMENTS\VISUAL STUDIO 2013\PROJECTS\YEAR2(2017)\CRYPTOPP565\HW17\CRYPTOPP565\WIN32\CRYPTLIB\DEBUG\MQUEUE.OBJ
D:\USERS\USER-PC\DOCUMENTS\VISUAL STUDIO 2013\PROJECTS\YEAR2(2017)\CRYPTOPP565\HW17\CRYPTOPP565\WIN32\CRYPTLIB\DEBUG\MODES.OBJ
D:\USERS\USER-PC\DOCUMENTS\VISUAL STUDIO 2013\PROJECTS\YEAR2(2017)\CRYPTOPP565\HW17\CRYPTOPP565\WIN32\CRYPTLIB\DEBUG\MISC.OBJ
D:\USERS\USER-PC\DOCUMENTS\VISUAL STUDIO 2013\PROJECTS\YEAR2(2017)\CRYPTOPP565\HW17\CRYPTOPP565\WIN32\CRYPTLIB\DEBUG\MD5.OBJ
D:\USERS\USER-PC\DOCUMENTS\VISUAL STUDIO 2013\PROJECTS\YEAR2(2017)\CRYPTOPP565\HW17\CRYPTOPP565\WIN32\CRYPTLIB\DEBUG\SOCKETFT.OBJ
D:\USERS\USER-PC\DOCUMENTS\VISUAL STUDIO 2013\PROJECTS\YEAR2(2017)\CRYPTOPP565\HW17\CRYPTOPP565\WIN32\CRYPTLIB\DEBUG\SKIPJACK.OBJ
D:\USERS\USER-PC\DOCUMENTS\VISUAL STUDIO 2013\PROJECTS\YEAR2(2017)\CRYPTOPP565\HW17\CRYPTOPP565\WIN32\CRYPTLIB\DEBUG\SIMPLE.OBJ
D:\USERS\USER-PC\DOCUMENTS\VISUAL STUDIO 2013\PROJECTS\YEAR2(2017)\CRYPTOPP565\HW17\CRYPTOPP565\WIN32\CRYPTLIB\DEBUG\SHARKBOX.OBJ
D:\USERS\USER-PC\DOCUMENTS\VISUAL STUDIO 2013\PROJECTS\YEAR2(2017)\CRYPTOPP565\HW17\CRYPTOPP565\WIN32\CRYPTLIB\DEBUG\SHARK.OBJ
D:\USERS\USER-PC\DOCUMENTS\VISUAL STUDIO 2013\PROJECTS\YEAR2(2017)\CRYPTOPP565\HW17\CRYPTOPP565\WIN32\CRYPTLIB\DEBUG\SHACAL2.OBJ
D:\USERS\USER-PC\DOCUMENTS\VISUAL STUDIO 2013\PROJECTS\YEAR2(2017)\CRYPTOPP565\HW17\CRYPTOPP565\WIN32\CRYPTLIB\DEBUG\SHA3.OBJ
D:\USERS\USER-PC\DOCUMENTS\VISUAL STUDIO 2013\PROJECTS\YEAR2(2017)\CRYPTOPP565\HW17\CRYPTOPP565\WIN32\CRYPTLIB\DEBUG\SHA.OBJ
D:\USERS\USER-PC\DOCUMENTS\VISUAL STUDIO 2013\PROJECTS\YEAR2(2017)\CRYPTOPP565\HW17\CRYPTOPP565\WIN32\CRYPTLIB\DEBUG\SERPENT.OBJ
D:\USERS\USER-PC\DOCUMENTS\VISUAL STUDIO 2013\PROJECTS\YEAR2(2017)\CRYPTOPP565\HW17\CRYPTOPP565\WIN32\CRYPTLIB\DEBUG\SEED.OBJ
D:\USERS\USER-PC\DOCUMENTS\VISUAL STUDIO 2013\PROJECTS\YEAR2(2017)\CRYPTOPP565\HW17\CRYPTOPP565\WIN32\CRYPTLIB\DEBUG\SEAL.OBJ
D:\USERS\USER-PC\DOCUMENTS\VISUAL STUDIO 2013\PROJECTS\YEAR2(2017)\CRYPTOPP565\HW17\CRYPTOPP565\WIN32\CRYPTLIB\DEBUG\SALSA.OBJ
D:\USERS\USER-PC\DOCUMENTS\VISUAL STUDIO 2013\PROJECTS\YEAR2(2017)\CRYPTOPP565\HW17\CRYPTOPP565\WIN32\CRYPTLIB\DEBUG\SAFER.OBJ
D:\USERS\USER-PC\DOCUMENTS\VISUAL STUDIO 2013\PROJECTS\YEAR2(2017)\CRYPTOPP565\HW17\CRYPTOPP565\WIN32\CRYPTLIB\DEBUG\RW.OBJ
D:\USERS\USER-PC\DOCUMENTS\VISUAL STUDIO 2013\PROJECTS\YEAR2(2017)\CRYPTOPP565\HW17\CRYPTOPP565\WIN32\CRYPTLIB\DEBUG\RSA.OBJ
D:\USERS\USER-PC\DOCUMENTS\VISUAL STUDIO 2013\PROJECTS\YEAR2(2017)\CRYPTOPP565\HW17\CRYPTOPP565\WIN32\CRYPTLIB\DEBUG\RNG.OBJ
D:\USERS\USER-PC\DOCUMENTS\VISUAL STUDIO 2013\PROJECTS\YEAR2(2017)\CRYPTOPP565\HW17\CRYPTOPP565\WIN32\CRYPTLIB\DEBUG\RIPEMD.OBJ
D:\USERS\USER-PC\DOCUMENTS\VISUAL STUDIO 2013\PROJECTS\YEAR2(2017)\CRYPTOPP565\HW17\CRYPTOPP565\WIN32\CRYPTLIB\DEBUG\RIJNDAEL.OBJ
D:\USERS\USER-PC\DOCUMENTS\VISUAL STUDIO 2013\PROJECTS\YEAR2(2017)\CRYPTOPP565\HW17\CRYPTOPP565\WIN32\CRYPTLIB\DEBUG\RDTABLES.OBJ
D:\USERS\USER-PC\DOCUMENTS\VISUAL STUDIO 2013\PROJECTS\YEAR2(2017)\CRYPTOPP565\HW17\CRYPTOPP565\WIN32\CRYPTLIB\DEBUG\RDRAND.OBJ
D:\USERS\USER-PC\DOCUMENTS\VISUAL STUDIO 2013\PROJECTS\YEAR2(2017)\CRYPTOPP565\HW17\CRYPTOPP565\WIN32\CRYPTLIB\DEBUG\ZINFLATE.OBJ
D:\USERS\USER-PC\DOCUMENTS\VISUAL STUDIO 2013\PROJECTS\YEAR2(2017)\CRYPTOPP565\HW17\CRYPTOPP565\WIN32\CRYPTLIB\DEBUG\ZDEFLATE.OBJ
D:\USERS\USER-PC\DOCUMENTS\VISUAL STUDIO 2013\PROJECTS\YEAR2(2017)\CRYPTOPP565\HW17\CRYPTOPP565\WIN32\CRYPTLIB\DEBUG\XTRCRYPT.OBJ
D:\USERS\USER-PC\DOCUMENTS\VISUAL STUDIO 2013\PROJECTS\YEAR2(2017)\CRYPTOPP565\HW17\CRYPTOPP565\WIN32\CRYPTLIB\DEBUG\XTR.OBJ
D:\USERS\USER-PC\DOCUMENTS\VISUAL STUDIO 2013\PROJECTS\YEAR2(2017)\CRYPTOPP565\HW17\CRYPTOPP565\WIN32\CRYPTLIB\DEBUG\WINPIPES.OBJ
D:\USERS\USER-PC\DOCUMENTS\VISUAL STUDIO 2013\PROJECTS\YEAR2(2017)\CRYPTOPP565\HW17\CRYPTOPP565\WIN32\CRYPTLIB\DEBUG\WHRLPOOL.OBJ
D:\USERS\USER-PC\DOCUMENTS\VISUAL STUDIO 2013\PROJECTS\YEAR2(2017)\CRYPTOPP565\HW17\CRYPTOPP565\WIN32\CRYPTLIB\DEBUG\WAKE.OBJ
D:\USERS\USER-PC\DOCUMENTS\VISUAL STUDIO 2013\PROJECTS\YEAR2(2017)\CRYPTOPP565\HW17\CRYPTOPP565\WIN32\CRYPTLIB\DEBUG\WAIT.OBJ
D:\USERS\USER-PC\DOCUMENTS\VISUAL STUDIO 2013\PROJECTS\YEAR2(2017)\CRYPTOPP565\HW17\CRYPTOPP565\WIN32\CRYPTLIB\DEBUG\VMAC.OBJ
D:\USERS\USER-PC\DOCUMENTS\VISUAL STUDIO 2013\PROJECTS\YEAR2(2017)\CRYPTOPP565\HW17\CRYPTOPP565\WIN32\CRYPTLIB\DEBUG\TWOFISH.OBJ
D:\USERS\USER-PC\DOCUMENTS\VISUAL STUDIO 2013\PROJECTS\YEAR2(2017)\CRYPTOPP565\HW17\CRYPTOPP565\WIN32\CRYPTLIB\DEBUG\TTMAC.OBJ
D:\USERS\USER-PC\DOCUMENTS\VISUAL STUDIO 2013\PROJECTS\YEAR2(2017)\CRYPTOPP565\HW17\CRYPTOPP565\WIN32\CRYPTLIB\DEBUG\TRDLOCAL.OBJ
D:\USERS\USER-PC\DOCUMENTS\VISUAL STUDIO 2013\PROJECTS\YEAR2(2017)\CRYPTOPP565\HW17\CRYPTOPP565\WIN32\CRYPTLIB\DEBUG\TIGERTAB.OBJ
D:\USERS\USER-PC\DOCUMENTS\VISUAL STUDIO 2013\PROJECTS\YEAR2(2017)\CRYPTOPP565\HW17\CRYPTOPP565\WIN32\CRYPTLIB\DEBUG\TIGER.OBJ
D:\USERS\USER-PC\DOCUMENTS\VISUAL STUDIO 2013\PROJECTS\YEAR2(2017)\CRYPTOPP565\HW17\CRYPTOPP565\WIN32\CRYPTLIB\DEBUG\TFTABLES.OBJ
D:\USERS\USER-PC\DOCUMENTS\VISUAL STUDIO 2013\PROJECTS\YEAR2(2017)\CRYPTOPP565\HW17\CRYPTOPP565\WIN32\CRYPTLIB\DEBUG\TEA.OBJ
D:\USERS\USER-PC\DOCUMENTS\VISUAL STUDIO 2013\PROJECTS\YEAR2(2017)\CRYPTOPP565\HW17\CRYPTOPP565\WIN32\CRYPTLIB\DEBUG\STRCIPHR.OBJ
D:\USERS\USER-PC\DOCUMENTS\VISUAL STUDIO 2013\PROJECTS\YEAR2(2017)\CRYPTOPP565\HW17\CRYPTOPP565\WIN32\CRYPTLIB\DEBUG\SQUARETB.OBJ
D:\USERS\USER-PC\DOCUMENTS\VISUAL STUDIO 2013\PROJECTS\YEAR2(2017)\CRYPTOPP565\HW17\CRYPTOPP565\WIN32\CRYPTLIB\DEBUG\SQUARE.OBJ
D:\USERS\USER-PC\DOCUMENTS\VISUAL STUDIO 2013\PROJECTS\YEAR2(2017)\CRYPTOPP565\HW17\CRYPTOPP565\WIN32\CRYPTLIB\DEBUG\SOSEMANUK.OBJ
D:\USERS\USER-PC\DOCUMENTS\VISUAL STUDIO 2013\PROJECTS\YEAR2(2017)\CRYPTOPP565\HW17\CRYPTOPP565\WIN32\CRYPTLIB\DEBUG\ZLIB.OBJ
^D:\USERS\USER-PC\DOCUMENTS\VISUAL STUDIO 2013\PROJECTS\YEAR2(2017)\CRYPTOPP565\HW17\CRYPTOPP565\CRYPTLIB.CPP
D:\USERS\USER-PC\DOCUMENTS\VISUAL STUDIO 2013\PROJECTS\YEAR2(2017)\CRYPTOPP565\HW17\CRYPTOPP565\WIN32\CRYPTLIB\DEBUG\VC120.PDB
^D:\USERS\USER-PC\DOCUMENTS\VISUAL STUDIO 2013\PROJECTS\YEAR2(2017)\CRYPTOPP565\HW17\CRYPTOPP565\CPU.CPP
D:\USERS\USER-PC\DOCUMENTS\VISUAL STUDIO 2013\PROJECTS\YEAR2(2017)\CRYPTOPP565\HW17\CRYPTOPP565\WIN32\CRYPTLIB\DEBUG\VC120.PDB
^D:\USERS\USER-PC\DOCUMENTS\VISUAL STUDIO 2013\PROJECTS\YEAR2(2017)\CRYPTOPP565\HW17\CRYPTOPP565\INTEGER.CPP
D:\USERS\USER-PC\DOCUMENTS\VISUAL STUDIO 2013\PROJECTS\YEAR2(2017)\CRYPTOPP565\HW17\CRYPTOPP565\WIN32\CRYPTLIB\DEBUG\VC120.PDB
^D:\USERS\USER-PC\DOCUMENTS\VISUAL STUDIO 2013\PROJECTS\YEAR2(2017)\CRYPTOPP565\HW17\CRYPTOPP565\3WAY.CPP
D:\USERS\USER-PC\DOCUMENTS\VISUAL STUDIO 2013\PROJECTS\YEAR2(2017)\CRYPTOPP565\HW17\CRYPTOPP565\WIN32\CRYPTLIB\DEBUG\VC120.PDB
^D:\USERS\USER-PC\DOCUMENTS\VISUAL STUDIO 2013\PROJECTS\YEAR2(2017)\CRYPTOPP565\HW17\CRYPTOPP565\ADLER32.CPP
D:\USERS\USER-PC\DOCUMENTS\VISUAL STUDIO 2013\PROJECTS\YEAR2(2017)\CRYPTOPP565\HW17\CRYPTOPP565\WIN32\CRYPTLIB\DEBUG\VC120.PDB
^D:\USERS\USER-PC\DOCUMENTS\VISUAL STUDIO 2013\PROJECTS\YEAR2(2017)\CRYPTOPP565\HW17\CRYPTOPP565\ALGEBRA.CPP
D:\USERS\USER-PC\DOCUMENTS\VISUAL STUDIO 2013\PROJECTS\YEAR2(2017)\CRYPTOPP565\HW17\CRYPTOPP565\WIN32\CRYPTLIB\DEBUG\VC120.PDB
^D:\USERS\USER-PC\DOCUMENTS\VISUAL STUDIO 2013\PROJECTS\YEAR2(2017)\CRYPTOPP565\HW17\CRYPTOPP565\ALGPARAM.CPP
D:\USERS\USER-PC\DOCUMENTS\VISUAL STUDIO 2013\PROJECTS\YEAR2(2017)\CRYPTOPP565\HW17\CRYPTOPP565\WIN32\CRYPTLIB\DEBUG\VC120.PDB
^D:\USERS\USER-PC\DOCUMENTS\VISUAL STUDIO 2013\PROJECTS\YEAR2(2017)\CRYPTOPP565\HW17\CRYPTOPP565\ARC4.CPP
D:\USERS\USER-PC\DOCUMENTS\VISUAL STUDIO 2013\PROJECTS\YEAR2(2017)\CRYPTOPP565\HW17\CRYPTOPP565\WIN32\CRYPTLIB\DEBUG\VC120.PDB
^D:\USERS\USER-PC\DOCUMENTS\VISUAL STUDIO 2013\PROJECTS\YEAR2(2017)\CRYPTOPP565\HW17\CRYPTOPP565\ASN.CPP
D:\USERS\USER-PC\DOCUMENTS\VISUAL STUDIO 2013\PROJECTS\YEAR2(2017)\CRYPTOPP565\HW17\CRYPTOPP565\WIN32\CRYPTLIB\DEBUG\VC120.PDB
^D:\USERS\USER-PC\DOCUMENTS\VISUAL STUDIO 2013\PROJECTS\YEAR2(2017)\CRYPTOPP565\HW17\CRYPTOPP565\AUTHENC.CPP
D:\USERS\USER-PC\DOCUMENTS\VISUAL STUDIO 2013\PROJECTS\YEAR2(2017)\CRYPTOPP565\HW17\CRYPTOPP565\WIN32\CRYPTLIB\DEBUG\VC120.PDB
^D:\USERS\USER-PC\DOCUMENTS\VISUAL STUDIO 2013\PROJECTS\YEAR2(2017)\CRYPTOPP565\HW17\CRYPTOPP565\BASE32.CPP
D:\USERS\USER-PC\DOCUMENTS\VISUAL STUDIO 2013\PROJECTS\YEAR2(2017)\CRYPTOPP565\HW17\CRYPTOPP565\WIN32\CRYPTLIB\DEBUG\VC120.PDB
^D:\USERS\USER-PC\DOCUMENTS\VISUAL STUDIO 2013\PROJECTS\YEAR2(2017)\CRYPTOPP565\HW17\CRYPTOPP565\BASE64.CPP
D:\USERS\USER-PC\DOCUMENTS\VISUAL STUDIO 2013\PROJECTS\YEAR2(2017)\CRYPTOPP565\HW17\CRYPTOPP565\WIN32\CRYPTLIB\DEBUG\VC120.PDB
^D:\USERS\USER-PC\DOCUMENTS\VISUAL STUDIO 2013\PROJECTS\YEAR2(2017)\CRYPTOPP565\HW17\CRYPTOPP565\BASECODE.CPP
D:\USERS\USER-PC\DOCUMENTS\VISUAL STUDIO 2013\PROJECTS\YEAR2(2017)\CRYPTOPP565\HW17\CRYPTOPP565\WIN32\CRYPTLIB\DEBUG\VC120.PDB
^D:\USERS\USER-PC\DOCUMENTS\VISUAL STUDIO 2013\PROJECTS\YEAR2(2017)\CRYPTOPP565\HW17\CRYPTOPP565\BFINIT.CPP
D:\USERS\USER-PC\DOCUMENTS\VISUAL STUDIO 2013\PROJECTS\YEAR2(2017)\CRYPTOPP565\HW17\CRYPTOPP565\WIN32\CRYPTLIB\DEBUG\VC120.PDB
^D:\USERS\USER-PC\DOCUMENTS\VISUAL STUDIO 2013\PROJECTS\YEAR2(2017)\CRYPTOPP565\HW17\CRYPTOPP565\BLAKE2.CPP
D:\USERS\USER-PC\DOCUMENTS\VISUAL STUDIO 2013\PROJECTS\YEAR2(2017)\CRYPTOPP565\HW17\CRYPTOPP565\WIN32\CRYPTLIB\DEBUG\VC120.PDB
^D:\USERS\USER-PC\DOCUMENTS\VISUAL STUDIO 2013\PROJECTS\YEAR2(2017)\CRYPTOPP565\HW17\CRYPTOPP565\BLOWFISH.CPP
D:\USERS\USER-PC\DOCUMENTS\VISUAL STUDIO 2013\PROJECTS\YEAR2(2017)\CRYPTOPP565\HW17\CRYPTOPP565\WIN32\CRYPTLIB\DEBUG\VC120.PDB
^D:\USERS\USER-PC\DOCUMENTS\VISUAL STUDIO 2013\PROJECTS\YEAR2(2017)\CRYPTOPP565\HW17\CRYPTOPP565\BLUMSHUB.CPP
D:\USERS\USER-PC\DOCUMENTS\VISUAL STUDIO 2013\PROJECTS\YEAR2(2017)\CRYPTOPP565\HW17\CRYPTOPP565\WIN32\CRYPTLIB\DEBUG\VC120.PDB
^D:\USERS\USER-PC\DOCUMENTS\VISUAL STUDIO 2013\PROJECTS\YEAR2(2017)\CRYPTOPP565\HW17\CRYPTOPP565\CAMELLIA.CPP
D:\USERS\USER-PC\DOCUMENTS\VISUAL STUDIO 2013\PROJECTS\YEAR2(2017)\CRYPTOPP565\HW17\CRYPTOPP565\WIN32\CRYPTLIB\DEBUG\VC120.PDB
^D:\USERS\USER-PC\DOCUMENTS\VISUAL STUDIO 2013\PROJECTS\YEAR2(2017)\CRYPTOPP565\HW17\CRYPTOPP565\CAST.CPP
D:\USERS\USER-PC\DOCUMENTS\VISUAL STUDIO 2013\PROJECTS\YEAR2(2017)\CRYPTOPP565\HW17\CRYPTOPP565\WIN32\CRYPTLIB\DEBUG\VC120.PDB
^D:\USERS\USER-PC\DOCUMENTS\VISUAL STUDIO 2013\PROJECTS\YEAR2(2017)\CRYPTOPP565\HW17\CRYPTOPP565\CASTS.CPP
D:\USERS\USER-PC\DOCUMENTS\VISUAL STUDIO 2013\PROJECTS\YEAR2(2017)\CRYPTOPP565\HW17\CRYPTOPP565\WIN32\CRYPTLIB\DEBUG\VC120.PDB
^D:\USERS\USER-PC\DOCUMENTS\VISUAL STUDIO 2013\PROJECTS\YEAR2(2017)\CRYPTOPP565\HW17\CRYPTOPP565\CBCMAC.CPP
D:\USERS\USER-PC\DOCUMENTS\VISUAL STUDIO 2013\PROJECTS\YEAR2(2017)\CRYPTOPP565\HW17\CRYPTOPP565\WIN32\CRYPTLIB\DEBUG\VC120.PDB
^D:\USERS\USER-PC\DOCUMENTS\VISUAL STUDIO 2013\PROJECTS\YEAR2(2017)\CRYPTOPP565\HW17\CRYPTOPP565\CCM.CPP
D:\USERS\USER-PC\DOCUMENTS\VISUAL STUDIO 2013\PROJECTS\YEAR2(2017)\CRYPTOPP565\HW17\CRYPTOPP565\WIN32\CRYPTLIB\DEBUG\VC120.PDB
^D:\USERS\USER-PC\DOCUMENTS\VISUAL STUDIO 2013\PROJECTS\YEAR2(2017)\CRYPTOPP565\HW17\CRYPTOPP565\CHACHA.CPP
D:\USERS\USER-PC\DOCUMENTS\VISUAL STUDIO 2013\PROJECTS\YEAR2(2017)\CRYPTOPP565\HW17\CRYPTOPP565\WIN32\CRYPTLIB\DEBUG\VC120.PDB
^D:\USERS\USER-PC\DOCUMENTS\VISUAL STUDIO 2013\PROJECTS\YEAR2(2017)\CRYPTOPP565\HW17\CRYPTOPP565\CHANNELS.CPP
D:\USERS\USER-PC\DOCUMENTS\VISUAL STUDIO 2013\PROJECTS\YEAR2(2017)\CRYPTOPP565\HW17\CRYPTOPP565\WIN32\CRYPTLIB\DEBUG\VC120.PDB
^D:\USERS\USER-PC\DOCUMENTS\VISUAL STUDIO 2013\PROJECTS\YEAR2(2017)\CRYPTOPP565\HW17\CRYPTOPP565\CMAC.CPP
D:\USERS\USER-PC\DOCUMENTS\VISUAL STUDIO 2013\PROJECTS\YEAR2(2017)\CRYPTOPP565\HW17\CRYPTOPP565\WIN32\CRYPTLIB\DEBUG\VC120.PDB
^D:\USERS\USER-PC\DOCUMENTS\VISUAL STUDIO 2013\PROJECTS\YEAR2(2017)\CRYPTOPP565\HW17\CRYPTOPP565\CRC.CPP
D:\USERS\USER-PC\DOCUMENTS\VISUAL STUDIO 2013\PROJECTS\YEAR2(2017)\CRYPTOPP565\HW17\CRYPTOPP565\WIN32\CRYPTLIB\DEBUG\VC120.PDB
^D:\USERS\USER-PC\DOCUMENTS\VISUAL STUDIO 2013\PROJECTS\YEAR2(2017)\CRYPTOPP565\HW17\CRYPTOPP565\DEFAULT.CPP
D:\USERS\USER-PC\DOCUMENTS\VISUAL STUDIO 2013\PROJECTS\YEAR2(2017)\CRYPTOPP565\HW17\CRYPTOPP565\WIN32\CRYPTLIB\DEBUG\VC120.PDB
^D:\USERS\USER-PC\DOCUMENTS\VISUAL STUDIO 2013\PROJECTS\YEAR2(2017)\CRYPTOPP565\HW17\CRYPTOPP565\DES.CPP
D:\USERS\USER-PC\DOCUMENTS\VISUAL STUDIO 2013\PROJECTS\YEAR2(2017)\CRYPTOPP565\HW17\CRYPTOPP565\WIN32\CRYPTLIB\DEBUG\VC120.PDB
^D:\USERS\USER-PC\DOCUMENTS\VISUAL STUDIO 2013\PROJECTS\YEAR2(2017)\CRYPTOPP565\HW17\CRYPTOPP565\DESSP.CPP
D:\USERS\USER-PC\DOCUMENTS\VISUAL STUDIO 2013\PROJECTS\YEAR2(2017)\CRYPTOPP565\HW17\CRYPTOPP565\WIN32\CRYPTLIB\DEBUG\VC120.PDB
^D:\USERS\USER-PC\DOCUMENTS\VISUAL STUDIO 2013\PROJECTS\YEAR2(2017)\CRYPTOPP565\HW17\CRYPTOPP565\DH.CPP
D:\USERS\USER-PC\DOCUMENTS\VISUAL STUDIO 2013\PROJECTS\YEAR2(2017)\CRYPTOPP565\HW17\CRYPTOPP565\WIN32\CRYPTLIB\DEBUG\VC120.PDB
^D:\USERS\USER-PC\DOCUMENTS\VISUAL STUDIO 2013\PROJECTS\YEAR2(2017)\CRYPTOPP565\HW17\CRYPTOPP565\DH2.CPP
D:\USERS\USER-PC\DOCUMENTS\VISUAL STUDIO 2013\PROJECTS\YEAR2(2017)\CRYPTOPP565\HW17\CRYPTOPP565\WIN32\CRYPTLIB\DEBUG\VC120.PDB
^D:\USERS\USER-PC\DOCUMENTS\VISUAL STUDIO 2013\PROJECTS\YEAR2(2017)\CRYPTOPP565\HW17\CRYPTOPP565\DSA.CPP
D:\USERS\USER-PC\DOCUMENTS\VISUAL STUDIO 2013\PROJECTS\YEAR2(2017)\CRYPTOPP565\HW17\CRYPTOPP565\WIN32\CRYPTLIB\DEBUG\VC120.PDB
^D:\USERS\USER-PC\DOCUMENTS\VISUAL STUDIO 2013\PROJECTS\YEAR2(2017)\CRYPTOPP565\HW17\CRYPTOPP565\EAX.CPP
D:\USERS\USER-PC\DOCUMENTS\VISUAL STUDIO 2013\PROJECTS\YEAR2(2017)\CRYPTOPP565\HW17\CRYPTOPP565\WIN32\CRYPTLIB\DEBUG\VC120.PDB
^D:\USERS\USER-PC\DOCUMENTS\VISUAL STUDIO 2013\PROJECTS\YEAR2(2017)\CRYPTOPP565\HW17\CRYPTOPP565\EC2N.CPP
D:\USERS\USER-PC\DOCUMENTS\VISUAL STUDIO 2013\PROJECTS\YEAR2(2017)\CRYPTOPP565\HW17\CRYPTOPP565\WIN32\CRYPTLIB\DEBUG\VC120.PDB
^D:\USERS\USER-PC\DOCUMENTS\VISUAL STUDIO 2013\PROJECTS\YEAR2(2017)\CRYPTOPP565\HW17\CRYPTOPP565\ECP.CPP
D:\USERS\USER-PC\DOCUMENTS\VISUAL STUDIO 2013\PROJECTS\YEAR2(2017)\CRYPTOPP565\HW17\CRYPTOPP565\WIN32\CRYPTLIB\DEBUG\VC120.PDB
^D:\USERS\USER-PC\DOCUMENTS\VISUAL STUDIO 2013\PROJECTS\YEAR2(2017)\CRYPTOPP565\HW17\CRYPTOPP565\ELGAMAL.CPP
D:\USERS\USER-PC\DOCUMENTS\VISUAL STUDIO 2013\PROJECTS\YEAR2(2017)\CRYPTOPP565\HW17\CRYPTOPP565\WIN32\CRYPTLIB\DEBUG\VC120.PDB
^D:\USERS\USER-PC\DOCUMENTS\VISUAL STUDIO 2013\PROJECTS\YEAR2(2017)\CRYPTOPP565\HW17\CRYPTOPP565\EMSA2.CPP
D:\USERS\USER-PC\DOCUMENTS\VISUAL STUDIO 2013\PROJECTS\YEAR2(2017)\CRYPTOPP565\HW17\CRYPTOPP565\WIN32\CRYPTLIB\DEBUG\VC120.PDB
^D:\USERS\USER-PC\DOCUMENTS\VISUAL STUDIO 2013\PROJECTS\YEAR2(2017)\CRYPTOPP565\HW17\CRYPTOPP565\ESIGN.CPP
D:\USERS\USER-PC\DOCUMENTS\VISUAL STUDIO 2013\PROJECTS\YEAR2(2017)\CRYPTOPP565\HW17\CRYPTOPP565\WIN32\CRYPTLIB\DEBUG\VC120.PDB
^D:\USERS\USER-PC\DOCUMENTS\VISUAL STUDIO 2013\PROJECTS\YEAR2(2017)\CRYPTOPP565\HW17\CRYPTOPP565\FILES.CPP
D:\USERS\USER-PC\DOCUMENTS\VISUAL STUDIO 2013\PROJECTS\YEAR2(2017)\CRYPTOPP565\HW17\CRYPTOPP565\WIN32\CRYPTLIB\DEBUG\VC120.PDB
^D:\USERS\USER-PC\DOCUMENTS\VISUAL STUDIO 2013\PROJECTS\YEAR2(2017)\CRYPTOPP565\HW17\CRYPTOPP565\FILTERS.CPP
D:\USERS\USER-PC\DOCUMENTS\VISUAL STUDIO 2013\PROJECTS\YEAR2(2017)\CRYPTOPP565\HW17\CRYPTOPP565\WIN32\CRYPTLIB\DEBUG\VC120.PDB
^D:\USERS\USER-PC\DOCUMENTS\VISUAL STUDIO 2013\PROJECTS\YEAR2(2017)\CRYPTOPP565\HW17\CRYPTOPP565\FIPS140.CPP
D:\USERS\USER-PC\DOCUMENTS\VISUAL STUDIO 2013\PROJECTS\YEAR2(2017)\CRYPTOPP565\HW17\CRYPTOPP565\WIN32\CRYPTLIB\DEBUG\VC120.PDB
^D:\USERS\USER-PC\DOCUMENTS\VISUAL STUDIO 2013\PROJECTS\YEAR2(2017)\CRYPTOPP565\HW17\CRYPTOPP565\FIPSTEST.CPP
D:\USERS\USER-PC\DOCUMENTS\VISUAL STUDIO 2013\PROJECTS\YEAR2(2017)\CRYPTOPP565\HW17\CRYPTOPP565\WIN32\CRYPTLIB\DEBUG\VC120.PDB
^D:\USERS\USER-PC\DOCUMENTS\VISUAL STUDIO 2013\PROJECTS\YEAR2(2017)\CRYPTOPP565\HW17\CRYPTOPP565\GCM.CPP
D:\USERS\USER-PC\DOCUMENTS\VISUAL STUDIO 2013\PROJECTS\YEAR2(2017)\CRYPTOPP565\HW17\CRYPTOPP565\WIN32\CRYPTLIB\DEBUG\VC120.PDB
^D:\USERS\USER-PC\DOCUMENTS\VISUAL STUDIO 2013\PROJECTS\YEAR2(2017)\CRYPTOPP565\HW17\CRYPTOPP565\GF256.CPP
D:\USERS\USER-PC\DOCUMENTS\VISUAL STUDIO 2013\PROJECTS\YEAR2(2017)\CRYPTOPP565\HW17\CRYPTOPP565\WIN32\CRYPTLIB\DEBUG\VC120.PDB
^D:\USERS\USER-PC\DOCUMENTS\VISUAL STUDIO 2013\PROJECTS\YEAR2(2017)\CRYPTOPP565\HW17\CRYPTOPP565\GF2_32.CPP
D:\USERS\USER-PC\DOCUMENTS\VISUAL STUDIO 2013\PROJECTS\YEAR2(2017)\CRYPTOPP565\HW17\CRYPTOPP565\WIN32\CRYPTLIB\DEBUG\VC120.PDB
^D:\USERS\USER-PC\DOCUMENTS\VISUAL STUDIO 2013\PROJECTS\YEAR2(2017)\CRYPTOPP565\HW17\CRYPTOPP565\GF2N.CPP
D:\USERS\USER-PC\DOCUMENTS\VISUAL STUDIO 2013\PROJECTS\YEAR2(2017)\CRYPTOPP565\HW17\CRYPTOPP565\WIN32\CRYPTLIB\DEBUG\VC120.PDB
^D:\USERS\USER-PC\DOCUMENTS\VISUAL STUDIO 2013\PROJECTS\YEAR2(2017)\CRYPTOPP565\HW17\CRYPTOPP565\GFPCRYPT.CPP
D:\USERS\USER-PC\DOCUMENTS\VISUAL STUDIO 2013\PROJECTS\YEAR2(2017)\CRYPTOPP565\HW17\CRYPTOPP565\WIN32\CRYPTLIB\DEBUG\VC120.PDB
^D:\USERS\USER-PC\DOCUMENTS\VISUAL STUDIO 2013\PROJECTS\YEAR2(2017)\CRYPTOPP565\HW17\CRYPTOPP565\GOST.CPP
D:\USERS\USER-PC\DOCUMENTS\VISUAL STUDIO 2013\PROJECTS\YEAR2(2017)\CRYPTOPP565\HW17\CRYPTOPP565\WIN32\CRYPTLIB\DEBUG\VC120.PDB
^D:\USERS\USER-PC\DOCUMENTS\VISUAL STUDIO 2013\PROJECTS\YEAR2(2017)\CRYPTOPP565\HW17\CRYPTOPP565\GZIP.CPP
D:\USERS\USER-PC\DOCUMENTS\VISUAL STUDIO 2013\PROJECTS\YEAR2(2017)\CRYPTOPP565\HW17\CRYPTOPP565\WIN32\CRYPTLIB\DEBUG\VC120.PDB
^D:\USERS\USER-PC\DOCUMENTS\VISUAL STUDIO 2013\PROJECTS\YEAR2(2017)\CRYPTOPP565\HW17\CRYPTOPP565\HEX.CPP
D:\USERS\USER-PC\DOCUMENTS\VISUAL STUDIO 2013\PROJECTS\YEAR2(2017)\CRYPTOPP565\HW17\CRYPTOPP565\WIN32\CRYPTLIB\DEBUG\VC120.PDB
^D:\USERS\USER-PC\DOCUMENTS\VISUAL STUDIO 2013\PROJECTS\YEAR2(2017)\CRYPTOPP565\HW17\CRYPTOPP565\HMAC.CPP
D:\USERS\USER-PC\DOCUMENTS\VISUAL STUDIO 2013\PROJECTS\YEAR2(2017)\CRYPTOPP565\HW17\CRYPTOPP565\WIN32\CRYPTLIB\DEBUG\VC120.PDB
^D:\USERS\USER-PC\DOCUMENTS\VISUAL STUDIO 2013\PROJECTS\YEAR2(2017)\CRYPTOPP565\HW17\CRYPTOPP565\HRTIMER.CPP
D:\USERS\USER-PC\DOCUMENTS\VISUAL STUDIO 2013\PROJECTS\YEAR2(2017)\CRYPTOPP565\HW17\CRYPTOPP565\WIN32\CRYPTLIB\DEBUG\VC120.PDB
^D:\USERS\USER-PC\DOCUMENTS\VISUAL STUDIO 2013\PROJECTS\YEAR2(2017)\CRYPTOPP565\HW17\CRYPTOPP565\IDA.CPP
D:\USERS\USER-PC\DOCUMENTS\VISUAL STUDIO 2013\PROJECTS\YEAR2(2017)\CRYPTOPP565\HW17\CRYPTOPP565\WIN32\CRYPTLIB\DEBUG\VC120.PDB
^D:\USERS\USER-PC\DOCUMENTS\VISUAL STUDIO 2013\PROJECTS\YEAR2(2017)\CRYPTOPP565\HW17\CRYPTOPP565\IDEA.CPP
D:\USERS\USER-PC\DOCUMENTS\VISUAL STUDIO 2013\PROJECTS\YEAR2(2017)\CRYPTOPP565\HW17\CRYPTOPP565\WIN32\CRYPTLIB\DEBUG\VC120.PDB
^D:\USERS\USER-PC\DOCUMENTS\VISUAL STUDIO 2013\PROJECTS\YEAR2(2017)\CRYPTOPP565\HW17\CRYPTOPP565\KECCAK.CPP
D:\USERS\USER-PC\DOCUMENTS\VISUAL STUDIO 2013\PROJECTS\YEAR2(2017)\CRYPTOPP565\HW17\CRYPTOPP565\WIN32\CRYPTLIB\DEBUG\VC120.PDB
^D:\USERS\USER-PC\DOCUMENTS\VISUAL STUDIO 2013\PROJECTS\YEAR2(2017)\CRYPTOPP565\HW17\CRYPTOPP565\LUC.CPP
D:\USERS\USER-PC\DOCUMENTS\VISUAL STUDIO 2013\PROJECTS\YEAR2(2017)\CRYPTOPP565\HW17\CRYPTOPP565\WIN32\CRYPTLIB\DEBUG\VC120.PDB
^D:\USERS\USER-PC\DOCUMENTS\VISUAL STUDIO 2013\PROJECTS\YEAR2(2017)\CRYPTOPP565\HW17\CRYPTOPP565\MARS.CPP
D:\USERS\USER-PC\DOCUMENTS\VISUAL STUDIO 2013\PROJECTS\YEAR2(2017)\CRYPTOPP565\HW17\CRYPTOPP565\WIN32\CRYPTLIB\DEBUG\VC120.PDB
^D:\USERS\USER-PC\DOCUMENTS\VISUAL STUDIO 2013\PROJECTS\YEAR2(2017)\CRYPTOPP565\HW17\CRYPTOPP565\MARSS.CPP
D:\USERS\USER-PC\DOCUMENTS\VISUAL STUDIO 2013\PROJECTS\YEAR2(2017)\CRYPTOPP565\HW17\CRYPTOPP565\WIN32\CRYPTLIB\DEBUG\VC120.PDB
^D:\USERS\USER-PC\DOCUMENTS\VISUAL STUDIO 2013\PROJECTS\YEAR2(2017)\CRYPTOPP565\HW17\CRYPTOPP565\MD2.CPP
D:\USERS\USER-PC\DOCUMENTS\VISUAL STUDIO 2013\PROJECTS\YEAR2(2017)\CRYPTOPP565\HW17\CRYPTOPP565\WIN32\CRYPTLIB\DEBUG\VC120.PDB
^D:\USERS\USER-PC\DOCUMENTS\VISUAL STUDIO 2013\PROJECTS\YEAR2(2017)\CRYPTOPP565\HW17\CRYPTOPP565\MD4.CPP
D:\USERS\USER-PC\DOCUMENTS\VISUAL STUDIO 2013\PROJECTS\YEAR2(2017)\CRYPTOPP565\HW17\CRYPTOPP565\WIN32\CRYPTLIB\DEBUG\VC120.PDB
^D:\USERS\USER-PC\DOCUMENTS\VISUAL STUDIO 2013\PROJECTS\YEAR2(2017)\CRYPTOPP565\HW17\CRYPTOPP565\MD5.CPP
D:\USERS\USER-PC\DOCUMENTS\VISUAL STUDIO 2013\PROJECTS\YEAR2(2017)\CRYPTOPP565\HW17\CRYPTOPP565\WIN32\CRYPTLIB\DEBUG\VC120.PDB
^D:\USERS\USER-PC\DOCUMENTS\VISUAL STUDIO 2013\PROJECTS\YEAR2(2017)\CRYPTOPP565\HW17\CRYPTOPP565\MISC.CPP
D:\USERS\USER-PC\DOCUMENTS\VISUAL STUDIO 2013\PROJECTS\YEAR2(2017)\CRYPTOPP565\HW17\CRYPTOPP565\WIN32\CRYPTLIB\DEBUG\VC120.PDB
^D:\USERS\USER-PC\DOCUMENTS\VISUAL STUDIO 2013\PROJECTS\YEAR2(2017)\CRYPTOPP565\HW17\CRYPTOPP565\MODES.CPP
D:\USERS\USER-PC\DOCUMENTS\VISUAL STUDIO 2013\PROJECTS\YEAR2(2017)\CRYPTOPP565\HW17\CRYPTOPP565\WIN32\CRYPTLIB\DEBUG\VC120.PDB
^D:\USERS\USER-PC\DOCUMENTS\VISUAL STUDIO 2013\PROJECTS\YEAR2(2017)\CRYPTOPP565\HW17\CRYPTOPP565\MQUEUE.CPP
D:\USERS\USER-PC\DOCUMENTS\VISUAL STUDIO 2013\PROJECTS\YEAR2(2017)\CRYPTOPP565\HW17\CRYPTOPP565\WIN32\CRYPTLIB\DEBUG\VC120.PDB
^D:\USERS\USER-PC\DOCUMENTS\VISUAL STUDIO 2013\PROJECTS\YEAR2(2017)\CRYPTOPP565\HW17\CRYPTOPP565\MQV.CPP
D:\USERS\USER-PC\DOCUMENTS\VISUAL STUDIO 2013\PROJECTS\YEAR2(2017)\CRYPTOPP565\HW17\CRYPTOPP565\WIN32\CRYPTLIB\DEBUG\VC120.PDB
^D:\USERS\USER-PC\DOCUMENTS\VISUAL STUDIO 2013\PROJECTS\YEAR2(2017)\CRYPTOPP565\HW17\CRYPTOPP565\NBTHEORY.CPP
D:\USERS\USER-PC\DOCUMENTS\VISUAL STUDIO 2013\PROJECTS\YEAR2(2017)\CRYPTOPP565\HW17\CRYPTOPP565\WIN32\CRYPTLIB\DEBUG\VC120.PDB
^D:\USERS\USER-PC\DOCUMENTS\VISUAL STUDIO 2013\PROJECTS\YEAR2(2017)\CRYPTOPP565\HW17\CRYPTOPP565\NETWORK.CPP
D:\USERS\USER-PC\DOCUMENTS\VISUAL STUDIO 2013\PROJECTS\YEAR2(2017)\CRYPTOPP565\HW17\CRYPTOPP565\WIN32\CRYPTLIB\DEBUG\VC120.PDB
^D:\USERS\USER-PC\DOCUMENTS\VISUAL STUDIO 2013\PROJECTS\YEAR2(2017)\CRYPTOPP565\HW17\CRYPTOPP565\OAEP.CPP
D:\USERS\USER-PC\DOCUMENTS\VISUAL STUDIO 2013\PROJECTS\YEAR2(2017)\CRYPTOPP565\HW17\CRYPTOPP565\WIN32\CRYPTLIB\DEBUG\VC120.PDB
^D:\USERS\USER-PC\DOCUMENTS\VISUAL STUDIO 2013\PROJECTS\YEAR2(2017)\CRYPTOPP565\HW17\CRYPTOPP565\OSRNG.CPP
D:\USERS\USER-PC\DOCUMENTS\VISUAL STUDIO 2013\PROJECTS\YEAR2(2017)\CRYPTOPP565\HW17\CRYPTOPP565\WIN32\CRYPTLIB\DEBUG\VC120.PDB
^D:\USERS\USER-PC\DOCUMENTS\VISUAL STUDIO 2013\PROJECTS\YEAR2(2017)\CRYPTOPP565\HW17\CRYPTOPP565\PANAMA.CPP
D:\USERS\USER-PC\DOCUMENTS\VISUAL STUDIO 2013\PROJECTS\YEAR2(2017)\CRYPTOPP565\HW17\CRYPTOPP565\WIN32\CRYPTLIB\DEBUG\VC120.PDB
^D:\USERS\USER-PC\DOCUMENTS\VISUAL STUDIO 2013\PROJECTS\YEAR2(2017)\CRYPTOPP565\HW17\CRYPTOPP565\PKCSPAD.CPP
D:\USERS\USER-PC\DOCUMENTS\VISUAL STUDIO 2013\PROJECTS\YEAR2(2017)\CRYPTOPP565\HW17\CRYPTOPP565\WIN32\CRYPTLIB\DEBUG\VC120.PDB
^D:\USERS\USER-PC\DOCUMENTS\VISUAL STUDIO 2013\PROJECTS\YEAR2(2017)\CRYPTOPP565\HW17\CRYPTOPP565\POLYNOMI.CPP
D:\USERS\USER-PC\DOCUMENTS\VISUAL STUDIO 2013\PROJECTS\YEAR2(2017)\CRYPTOPP565\HW17\CRYPTOPP565\WIN32\CRYPTLIB\DEBUG\VC120.PDB
^D:\USERS\USER-PC\DOCUMENTS\VISUAL STUDIO 2013\PROJECTS\YEAR2(2017)\CRYPTOPP565\HW17\CRYPTOPP565\PSSR.CPP
D:\USERS\USER-PC\DOCUMENTS\VISUAL STUDIO 2013\PROJECTS\YEAR2(2017)\CRYPTOPP565\HW17\CRYPTOPP565\WIN32\CRYPTLIB\DEBUG\VC120.PDB
^D:\USERS\USER-PC\DOCUMENTS\VISUAL STUDIO 2013\PROJECTS\YEAR2(2017)\CRYPTOPP565\HW17\CRYPTOPP565\PUBKEY.CPP
D:\USERS\USER-PC\DOCUMENTS\VISUAL STUDIO 2013\PROJECTS\YEAR2(2017)\CRYPTOPP565\HW17\CRYPTOPP565\WIN32\CRYPTLIB\DEBUG\VC120.PDB
^D:\USERS\USER-PC\DOCUMENTS\VISUAL STUDIO 2013\PROJECTS\YEAR2(2017)\CRYPTOPP565\HW17\CRYPTOPP565\QUEUE.CPP
D:\USERS\USER-PC\DOCUMENTS\VISUAL STUDIO 2013\PROJECTS\YEAR2(2017)\CRYPTOPP565\HW17\CRYPTOPP565\WIN32\CRYPTLIB\DEBUG\VC120.PDB
^D:\USERS\USER-PC\DOCUMENTS\VISUAL STUDIO 2013\PROJECTS\YEAR2(2017)\CRYPTOPP565\HW17\CRYPTOPP565\RABIN.CPP
D:\USERS\USER-PC\DOCUMENTS\VISUAL STUDIO 2013\PROJECTS\YEAR2(2017)\CRYPTOPP565\HW17\CRYPTOPP565\WIN32\CRYPTLIB\DEBUG\VC120.PDB
^D:\USERS\USER-PC\DOCUMENTS\VISUAL STUDIO 2013\PROJECTS\YEAR2(2017)\CRYPTOPP565\HW17\CRYPTOPP565\RANDPOOL.CPP
D:\USERS\USER-PC\DOCUMENTS\VISUAL STUDIO 2013\PROJECTS\YEAR2(2017)\CRYPTOPP565\HW17\CRYPTOPP565\WIN32\CRYPTLIB\DEBUG\VC120.PDB
^D:\USERS\USER-PC\DOCUMENTS\VISUAL STUDIO 2013\PROJECTS\YEAR2(2017)\CRYPTOPP565\HW17\CRYPTOPP565\RC2.CPP
D:\USERS\USER-PC\DOCUMENTS\VISUAL STUDIO 2013\PROJECTS\YEAR2(2017)\CRYPTOPP565\HW17\CRYPTOPP565\WIN32\CRYPTLIB\DEBUG\VC120.PDB
^D:\USERS\USER-PC\DOCUMENTS\VISUAL STUDIO 2013\PROJECTS\YEAR2(2017)\CRYPTOPP565\HW17\CRYPTOPP565\RC5.CPP
D:\USERS\USER-PC\DOCUMENTS\VISUAL STUDIO 2013\PROJECTS\YEAR2(2017)\CRYPTOPP565\HW17\CRYPTOPP565\WIN32\CRYPTLIB\DEBUG\VC120.PDB
^D:\USERS\USER-PC\DOCUMENTS\VISUAL STUDIO 2013\PROJECTS\YEAR2(2017)\CRYPTOPP565\HW17\CRYPTOPP565\RC6.CPP
D:\USERS\USER-PC\DOCUMENTS\VISUAL STUDIO 2013\PROJECTS\YEAR2(2017)\CRYPTOPP565\HW17\CRYPTOPP565\WIN32\CRYPTLIB\DEBUG\VC120.PDB
^D:\USERS\USER-PC\DOCUMENTS\VISUAL STUDIO 2013\PROJECTS\YEAR2(2017)\CRYPTOPP565\HW17\CRYPTOPP565\RDRAND.CPP
D:\USERS\USER-PC\DOCUMENTS\VISUAL STUDIO 2013\PROJECTS\YEAR2(2017)\CRYPTOPP565\HW17\CRYPTOPP565\WIN32\CRYPTLIB\DEBUG\VC120.PDB
^D:\USERS\USER-PC\DOCUMENTS\VISUAL STUDIO 2013\PROJECTS\YEAR2(2017)\CRYPTOPP565\HW17\CRYPTOPP565\RDTABLES.CPP
D:\USERS\USER-PC\DOCUMENTS\VISUAL STUDIO 2013\PROJECTS\YEAR2(2017)\CRYPTOPP565\HW17\CRYPTOPP565\WIN32\CRYPTLIB\DEBUG\VC120.PDB
^D:\USERS\USER-PC\DOCUMENTS\VISUAL STUDIO 2013\PROJECTS\YEAR2(2017)\CRYPTOPP565\HW17\CRYPTOPP565\RIJNDAEL.CPP
D:\USERS\USER-PC\DOCUMENTS\VISUAL STUDIO 2013\PROJECTS\YEAR2(2017)\CRYPTOPP565\HW17\CRYPTOPP565\WIN32\CRYPTLIB\DEBUG\VC120.PDB
^D:\USERS\USER-PC\DOCUMENTS\VISUAL STUDIO 2013\PROJECTS\YEAR2(2017)\CRYPTOPP565\HW17\CRYPTOPP565\RIPEMD.CPP
D:\USERS\USER-PC\DOCUMENTS\VISUAL STUDIO 2013\PROJECTS\YEAR2(2017)\CRYPTOPP565\HW17\CRYPTOPP565\WIN32\CRYPTLIB\DEBUG\VC120.PDB
^D:\USERS\USER-PC\DOCUMENTS\VISUAL STUDIO 2013\PROJECTS\YEAR2(2017)\CRYPTOPP565\HW17\CRYPTOPP565\RNG.CPP
D:\USERS\USER-PC\DOCUMENTS\VISUAL STUDIO 2013\PROJECTS\YEAR2(2017)\CRYPTOPP565\HW17\CRYPTOPP565\WIN32\CRYPTLIB\DEBUG\VC120.PDB
^D:\USERS\USER-PC\DOCUMENTS\VISUAL STUDIO 2013\PROJECTS\YEAR2(2017)\CRYPTOPP565\HW17\CRYPTOPP565\RSA.CPP
D:\USERS\USER-PC\DOCUMENTS\VISUAL STUDIO 2013\PROJECTS\YEAR2(2017)\CRYPTOPP565\HW17\CRYPTOPP565\WIN32\CRYPTLIB\DEBUG\VC120.PDB
^D:\USERS\USER-PC\DOCUMENTS\VISUAL STUDIO 2013\PROJECTS\YEAR2(2017)\CRYPTOPP565\HW17\CRYPTOPP565\RW.CPP
D:\USERS\USER-PC\DOCUMENTS\VISUAL STUDIO 2013\PROJECTS\YEAR2(2017)\CRYPTOPP565\HW17\CRYPTOPP565\WIN32\CRYPTLIB\DEBUG\VC120.PDB
^D:\USERS\USER-PC\DOCUMENTS\VISUAL STUDIO 2013\PROJECTS\YEAR2(2017)\CRYPTOPP565\HW17\CRYPTOPP565\SAFER.CPP
D:\USERS\USER-PC\DOCUMENTS\VISUAL STUDIO 2013\PROJECTS\YEAR2(2017)\CRYPTOPP565\HW17\CRYPTOPP565\WIN32\CRYPTLIB\DEBUG\VC120.PDB
^D:\USERS\USER-PC\DOCUMENTS\VISUAL STUDIO 2013\PROJECTS\YEAR2(2017)\CRYPTOPP565\HW17\CRYPTOPP565\SALSA.CPP
D:\USERS\USER-PC\DOCUMENTS\VISUAL STUDIO 2013\PROJECTS\YEAR2(2017)\CRYPTOPP565\HW17\CRYPTOPP565\WIN32\CRYPTLIB\DEBUG\VC120.PDB
^D:\USERS\USER-PC\DOCUMENTS\VISUAL STUDIO 2013\PROJECTS\YEAR2(2017)\CRYPTOPP565\HW17\CRYPTOPP565\SEAL.CPP
D:\USERS\USER-PC\DOCUMENTS\VISUAL STUDIO 2013\PROJECTS\YEAR2(2017)\CRYPTOPP565\HW17\CRYPTOPP565\WIN32\CRYPTLIB\DEBUG\VC120.PDB
^D:\USERS\USER-PC\DOCUMENTS\VISUAL STUDIO 2013\PROJECTS\YEAR2(2017)\CRYPTOPP565\HW17\CRYPTOPP565\SEED.CPP
D:\USERS\USER-PC\DOCUMENTS\VISUAL STUDIO 2013\PROJECTS\YEAR2(2017)\CRYPTOPP565\HW17\CRYPTOPP565\WIN32\CRYPTLIB\DEBUG\VC120.PDB
^D:\USERS\USER-PC\DOCUMENTS\VISUAL STUDIO 2013\PROJECTS\YEAR2(2017)\CRYPTOPP565\HW17\CRYPTOPP565\SERPENT.CPP
D:\USERS\USER-PC\DOCUMENTS\VISUAL STUDIO 2013\PROJECTS\YEAR2(2017)\CRYPTOPP565\HW17\CRYPTOPP565\WIN32\CRYPTLIB\DEBUG\VC120.PDB
^D:\USERS\USER-PC\DOCUMENTS\VISUAL STUDIO 2013\PROJECTS\YEAR2(2017)\CRYPTOPP565\HW17\CRYPTOPP565\SHA.CPP
D:\USERS\USER-PC\DOCUMENTS\VISUAL STUDIO 2013\PROJECTS\YEAR2(2017)\CRYPTOPP565\HW17\CRYPTOPP565\WIN32\CRYPTLIB\DEBUG\VC120.PDB
^D:\USERS\USER-PC\DOCUMENTS\VISUAL STUDIO 2013\PROJECTS\YEAR2(2017)\CRYPTOPP565\HW17\CRYPTOPP565\SHA3.CPP
D:\USERS\USER-PC\DOCUMENTS\VISUAL STUDIO 2013\PROJECTS\YEAR2(2017)\CRYPTOPP565\HW17\CRYPTOPP565\WIN32\CRYPTLIB\DEBUG\VC120.PDB
^D:\USERS\USER-PC\DOCUMENTS\VISUAL STUDIO 2013\PROJECTS\YEAR2(2017)\CRYPTOPP565\HW17\CRYPTOPP565\SHACAL2.CPP
D:\USERS\USER-PC\DOCUMENTS\VISUAL STUDIO 2013\PROJECTS\YEAR2(2017)\CRYPTOPP565\HW17\CRYPTOPP565\WIN32\CRYPTLIB\DEBUG\VC120.PDB
^D:\USERS\USER-PC\DOCUMENTS\VISUAL STUDIO 2013\PROJECTS\YEAR2(2017)\CRYPTOPP565\HW17\CRYPTOPP565\SHARK.CPP
D:\USERS\USER-PC\DOCUMENTS\VISUAL STUDIO 2013\PROJECTS\YEAR2(2017)\CRYPTOPP565\HW17\CRYPTOPP565\WIN32\CRYPTLIB\DEBUG\VC120.PDB
^D:\USERS\USER-PC\DOCUMENTS\VISUAL STUDIO 2013\PROJECTS\YEAR2(2017)\CRYPTOPP565\HW17\CRYPTOPP565\SHARKBOX.CPP
D:\USERS\USER-PC\DOCUMENTS\VISUAL STUDIO 2013\PROJECTS\YEAR2(2017)\CRYPTOPP565\HW17\CRYPTOPP565\WIN32\CRYPTLIB\DEBUG\VC120.PDB
^D:\USERS\USER-PC\DOCUMENTS\VISUAL STUDIO 2013\PROJECTS\YEAR2(2017)\CRYPTOPP565\HW17\CRYPTOPP565\SIMPLE.CPP
D:\USERS\USER-PC\DOCUMENTS\VISUAL STUDIO 2013\PROJECTS\YEAR2(2017)\CRYPTOPP565\HW17\CRYPTOPP565\WIN32\CRYPTLIB\DEBUG\VC120.PDB
^D:\USERS\USER-PC\DOCUMENTS\VISUAL STUDIO 2013\PROJECTS\YEAR2(2017)\CRYPTOPP565\HW17\CRYPTOPP565\SKIPJACK.CPP
D:\USERS\USER-PC\DOCUMENTS\VISUAL STUDIO 2013\PROJECTS\YEAR2(2017)\CRYPTOPP565\HW17\CRYPTOPP565\WIN32\CRYPTLIB\DEBUG\VC120.PDB
^D:\USERS\USER-PC\DOCUMENTS\VISUAL STUDIO 2013\PROJECTS\YEAR2(2017)\CRYPTOPP565\HW17\CRYPTOPP565\SOCKETFT.CPP
D:\USERS\USER-PC\DOCUMENTS\VISUAL STUDIO 2013\PROJECTS\YEAR2(2017)\CRYPTOPP565\HW17\CRYPTOPP565\WIN32\CRYPTLIB\DEBUG\VC120.PDB
^D:\USERS\USER-PC\DOCUMENTS\VISUAL STUDIO 2013\PROJECTS\YEAR2(2017)\CRYPTOPP565\HW17\CRYPTOPP565\SOSEMANUK.CPP
D:\USERS\USER-PC\DOCUMENTS\VISUAL STUDIO 2013\PROJECTS\YEAR2(2017)\CRYPTOPP565\HW17\CRYPTOPP565\WIN32\CRYPTLIB\DEBUG\VC120.PDB
^D:\USERS\USER-PC\DOCUMENTS\VISUAL STUDIO 2013\PROJECTS\YEAR2(2017)\CRYPTOPP565\HW17\CRYPTOPP565\SQUARE.CPP
D:\USERS\USER-PC\DOCUMENTS\VISUAL STUDIO 2013\PROJECTS\YEAR2(2017)\CRYPTOPP565\HW17\CRYPTOPP565\WIN32\CRYPTLIB\DEBUG\VC120.PDB
^D:\USERS\USER-PC\DOCUMENTS\VISUAL STUDIO 2013\PROJECTS\YEAR2(2017)\CRYPTOPP565\HW17\CRYPTOPP565\SQUARETB.CPP
D:\USERS\USER-PC\DOCUMENTS\VISUAL STUDIO 2013\PROJECTS\YEAR2(2017)\CRYPTOPP565\HW17\CRYPTOPP565\WIN32\CRYPTLIB\DEBUG\VC120.PDB
^D:\USERS\USER-PC\DOCUMENTS\VISUAL STUDIO 2013\PROJECTS\YEAR2(2017)\CRYPTOPP565\HW17\CRYPTOPP565\STRCIPHR.CPP
D:\USERS\USER-PC\DOCUMENTS\VISUAL STUDIO 2013\PROJECTS\YEAR2(2017)\CRYPTOPP565\HW17\CRYPTOPP565\WIN32\CRYPTLIB\DEBUG\VC120.PDB
^D:\USERS\USER-PC\DOCUMENTS\VISUAL STUDIO 2013\PROJECTS\YEAR2(2017)\CRYPTOPP565\HW17\CRYPTOPP565\TEA.CPP
D:\USERS\USER-PC\DOCUMENTS\VISUAL STUDIO 2013\PROJECTS\YEAR2(2017)\CRYPTOPP565\HW17\CRYPTOPP565\WIN32\CRYPTLIB\DEBUG\VC120.PDB
^D:\USERS\USER-PC\DOCUMENTS\VISUAL STUDIO 2013\PROJECTS\YEAR2(2017)\CRYPTOPP565\HW17\CRYPTOPP565\TFTABLES.CPP
D:\USERS\USER-PC\DOCUMENTS\VISUAL STUDIO 2013\PROJECTS\YEAR2(2017)\CRYPTOPP565\HW17\CRYPTOPP565\WIN32\CRYPTLIB\DEBUG\VC120.PDB
^D:\USERS\USER-PC\DOCUMENTS\VISUAL STUDIO 2013\PROJECTS\YEAR2(2017)\CRYPTOPP565\HW17\CRYPTOPP565\TIGER.CPP
D:\USERS\USER-PC\DOCUMENTS\VISUAL STUDIO 2013\PROJECTS\YEAR2(2017)\CRYPTOPP565\HW17\CRYPTOPP565\WIN32\CRYPTLIB\DEBUG\VC120.PDB
^D:\USERS\USER-PC\DOCUMENTS\VISUAL STUDIO 2013\PROJECTS\YEAR2(2017)\CRYPTOPP565\HW17\CRYPTOPP565\TIGERTAB.CPP
D:\USERS\USER-PC\DOCUMENTS\VISUAL STUDIO 2013\PROJECTS\YEAR2(2017)\CRYPTOPP565\HW17\CRYPTOPP565\WIN32\CRYPTLIB\DEBUG\VC120.PDB
^D:\USERS\USER-PC\DOCUMENTS\VISUAL STUDIO 2013\PROJECTS\YEAR2(2017)\CRYPTOPP565\HW17\CRYPTOPP565\TRDLOCAL.CPP
D:\USERS\USER-PC\DOCUMENTS\VISUAL STUDIO 2013\PROJECTS\YEAR2(2017)\CRYPTOPP565\HW17\CRYPTOPP565\WIN32\CRYPTLIB\DEBUG\VC120.PDB
^D:\USERS\USER-PC\DOCUMENTS\VISUAL STUDIO 2013\PROJECTS\YEAR2(2017)\CRYPTOPP565\HW17\CRYPTOPP565\TTMAC.CPP
D:\USERS\USER-PC\DOCUMENTS\VISUAL STUDIO 2013\PROJECTS\YEAR2(2017)\CRYPTOPP565\HW17\CRYPTOPP565\WIN32\CRYPTLIB\DEBUG\VC120.PDB
^D:\USERS\USER-PC\DOCUMENTS\VISUAL STUDIO 2013\PROJECTS\YEAR2(2017)\CRYPTOPP565\HW17\CRYPTOPP565\TWOFISH.CPP
D:\USERS\USER-PC\DOCUMENTS\VISUAL STUDIO 2013\PROJECTS\YEAR2(2017)\CRYPTOPP565\HW17\CRYPTOPP565\WIN32\CRYPTLIB\DEBUG\VC120.PDB
^D:\USERS\USER-PC\DOCUMENTS\VISUAL STUDIO 2013\PROJECTS\YEAR2(2017)\CRYPTOPP565\HW17\CRYPTOPP565\VMAC.CPP
D:\USERS\USER-PC\DOCUMENTS\VISUAL STUDIO 2013\PROJECTS\YEAR2(2017)\CRYPTOPP565\HW17\CRYPTOPP565\WIN32\CRYPTLIB\DEBUG\VC120.PDB
^D:\USERS\USER-PC\DOCUMENTS\VISUAL STUDIO 2013\PROJECTS\YEAR2(2017)\CRYPTOPP565\HW17\CRYPTOPP565\WAIT.CPP
D:\USERS\USER-PC\DOCUMENTS\VISUAL STUDIO 2013\PROJECTS\YEAR2(2017)\CRYPTOPP565\HW17\CRYPTOPP565\WIN32\CRYPTLIB\DEBUG\VC120.PDB
^D:\USERS\USER-PC\DOCUMENTS\VISUAL STUDIO 2013\PROJECTS\YEAR2(2017)\CRYPTOPP565\HW17\CRYPTOPP565\WAKE.CPP
D:\USERS\USER-PC\DOCUMENTS\VISUAL STUDIO 2013\PROJECTS\YEAR2(2017)\CRYPTOPP565\HW17\CRYPTOPP565\WIN32\CRYPTLIB\DEBUG\VC120.PDB
^D:\USERS\USER-PC\DOCUMENTS\VISUAL STUDIO 2013\PROJECTS\YEAR2(2017)\CRYPTOPP565\HW17\CRYPTOPP565\WHRLPOOL.CPP
D:\USERS\USER-PC\DOCUMENTS\VISUAL STUDIO 2013\PROJECTS\YEAR2(2017)\CRYPTOPP565\HW17\CRYPTOPP565\WIN32\CRYPTLIB\DEBUG\VC120.PDB
^D:\USERS\USER-PC\DOCUMENTS\VISUAL STUDIO 2013\PROJECTS\YEAR2(2017)\CRYPTOPP565\HW17\CRYPTOPP565\WINPIPES.CPP
D:\USERS\USER-PC\DOCUMENTS\VISUAL STUDIO 2013\PROJECTS\YEAR2(2017)\CRYPTOPP565\HW17\CRYPTOPP565\WIN32\CRYPTLIB\DEBUG\VC120.PDB
^D:\USERS\USER-PC\DOCUMENTS\VISUAL STUDIO 2013\PROJECTS\YEAR2(2017)\CRYPTOPP565\HW17\CRYPTOPP565\XTR.CPP
D:\USERS\USER-PC\DOCUMENTS\VISUAL STUDIO 2013\PROJECTS\YEAR2(2017)\CRYPTOPP565\HW17\CRYPTOPP565\WIN32\CRYPTLIB\DEBUG\VC120.PDB
^D:\USERS\USER-PC\DOCUMENTS\VISUAL STUDIO 2013\PROJECTS\YEAR2(2017)\CRYPTOPP565\HW17\CRYPTOPP565\XTRCRYPT.CPP
D:\USERS\USER-PC\DOCUMENTS\VISUAL STUDIO 2013\PROJECTS\YEAR2(2017)\CRYPTOPP565\HW17\CRYPTOPP565\WIN32\CRYPTLIB\DEBUG\VC120.PDB
^D:\USERS\USER-PC\DOCUMENTS\VISUAL STUDIO 2013\PROJECTS\YEAR2(2017)\CRYPTOPP565\HW17\CRYPTOPP565\ZDEFLATE.CPP
D:\USERS\USER-PC\DOCUMENTS\VISUAL STUDIO 2013\PROJECTS\YEAR2(2017)\CRYPTOPP565\HW17\CRYPTOPP565\WIN32\CRYPTLIB\DEBUG\VC120.PDB
^D:\USERS\USER-PC\DOCUMENTS\VISUAL STUDIO 2013\PROJECTS\YEAR2(2017)\CRYPTOPP565\HW17\CRYPTOPP565\ZINFLATE.CPP
D:\USERS\USER-PC\DOCUMENTS\VISUAL STUDIO 2013\PROJECTS\YEAR2(2017)\CRYPTOPP565\HW17\CRYPTOPP565\WIN32\CRYPTLIB\DEBUG\VC120.PDB
^D:\USERS\USER-PC\DOCUMENTS\VISUAL STUDIO 2013\PROJECTS\YEAR2(2017)\CRYPTOPP565\HW17\CRYPTOPP565\ZLIB.CPP
D:\USERS\USER-PC\DOCUMENTS\VISUAL STUDIO 2013\PROJECTS\YEAR2(2017)\CRYPTOPP565\HW17\CRYPTOPP565\WIN32\CRYPTLIB\DEBUG\VC120.PDB
^D:\USERS\USER-PC\DOCUMENTS\VISUAL STUDIO 2013\PROJECTS\YEAR2(2017)\CRYPTOPP565\HW17\CRYPTOPP565\DLL.CPP|D:\USERS\USER-PC\DOCUMENTS\VISUAL STUDIO 2013\PROJECTS\YEAR2(2017)\CRYPTOPP565\HW17\CRYPTOPP565\ITERHASH.CPP
D:\USERS\USER-PC\DOCUMENTS\VISUAL STUDIO 2013\PROJECTS\YEAR2(2017)\CRYPTOPP565\HW17\CRYPTOPP565\WIN32\CRYPTLIB\DEBUG\VC120.PDB
D:\USERS\USER-PC\DOCUMENTS\VISUAL STUDIO 2013\PROJECTS\YEAR2(2017)\CRYPTOPP565\HW17\CRYPTOPP565\WIN32\CRYPTLIB\DEBUG\ITERHASH.OBJ
D:\USERS\USER-PC\DOCUMENTS\VISUAL STUDIO 2013\PROJECTS\YEAR2(2017)\CRYPTOPP565\HW17\CRYPTOPP565\WIN32\CRYPTLIB\DEBUG\DLL.OBJ
^D:\USERS\USER-PC\DOCUMENTS\VISUAL STUDIO 2013\PROJECTS\YEAR2(2017)\CRYPTOPP565\HW17\CRYPTOPP565\DLL.CPP
D:\USERS\USER-PC\DOCUMENTS\VISUAL STUDIO 2013\PROJECTS\YEAR2(2017)\CRYPTOPP565\HW17\CRYPTOPP565\WIN32\CRYPTLIB\DEBUG\VC120.PDB
^D:\USERS\USER-PC\DOCUMENTS\VISUAL STUDIO 2013\PROJECTS\YEAR2(2017)\CRYPTOPP565\HW17\CRYPTOPP565\ITERHASH.CPP
D:\USERS\USER-PC\DOCUMENTS\VISUAL STUDIO 2013\PROJECTS\YEAR2(2017)\CRYPTOPP565\HW17\CRYPTOPP565\WIN32\CRYPTLIB\DEBUG\VC120.PDB
