^D:\USERS\USER-PC\DOCUMENTS\VISUAL STUDIO 2013\PROJECTS\YEAR2(2017)\CRYPTOPP565\HW17\CRYPTOPP565\ADHOC.CPP.PROTO
D:\USERS\USER-PC\DOCUMENTS\VISUAL STUDIO 2013\PROJECTS\YEAR2(2017)\CRYPTOPP565\HW17\CRYPTOPP565\ADHOC.CPP.COPIED
^D:\USERS\USER-PC\DOCUMENTS\VISUAL STUDIO 2013\PROJECTS\YEAR2(2017)\CRYPTOPP565\HW17\CRYPTOPP565\RDRAND.ASM
D:\USERS\USER-PC\DOCUMENTS\VISUAL STUDIO 2013\PROJECTS\YEAR2(2017)\CRYPTOPP565\HW17\CRYPTOPP565\WIN32\CRYPTLIB\DEBUG\RDRAND-X86.OBJ
