^D:\USERS\USER-PC\DOCUMENTS\VISUAL STUDIO 2013\PROJECTS\YEAR2(2017)\C++-SEMEST2\HW18_DANIELDAVIDOV\FILES\HW18_DANIELDAVIDOV\HW18_DANIELDAVIDOV\DEBUG\HELPER.OBJ|D:\USERS\USER-PC\DOCUMENTS\VISUAL STUDIO 2013\PROJECTS\YEAR2(2017)\C++-SEMEST2\HW18_DANIELDAVIDOV\FILES\HW18_DANIELDAVIDOV\HW18_DANIELDAVIDOV\DEBUG\SOURCE.OBJ
D:\USERS\USER-PC\DOCUMENTS\VISUAL STUDIO 2013\PROJECTS\YEAR2(2017)\C++-SEMEST2\HW18_DANIELDAVIDOV\FILES\HW18_DANIELDAVIDOV\DEBUG\HW18_DANIELDAVIDOV.ILK
D:\USERS\USER-PC\DOCUMENTS\VISUAL STUDIO 2013\PROJECTS\YEAR2(2017)\C++-SEMEST2\HW18_DANIELDAVIDOV\FILES\HW18_DANIELDAVIDOV\DEBUG\HW18_DANIELDAVIDOV.EXE
D:\USERS\USER-PC\DOCUMENTS\VISUAL STUDIO 2013\PROJECTS\YEAR2(2017)\C++-SEMEST2\HW18_DANIELDAVIDOV\FILES\HW18_DANIELDAVIDOV\DEBUG\HW18_DANIELDAVIDOV.PDB
