^D:\USERS\USER-PC\DOCUMENTS\VISUAL STUDIO 2013\PROJECTS\YEAR2(2017)\CRYPTOPP565\HW17\CRYPTOPP565\ADHOC.CPP|D:\USERS\USER-PC\DOCUMENTS\VISUAL STUDIO 2013\PROJECTS\YEAR2(2017)\CRYPTOPP565\HW17\CRYPTOPP565\BENCH1.CPP|D:\USERS\USER-PC\DOCUMENTS\VISUAL STUDIO 2013\PROJECTS\YEAR2(2017)\CRYPTOPP565\HW17\CRYPTOPP565\BENCH2.CPP|D:\USERS\USER-PC\DOCUMENTS\VISUAL STUDIO 2013\PROJECTS\YEAR2(2017)\CRYPTOPP565\HW17\CRYPTOPP565\DATATEST.CPP|D:\USERS\USER-PC\DOCUMENTS\VISUAL STUDIO 2013\PROJECTS\YEAR2(2017)\CRYPTOPP565\HW17\CRYPTOPP565\DLLTEST.CPP|D:\USERS\USER-PC\DOCUMENTS\VISUAL STUDIO 2013\PROJECTS\YEAR2(2017)\CRYPTOPP565\HW17\CRYPTOPP565\FIPSALGT.CPP|D:\USERS\USER-PC\DOCUMENTS\VISUAL STUDIO 2013\PROJECTS\YEAR2(2017)\CRYPTOPP565\HW17\CRYPTOPP565\REGTEST.CPP|D:\USERS\USER-PC\DOCUMENTS\VISUAL STUDIO 2013\PROJECTS\YEAR2(2017)\CRYPTOPP565\HW17\CRYPTOPP565\TEST.CPP|D:\USERS\USER-PC\DOCUMENTS\VISUAL STUDIO 2013\PROJECTS\YEAR2(2017)\CRYPTOPP565\HW17\CRYPTOPP565\VALIDAT1.CPP|D:\USERS\USER-PC\DOCUMENTS\VISUAL STUDIO 2013\PROJECTS\YEAR2(2017)\CRYPTOPP565\HW17\CRYPTOPP565\VALIDAT2.CPP|D:\USERS\USER-PC\DOCUMENTS\VISUAL STUDIO 2013\PROJECTS\YEAR2(2017)\CRYPTOPP565\HW17\CRYPTOPP565\VALIDAT3.CPP
D:\USERS\USER-PC\DOCUMENTS\VISUAL STUDIO 2013\PROJECTS\YEAR2(2017)\CRYPTOPP565\HW17\CRYPTOPP565\WIN32\CRYPTEST\DEBUG\VC120.PDB
D:\USERS\USER-PC\DOCUMENTS\VISUAL STUDIO 2013\PROJECTS\YEAR2(2017)\CRYPTOPP565\HW17\CRYPTOPP565\WIN32\CRYPTEST\DEBUG\VALIDAT3.OBJ
D:\USERS\USER-PC\DOCUMENTS\VISUAL STUDIO 2013\PROJECTS\YEAR2(2017)\CRYPTOPP565\HW17\CRYPTOPP565\WIN32\CRYPTEST\DEBUG\VALIDAT2.OBJ
D:\USERS\USER-PC\DOCUMENTS\VISUAL STUDIO 2013\PROJECTS\YEAR2(2017)\CRYPTOPP565\HW17\CRYPTOPP565\WIN32\CRYPTEST\DEBUG\VALIDAT1.OBJ
D:\USERS\USER-PC\DOCUMENTS\VISUAL STUDIO 2013\PROJECTS\YEAR2(2017)\CRYPTOPP565\HW17\CRYPTOPP565\WIN32\CRYPTEST\DEBUG\TEST.OBJ
D:\USERS\USER-PC\DOCUMENTS\VISUAL STUDIO 2013\PROJECTS\YEAR2(2017)\CRYPTOPP565\HW17\CRYPTOPP565\WIN32\CRYPTEST\DEBUG\REGTEST.OBJ
D:\USERS\USER-PC\DOCUMENTS\VISUAL STUDIO 2013\PROJECTS\YEAR2(2017)\CRYPTOPP565\HW17\CRYPTOPP565\WIN32\CRYPTEST\DEBUG\FIPSALGT.OBJ
D:\USERS\USER-PC\DOCUMENTS\VISUAL STUDIO 2013\PROJECTS\YEAR2(2017)\CRYPTOPP565\HW17\CRYPTOPP565\WIN32\CRYPTEST\DEBUG\DLLTEST.OBJ
D:\USERS\USER-PC\DOCUMENTS\VISUAL STUDIO 2013\PROJECTS\YEAR2(2017)\CRYPTOPP565\HW17\CRYPTOPP565\WIN32\CRYPTEST\DEBUG\DATATEST.OBJ
D:\USERS\USER-PC\DOCUMENTS\VISUAL STUDIO 2013\PROJECTS\YEAR2(2017)\CRYPTOPP565\HW17\CRYPTOPP565\WIN32\CRYPTEST\DEBUG\BENCH2.OBJ
D:\USERS\USER-PC\DOCUMENTS\VISUAL STUDIO 2013\PROJECTS\YEAR2(2017)\CRYPTOPP565\HW17\CRYPTOPP565\WIN32\CRYPTEST\DEBUG\BENCH1.OBJ
D:\USERS\USER-PC\DOCUMENTS\VISUAL STUDIO 2013\PROJECTS\YEAR2(2017)\CRYPTOPP565\HW17\CRYPTOPP565\WIN32\CRYPTEST\DEBUG\ADHOC.OBJ
^D:\USERS\USER-PC\DOCUMENTS\VISUAL STUDIO 2013\PROJECTS\YEAR2(2017)\CRYPTOPP565\HW17\CRYPTOPP565\ADHOC.CPP
D:\USERS\USER-PC\DOCUMENTS\VISUAL STUDIO 2013\PROJECTS\YEAR2(2017)\CRYPTOPP565\HW17\CRYPTOPP565\WIN32\CRYPTEST\DEBUG\VC120.PDB
^D:\USERS\USER-PC\DOCUMENTS\VISUAL STUDIO 2013\PROJECTS\YEAR2(2017)\CRYPTOPP565\HW17\CRYPTOPP565\BENCH1.CPP
D:\USERS\USER-PC\DOCUMENTS\VISUAL STUDIO 2013\PROJECTS\YEAR2(2017)\CRYPTOPP565\HW17\CRYPTOPP565\WIN32\CRYPTEST\DEBUG\VC120.PDB
^D:\USERS\USER-PC\DOCUMENTS\VISUAL STUDIO 2013\PROJECTS\YEAR2(2017)\CRYPTOPP565\HW17\CRYPTOPP565\BENCH2.CPP
D:\USERS\USER-PC\DOCUMENTS\VISUAL STUDIO 2013\PROJECTS\YEAR2(2017)\CRYPTOPP565\HW17\CRYPTOPP565\WIN32\CRYPTEST\DEBUG\VC120.PDB
^D:\USERS\USER-PC\DOCUMENTS\VISUAL STUDIO 2013\PROJECTS\YEAR2(2017)\CRYPTOPP565\HW17\CRYPTOPP565\DATATEST.CPP
D:\USERS\USER-PC\DOCUMENTS\VISUAL STUDIO 2013\PROJECTS\YEAR2(2017)\CRYPTOPP565\HW17\CRYPTOPP565\WIN32\CRYPTEST\DEBUG\VC120.PDB
^D:\USERS\USER-PC\DOCUMENTS\VISUAL STUDIO 2013\PROJECTS\YEAR2(2017)\CRYPTOPP565\HW17\CRYPTOPP565\DLLTEST.CPP
D:\USERS\USER-PC\DOCUMENTS\VISUAL STUDIO 2013\PROJECTS\YEAR2(2017)\CRYPTOPP565\HW17\CRYPTOPP565\WIN32\CRYPTEST\DEBUG\VC120.PDB
^D:\USERS\USER-PC\DOCUMENTS\VISUAL STUDIO 2013\PROJECTS\YEAR2(2017)\CRYPTOPP565\HW17\CRYPTOPP565\FIPSALGT.CPP
D:\USERS\USER-PC\DOCUMENTS\VISUAL STUDIO 2013\PROJECTS\YEAR2(2017)\CRYPTOPP565\HW17\CRYPTOPP565\WIN32\CRYPTEST\DEBUG\VC120.PDB
^D:\USERS\USER-PC\DOCUMENTS\VISUAL STUDIO 2013\PROJECTS\YEAR2(2017)\CRYPTOPP565\HW17\CRYPTOPP565\REGTEST.CPP
D:\USERS\USER-PC\DOCUMENTS\VISUAL STUDIO 2013\PROJECTS\YEAR2(2017)\CRYPTOPP565\HW17\CRYPTOPP565\WIN32\CRYPTEST\DEBUG\VC120.PDB
^D:\USERS\USER-PC\DOCUMENTS\VISUAL STUDIO 2013\PROJECTS\YEAR2(2017)\CRYPTOPP565\HW17\CRYPTOPP565\TEST.CPP
D:\USERS\USER-PC\DOCUMENTS\VISUAL STUDIO 2013\PROJECTS\YEAR2(2017)\CRYPTOPP565\HW17\CRYPTOPP565\WIN32\CRYPTEST\DEBUG\VC120.PDB
^D:\USERS\USER-PC\DOCUMENTS\VISUAL STUDIO 2013\PROJECTS\YEAR2(2017)\CRYPTOPP565\HW17\CRYPTOPP565\VALIDAT1.CPP
D:\USERS\USER-PC\DOCUMENTS\VISUAL STUDIO 2013\PROJECTS\YEAR2(2017)\CRYPTOPP565\HW17\CRYPTOPP565\WIN32\CRYPTEST\DEBUG\VC120.PDB
^D:\USERS\USER-PC\DOCUMENTS\VISUAL STUDIO 2013\PROJECTS\YEAR2(2017)\CRYPTOPP565\HW17\CRYPTOPP565\VALIDAT2.CPP
D:\USERS\USER-PC\DOCUMENTS\VISUAL STUDIO 2013\PROJECTS\YEAR2(2017)\CRYPTOPP565\HW17\CRYPTOPP565\WIN32\CRYPTEST\DEBUG\VC120.PDB
^D:\USERS\USER-PC\DOCUMENTS\VISUAL STUDIO 2013\PROJECTS\YEAR2(2017)\CRYPTOPP565\HW17\CRYPTOPP565\VALIDAT3.CPP
D:\USERS\USER-PC\DOCUMENTS\VISUAL STUDIO 2013\PROJECTS\YEAR2(2017)\CRYPTOPP565\HW17\CRYPTOPP565\WIN32\CRYPTEST\DEBUG\VC120.PDB
