^D:\USERS\USER-PC\DOCUMENTS\VISUAL STUDIO 2013\PROJECTS\YEAR2(2017)\CRYPTOPP565\HW17\CRYPTOPP565\WIN32\CRYPTEST\DEBUG\ADHOC.OBJ|D:\USERS\USER-PC\DOCUMENTS\VISUAL STUDIO 2013\PROJECTS\YEAR2(2017)\CRYPTOPP565\HW17\CRYPTOPP565\WIN32\CRYPTEST\DEBUG\BENCH1.OBJ|D:\USERS\USER-PC\DOCUMENTS\VISUAL STUDIO 2013\PROJECTS\YEAR2(2017)\CRYPTOPP565\HW17\CRYPTOPP565\WIN32\CRYPTEST\DEBUG\BENCH2.OBJ|D:\USERS\USER-PC\DOCUMENTS\VISUAL STUDIO 2013\PROJECTS\YEAR2(2017)\CRYPTOPP565\HW17\CRYPTOPP565\WIN32\CRYPTEST\DEBUG\DATATEST.OBJ|D:\USERS\USER-PC\DOCUMENTS\VISUAL STUDIO 2013\PROJECTS\YEAR2(2017)\CRYPTOPP565\HW17\CRYPTOPP565\WIN32\CRYPTEST\DEBUG\DLLTEST.OBJ|D:\USERS\USER-PC\DOCUMENTS\VISUAL STUDIO 2013\PROJECTS\YEAR2(2017)\CRYPTOPP565\HW17\CRYPTOPP565\WIN32\CRYPTEST\DEBUG\FIPSALGT.OBJ|D:\USERS\USER-PC\DOCUMENTS\VISUAL STUDIO 2013\PROJECTS\YEAR2(2017)\CRYPTOPP565\HW17\CRYPTOPP565\WIN32\CRYPTEST\DEBUG\REGTEST.OBJ|D:\USERS\USER-PC\DOCUMENTS\VISUAL STUDIO 2013\PROJECTS\YEAR2(2017)\CRYPTOPP565\HW17\CRYPTOPP565\WIN32\CRYPTEST\DEBUG\TEST.OBJ|D:\USERS\USER-PC\DOCUMENTS\VISUAL STUDIO 2013\PROJECTS\YEAR2(2017)\CRYPTOPP565\HW17\CRYPTOPP565\WIN32\CRYPTEST\DEBUG\VALIDAT1.OBJ|D:\USERS\USER-PC\DOCUMENTS\VISUAL STUDIO 2013\PROJECTS\YEAR2(2017)\CRYPTOPP565\HW17\CRYPTOPP565\WIN32\CRYPTEST\DEBUG\VALIDAT2.OBJ|D:\USERS\USER-PC\DOCUMENTS\VISUAL STUDIO 2013\PROJECTS\YEAR2(2017)\CRYPTOPP565\HW17\CRYPTOPP565\WIN32\CRYPTEST\DEBUG\VALIDAT3.OBJ
D:\USERS\USER-PC\DOCUMENTS\VISUAL STUDIO 2013\PROJECTS\YEAR2(2017)\CRYPTOPP565\HW17\CRYPTOPP565\WIN32\OUTPUT\DEBUG\CRYPTEST.ILK
D:\USERS\USER-PC\DOCUMENTS\VISUAL STUDIO 2013\PROJECTS\YEAR2(2017)\CRYPTOPP565\HW17\CRYPTOPP565\WIN32\OUTPUT\DEBUG\CRYPTEST.EXE
D:\USERS\USER-PC\DOCUMENTS\VISUAL STUDIO 2013\PROJECTS\YEAR2(2017)\CRYPTOPP565\HW17\CRYPTOPP565\WIN32\OUTPUT\DEBUG\CRYPTLIB.PDB
